{
  "instance": "10_5_0.5l.json",
  "comments": "solution by BAP and CSP formulations",
  "objective": 307.53836301306853,
  "bap_objective": 13.0,
  "csp_objective": 602.076726026137,
  "products": [
    {
      "id": 2227,
      "type": "output",
      "source_block_id": 4786,
      "dest_block_id": 5065,
      "crane": 0,
      "start_time": 45.09999990463257,
      "end_time": 69.09999990463257,
      "source_cor": "(8,20,1)",
      "dest_cor": "(32,21,0)"
    },
    {
      "id": 2500,
      "type": "input",
      "source_block_id": 5016,
      "dest_block_id": 3344,
      "crane": 0,
      "start_time": 195.09999990463257,
      "end_time": 209.09999990463257,
      "source_cor": "(8,0,0)",
      "dest_cor": "(19,14,4)"
    },
    {
      "id": 2501,
      "type": "input",
      "source_block_id": 5094,
      "dest_block_id": 3343,
      "crane": 1,
      "start_time": 159.09999990463257,
      "end_time": 187.09999990463257,
      "source_cor": "(47,0,0)",
      "dest_cor": "(19,14,3)"
    },
    {
      "id": 2502,
      "type": "input",
      "source_block_id": 5014,
      "dest_block_id": 143,
      "crane": 1,
      "start_time": 6.099999904632568,
      "end_time": 28.09999990463257,
      "source_cor": "(7,0,0)",
      "dest_cor": "(29,1,3)"
    },
    {
      "id": 2503,
      "type": "input",
      "source_block_id": 5046,
      "dest_block_id": 4028,
      "crane": 0,
      "start_time": 25.09999990463257,
      "end_time": 42.09999990463257,
      "source_cor": "(23,0,0)",
      "dest_cor": "(6,17,3)"
    },
    {
      "id": 2504,
      "type": "input",
      "source_block_id": 5016,
      "dest_block_id": 954,
      "crane": 1,
      "start_time": 223.09999990463257,
      "end_time": 256.09999990463257,
      "source_cor": "(8,0,0)",
      "dest_cor": "(41,4,4)"
    },
    {
      "id": 2505,
      "type": "input",
      "source_block_id": 5143,
      "dest_block_id": 2523,
      "crane": 0,
      "start_time": 88.09999990463257,
      "end_time": 134.09999990463257,
      "source_cor": "(51,20,0)",
      "dest_cor": "(5,11,3)"
    },
    {
      "id": 2506,
      "type": "input",
      "source_block_id": 5132,
      "dest_block_id": 157,
      "crane": 0,
      "start_time": 139.09999990463257,
      "end_time": 171.09999990463257,
      "source_cor": "(0,15,0)",
      "dest_cor": "(32,1,2)"
    },
    {
      "id": 2507,
      "type": "input",
      "source_block_id": 5139,
      "dest_block_id": 333,
      "crane": 1,
      "start_time": 91.09999990463257,
      "end_time": 125.09999990463257,
      "source_cor": "(51,18,0)",
      "dest_cor": "(17,2,3)"
    },
    {
      "id": 2508,
      "type": "input",
      "source_block_id": 5034,
      "dest_block_id": 3998,
      "crane": 1,
      "start_time": 40.09999990463257,
      "end_time": 73.09999990463257,
      "source_cor": "(17,0,0)",
      "dest_cor": "(50,16,3)"
    }
  ]
}