{
  "instance": "10_1_0.7m.json",
  "comments": "solution by BAP and CSP formulations",
  "objective": 198.43092253128307,
  "bap_objective": 48.0,
  "csp_objective": 348.86184506256615,
  "products": [
    {
      "id": 186,
      "type": "output",
      "source_block_id": 0,
      "dest_block_id": 608,
      "crane": 0,
      "start_time": 94.5,
      "end_time": 129.5,
      "source_cor": "(1,1,0)",
      "dest_cor": "(36,5,0)"
    },
    {
      "id": 367,
      "type": "input",
      "source_block_id": 530,
      "dest_block_id": 327,
      "crane": 0,
      "start_time": 1.5,
      "end_time": 12.5,
      "source_cor": "(2,16,0)",
      "dest_cor": "(13,10,0)"
    },
    {
      "id": 368,
      "type": "input",
      "source_block_id": 614,
      "dest_block_id": 200,
      "crane": 1,
      "start_time": 3.0999999046325684,
      "end_time": 13.099999904632568,
      "source_cor": "(36,8,0)",
      "dest_cor": "(26,6,0)"
    },
    {
      "id": 369,
      "type": "input",
      "source_block_id": 600,
      "dest_block_id": 194,
      "crane": 1,
      "start_time": 23.09999990463257,
      "end_time": 39.09999990463257,
      "source_cor": "(36,1,0)",
      "dest_cor": "(20,6,0)"
    },
    {
      "id": 370,
      "type": "input",
      "source_block_id": 628,
      "dest_block_id": 497,
      "crane": 1,
      "start_time": 70.5,
      "end_time": 98.5,
      "source_cor": "(36,15,0)",
      "dest_cor": "(8,15,0)"
    },
    {
      "id": 371,
      "type": "input",
      "source_block_id": 571,
      "dest_block_id": 228,
      "crane": 0,
      "start_time": 22.5,
      "end_time": 29.5,
      "source_cor": "(23,0,0)",
      "dest_cor": "(19,7,0)"
    },
    {
      "id": 372,
      "type": "input",
      "source_block_id": 555,
      "dest_block_id": 180,
      "crane": 0,
      "start_time": 36.5,
      "end_time": 45.5,
      "source_cor": "(15,0,0)",
      "dest_cor": "(6,6,0)"
    },
    {
      "id": 373,
      "type": "input",
      "source_block_id": 570,
      "dest_block_id": 399,
      "crane": 0,
      "start_time": 70.5,
      "end_time": 77.5,
      "source_cor": "(22,16,0)",
      "dest_cor": "(15,12,0)"
    },
    {
      "id": 374,
      "type": "input",
      "source_block_id": 553,
      "dest_block_id": 304,
      "crane": 1,
      "start_time": 45.09999990463257,
      "end_time": 56.09999990463257,
      "source_cor": "(14,0,0)",
      "dest_cor": "(25,9,0)"
    },
    {
      "id": 375,
      "type": "input",
      "source_block_id": 541,
      "dest_block_id": 363,
      "crane": 0,
      "start_time": 51.5,
      "end_time": 62.5,
      "source_cor": "(8,0,0)",
      "dest_cor": "(14,11,0)"
    }
  ]
}