{
  "instance": "10_1_0.7s.json",
  "comments": "solution by BAP and CSP formulations",
  "objective": 159.48746357425586,
  "bap_objective": 132.0,
  "csp_objective": 186.9749271485117,
  "products": [
    {
      "id": 16,
      "type": "output",
      "source_block_id": 69,
      "dest_block_id": 298,
      "crane": 1,
      "start_time": 33.5,
      "end_time": 37.5,
      "source_cor": "(20,3,0)",
      "dest_cor": "(24,0,0)"
    },
    {
      "id": 175,
      "type": "input",
      "source_block_id": 322,
      "dest_block_id": 9,
      "crane": 0,
      "start_time": 1.5,
      "end_time": 11.5,
      "source_cor": "(0,10,0)",
      "dest_cor": "(10,1,0)"
    },
    {
      "id": 176,
      "type": "input",
      "source_block_id": 289,
      "dest_block_id": 8,
      "crane": 1,
      "start_time": 5.5,
      "end_time": 15.5,
      "source_cor": "(19,11,0)",
      "dest_cor": "(9,1,0)"
    },
    {
      "id": 177,
      "type": "input",
      "source_block_id": 268,
      "dest_block_id": 81,
      "crane": 1,
      "start_time": 16.5,
      "end_time": 20.5,
      "source_cor": "(9,0,0)",
      "dest_cor": "(7,4,0)"
    },
    {
      "id": 178,
      "type": "input",
      "source_block_id": 308,
      "dest_block_id": 0,
      "crane": 0,
      "start_time": 21.5,
      "end_time": 23.5,
      "source_cor": "(0,3,0)",
      "dest_cor": "(1,1,0)"
    },
    {
      "id": 179,
      "type": "input",
      "source_block_id": 282,
      "dest_block_id": 182,
      "crane": 0,
      "start_time": 38.5,
      "end_time": 46.5,
      "source_cor": "(16,0,0)",
      "dest_cor": "(8,8,0)"
    },
    {
      "id": 180,
      "type": "input",
      "source_block_id": 255,
      "dest_block_id": 22,
      "crane": 0,
      "start_time": 52.5,
      "end_time": 73.5,
      "source_cor": "(2,11,0)",
      "dest_cor": "(23,1,0)"
    },
    {
      "id": 181,
      "type": "input",
      "source_block_id": 264,
      "dest_block_id": 59,
      "crane": 0,
      "start_time": 29.5,
      "end_time": 32.5,
      "source_cor": "(7,0,0)",
      "dest_cor": "(10,3,0)"
    },
    {
      "id": 182,
      "type": "input",
      "source_block_id": 307,
      "dest_block_id": 198,
      "crane": 1,
      "start_time": 39.5,
      "end_time": 45.5,
      "source_cor": "(26,2,0)",
      "dest_cor": "(24,8,0)"
    },
    {
      "id": 183,
      "type": "input",
      "source_block_id": 323,
      "dest_block_id": 88,
      "crane": 1,
      "start_time": 47.5,
      "end_time": 59.5,
      "source_cor": "(26,10,0)",
      "dest_cor": "(14,4,0)"
    }
  ]
}