{
  "instance": "10_1_0.3s.json",
  "comments": "solution by BAP and CSP formulations",
  "objective": 133.51469102596627,
  "bap_objective": 0.0,
  "csp_objective": 267.0293820519325,
  "products": [
    {
      "id": 51,
      "type": "output",
      "source_block_id": 93,
      "dest_block_id": 321,
      "crane": 1,
      "start_time": 62.5,
      "end_time": 69.5,
      "source_cor": "(19,4,0)",
      "dest_cor": "(26,9,0)"
    },
    {
      "id": 75,
      "type": "input",
      "source_block_id": 285,
      "dest_block_id": 0,
      "crane": 0,
      "start_time": 1.5,
      "end_time": 17.5,
      "source_cor": "(17,11,0)",
      "dest_cor": "(1,1,0)"
    },
    {
      "id": 76,
      "type": "input",
      "source_block_id": 295,
      "dest_block_id": 244,
      "crane": 1,
      "start_time": 3.0999999046325684,
      "end_time": 5.099999904632568,
      "source_cor": "(22,11,0)",
      "dest_cor": "(20,10,0)"
    },
    {
      "id": 77,
      "type": "input",
      "source_block_id": 300,
      "dest_block_id": 242,
      "crane": 1,
      "start_time": 15.099999904632568,
      "end_time": 25.09999990463257,
      "source_cor": "(25,0,0)",
      "dest_cor": "(18,10,0)"
    },
    {
      "id": 78,
      "type": "input",
      "source_block_id": 270,
      "dest_block_id": 26,
      "crane": 0,
      "start_time": 39.5,
      "end_time": 47.5,
      "source_cor": "(10,0,0)",
      "dest_cor": "(2,2,0)"
    },
    {
      "id": 79,
      "type": "input",
      "source_block_id": 296,
      "dest_block_id": 102,
      "crane": 0,
      "start_time": 72.5,
      "end_time": 92.5,
      "source_cor": "(23,0,0)",
      "dest_cor": "(3,5,0)"
    },
    {
      "id": 80,
      "type": "input",
      "source_block_id": 299,
      "dest_block_id": 9,
      "crane": 1,
      "start_time": 39.5,
      "end_time": 53.5,
      "source_cor": "(24,11,0)",
      "dest_cor": "(10,1,0)"
    },
    {
      "id": 81,
      "type": "input",
      "source_block_id": 256,
      "dest_block_id": 225,
      "crane": 0,
      "start_time": 19.5,
      "end_time": 29.5,
      "source_cor": "(3,0,0)",
      "dest_cor": "(1,10,0)"
    },
    {
      "id": 82,
      "type": "input",
      "source_block_id": 310,
      "dest_block_id": 38,
      "crane": 0,
      "start_time": 49.5,
      "end_time": 63.5,
      "source_cor": "(0,4,0)",
      "dest_cor": "(14,2,0)"
    },
    {
      "id": 83,
      "type": "input",
      "source_block_id": 283,
      "dest_block_id": 248,
      "crane": 1,
      "start_time": 28.0,
      "end_time": 36.0,
      "source_cor": "(16,11,0)",
      "dest_cor": "(24,10,0)"
    }
  ]
}