{
  "instance": "10_3_0.3s.json",
  "comments": "solution by BAP and CSP formulations",
  "objective": 182.55219514439233,
  "bap_objective": 13.0,
  "csp_objective": 352.10439028878466,
  "products": [
    {
      "id": 85,
      "type": "output",
      "source_block_id": 588,
      "dest_block_id": 814,
      "crane": 0,
      "start_time": 79.60000038146973,
      "end_time": 101.60000038146973,
      "source_cor": "(22,8,0)",
      "dest_cor": "(0,6,0)"
    },
    {
      "id": 225,
      "type": "input",
      "source_block_id": 786,
      "dest_block_id": 541,
      "crane": 0,
      "start_time": 1.5,
      "end_time": 13.5,
      "source_cor": "(18,0,0)",
      "dest_cor": "(6,8,1)"
    },
    {
      "id": 226,
      "type": "input",
      "source_block_id": 807,
      "dest_block_id": 304,
      "crane": 1,
      "start_time": 79.60000038146973,
      "end_time": 103.60000038146973,
      "source_cor": "(26,2,0)",
      "dest_cor": "(2,5,1)"
    },
    {
      "id": 227,
      "type": "input",
      "source_block_id": 808,
      "dest_block_id": 283,
      "crane": 0,
      "start_time": 55.60000038146973,
      "end_time": 75.60000038146973,
      "source_cor": "(0,3,0)",
      "dest_cor": "(20,4,1)"
    },
    {
      "id": 228,
      "type": "input",
      "source_block_id": 755,
      "dest_block_id": 1,
      "crane": 0,
      "start_time": 17.5,
      "end_time": 27.5,
      "source_cor": "(2,11,0)",
      "dest_cor": "(1,1,1)"
    },
    {
      "id": 229,
      "type": "input",
      "source_block_id": 770,
      "dest_block_id": 186,
      "crane": 1,
      "start_time": 12.600000381469727,
      "end_time": 15.600000381469727,
      "source_cor": "(10,0,0)",
      "dest_cor": "(13,3,0)"
    },
    {
      "id": 230,
      "type": "input",
      "source_block_id": 786,
      "dest_block_id": 499,
      "crane": 1,
      "start_time": 20.600000381469727,
      "end_time": 27.600000381469727,
      "source_cor": "(18,0,0)",
      "dest_cor": "(17,7,1)"
    },
    {
      "id": 231,
      "type": "input",
      "source_block_id": 792,
      "dest_block_id": 730,
      "crane": 1,
      "start_time": 55.60000038146973,
      "end_time": 65.60000038146973,
      "source_cor": "(21,0,0)",
      "dest_cor": "(19,10,1)"
    },
    {
      "id": 232,
      "type": "input",
      "source_block_id": 816,
      "dest_block_id": 479,
      "crane": 0,
      "start_time": 33.5,
      "end_time": 43.5,
      "source_cor": "(0,7,0)",
      "dest_cor": "(10,7,2)"
    },
    {
      "id": 233,
      "type": "input",
      "source_block_id": 800,
      "dest_block_id": 262,
      "crane": 1,
      "start_time": 35.60000038146973,
      "end_time": 47.60000038146973,
      "source_cor": "(25,0,0)",
      "dest_cor": "(13,4,1)"
    }
  ]
}