{
  "instance": "20_1_0.7l.json",
  "comments": "solution by BAP and CSP formulations",
  "objective": 643.9787432370545,
  "bap_objective": 77.0,
  "csp_objective": 1210.957486474109,
  "products": [
    {
      "id": 391,
      "type": "output",
      "source_block_id": 166,
      "dest_block_id": 1080,
      "crane": 1,
      "start_time": 122.69999980927082,
      "end_time": 145.69999980927082,
      "source_cor": "(17,4,0)",
      "dest_cor": "(40,0,0)"
    },
    {
      "id": 603,
      "type": "output",
      "source_block_id": 713,
      "dest_block_id": 1115,
      "crane": 0,
      "start_time": 221.69999980927088,
      "end_time": 258.6999998092709,
      "source_cor": "(14,15,0)",
      "dest_cor": "(51,6,0)"
    },
    {
      "id": 700,
      "type": "input",
      "source_block_id": 1028,
      "dest_block_id": 208,
      "crane": 0,
      "start_time": 48.09999990463303,
      "end_time": 53.09999990463303,
      "source_cor": "(14,0,0)",
      "dest_cor": "(9,5,0)"
    },
    {
      "id": 701,
      "type": "input",
      "source_block_id": 1045,
      "dest_block_id": 416,
      "crane": 0,
      "start_time": 203.69999980927076,
      "end_time": 215.69999980927076,
      "source_cor": "(22,21,0)",
      "dest_cor": "(17,9,0)"
    },
    {
      "id": 702,
      "type": "input",
      "source_block_id": 1060,
      "dest_block_id": 0,
      "crane": 0,
      "start_time": 6.099999904632569,
      "end_time": 35.09999990463257,
      "source_cor": "(30,0,0)",
      "dest_cor": "(1,1,0)"
    },
    {
      "id": 703,
      "type": "input",
      "source_block_id": 1060,
      "dest_block_id": 758,
      "crane": 1,
      "start_time": 9.699999809265135,
      "end_time": 30.699999809265137,
      "source_cor": "(30,0,0)",
      "dest_cor": "(9,16,0)"
    },
    {
      "id": 704,
      "type": "input",
      "source_block_id": 1112,
      "dest_block_id": 986,
      "crane": 0,
      "start_time": 334.93497892496583,
      "end_time": 371.93497892496583,
      "source_cor": "(0,5,0)",
      "dest_cor": "(37,20,0)"
    },
    {
      "id": 705,
      "type": "input",
      "source_block_id": 1046,
      "dest_block_id": 531,
      "crane": 1,
      "start_time": 46.699999809266956,
      "end_time": 57.699999809266956,
      "source_cor": "(23,0,0)",
      "dest_cor": "(32,11,0)"
    },
    {
      "id": 706,
      "type": "input",
      "source_block_id": 1097,
      "dest_block_id": 268,
      "crane": 1,
      "start_time": 91.69999980926855,
      "end_time": 120.69999980926855,
      "source_cor": "(48,21,0)",
      "dest_cor": "(19,6,0)"
    },
    {
      "id": 707,
      "type": "input",
      "source_block_id": 1140,
      "dest_block_id": 709,
      "crane": 0,
      "start_time": 67.09999990463243,
      "end_time": 77.09999990463243,
      "source_cor": "(0,19,0)",
      "dest_cor": "(10,15,0)"
    },
    {
      "id": 708,
      "type": "input",
      "source_block_id": 1134,
      "dest_block_id": 21,
      "crane": 0,
      "start_time": 122.69999980926991,
      "end_time": 144.6999998092699,
      "source_cor": "(0,16,0)",
      "dest_cor": "(22,1,0)"
    },
    {
      "id": 709,
      "type": "input",
      "source_block_id": 1074,
      "dest_block_id": 5,
      "crane": 0,
      "start_time": 272.69999980927133,
      "end_time": 303.69999980927133,
      "source_cor": "(37,0,0)",
      "dest_cor": "(6,1,0)"
    },
    {
      "id": 710,
      "type": "input",
      "source_block_id": 1105,
      "dest_block_id": 379,
      "crane": 1,
      "start_time": 156.69999980927219,
      "end_time": 177.69999980927219,
      "source_cor": "(51,1,0)",
      "dest_cor": "(30,8,0)"
    },
    {
      "id": 711,
      "type": "input",
      "source_block_id": 1049,
      "dest_block_id": 689,
      "crane": 1,
      "start_time": 67.69999980926764,
      "end_time": 83.69999980926764,
      "source_cor": "(24,21,0)",
      "dest_cor": "(40,14,0)"
    },
    {
      "id": 712,
      "type": "input",
      "source_block_id": 1141,
      "dest_block_id": 404,
      "crane": 1,
      "start_time": 272.69999980927133,
      "end_time": 318.69999980927133,
      "source_cor": "(51,19,0)",
      "dest_cor": "(5,9,0)"
    },
    {
      "id": 713,
      "type": "input",
      "source_block_id": 1140,
      "dest_block_id": 259,
      "crane": 0,
      "start_time": 87.09999990463288,
      "end_time": 100.09999990463288,
      "source_cor": "(0,19,0)",
      "dest_cor": "(10,6,0)"
    },
    {
      "id": 714,
      "type": "input",
      "source_block_id": 1074,
      "dest_block_id": 594,
      "crane": 1,
      "start_time": 192.69999980927037,
      "end_time": 204.69999980927037,
      "source_cor": "(37,0,0)",
      "dest_cor": "(45,12,0)"
    },
    {
      "id": 715,
      "type": "input",
      "source_block_id": 1011,
      "dest_block_id": 582,
      "crane": 0,
      "start_time": 164.69999980927037,
      "end_time": 192.69999980927037,
      "source_cor": "(5,21,0)",
      "dest_cor": "(33,12,0)"
    },
    {
      "id": 716,
      "type": "input",
      "source_block_id": 1123,
      "dest_block_id": 130,
      "crane": 1,
      "start_time": 215.69999980927074,
      "end_time": 235.69999980927074,
      "source_cor": "(51,10,0)",
      "dest_cor": "(31,3,0)"
    },
    {
      "id": 717,
      "type": "input",
      "source_block_id": 1074,
      "dest_block_id": 991,
      "crane": 1,
      "start_time": 374.93497892496583,
      "end_time": 394.93497892496583,
      "source_cor": "(37,0,0)",
      "dest_cor": "(42,20,0)"
    }
  ]
}