{
  "instance": "20_3_0.7l.json",
  "comments": "solution by BAP and CSP formulations",
  "objective": 1631.9811142323183,
  "bap_objective": 274.0,
  "csp_objective": 2989.9622284646375,
  "products": [
    {
      "id": 57,
      "type": "output",
      "source_block_id": 2415,
      "dest_block_id": 3080,
      "crane": 1,
      "start_time": 107.6999998092631,
      "end_time": 141.6999998092631,
      "source_cor": "(6,17,0)",
      "dest_cor": "(40,0,0)"
    },
    {
      "id": 272,
      "type": "yard_movement",
      "source_block_id": 2416,
      "dest_block_id": 2753,
      "crane": 1,
      "start_time": 83.69999980926318,
      "end_time": 95.69999980926318,
      "source_cor": "(6,17,1)",
      "dest_cor": "(18,19,2)"
    },
    {
      "id": 1718,
      "type": "output",
      "source_block_id": 496,
      "dest_block_id": 3083,
      "crane": 1,
      "start_time": 290.6999998092633,
      "end_time": 315.6999998092633,
      "source_cor": "(16,4,1)",
      "dest_cor": "(41,21,0)"
    },
    {
      "id": 1983,
      "type": "yard_movement",
      "source_block_id": 2417,
      "dest_block_id": 1400,
      "crane": 0,
      "start_time": 0.0,
      "end_time": 11.0,
      "source_cor": "(6,17,2)",
      "dest_cor": "(17,10,2)"
    },
    {
      "id": 2083,
      "type": "yard_movement",
      "source_block_id": 497,
      "dest_block_id": 2959,
      "crane": 0,
      "start_time": 223.69999980926707,
      "end_time": 244.69999980926707,
      "source_cor": "(16,4,2)",
      "dest_cor": "(37,20,1)"
    },
    {
      "id": 2100,
      "type": "input",
      "source_block_id": 3139,
      "dest_block_id": 1153,
      "crane": 1,
      "start_time": 38.699999809261385,
      "end_time": 54.699999809261385,
      "source_cor": "(51,18,0)",
      "dest_cor": "(35,8,1)"
    },
    {
      "id": 2101,
      "type": "input",
      "source_block_id": 3134,
      "dest_block_id": 1154,
      "crane": 1,
      "start_time": 356.69999980926514,
      "end_time": 391.69999980926514,
      "source_cor": "(0,16,0)",
      "dest_cor": "(35,8,2)"
    },
    {
      "id": 2102,
      "type": "input",
      "source_block_id": 3034,
      "dest_block_id": 2555,
      "crane": 0,
      "start_time": 60.999999999999716,
      "end_time": 78.99999999999972,
      "source_cor": "(17,0,0)",
      "dest_cor": "(2,18,2)"
    },
    {
      "id": 2103,
      "type": "input",
      "source_block_id": 3134,
      "dest_block_id": 1463,
      "crane": 0,
      "start_time": 359.69999980926514,
      "end_time": 397.69999980926514,
      "source_cor": "(0,16,0)",
      "dest_cor": "(38,10,2)"
    },
    {
      "id": 2104,
      "type": "input",
      "source_block_id": 3078,
      "dest_block_id": 53,
      "crane": 1,
      "start_time": 399.69999980926696,
      "end_time": 420.69999980926696,
      "source_cor": "(39,0,0)",
      "dest_cor": "(18,1,2)"
    },
    {
      "id": 2105,
      "type": "input",
      "source_block_id": 3099,
      "dest_block_id": 1465,
      "crane": 1,
      "start_time": 15.699999809265133,
      "end_time": 26.699999809265133,
      "source_cor": "(49,21,0)",
      "dest_cor": "(39,10,1)"
    },
    {
      "id": 2106,
      "type": "input",
      "source_block_id": 3005,
      "dest_block_id": 1724,
      "crane": 0,
      "start_time": 26.0,
      "end_time": 49.0,
      "source_cor": "(2,21,0)",
      "dest_cor": "(25,12,2)"
    },
    {
      "id": 2107,
      "type": "input",
      "source_block_id": 3116,
      "dest_block_id": 1322,
      "crane": 1,
      "start_time": 204.69999980926673,
      "end_time": 245.69999980926673,
      "source_cor": "(0,7,0)",
      "dest_cor": "(41,9,2)"
    },
    {
      "id": 2108,
      "type": "input",
      "source_block_id": 3105,
      "dest_block_id": 1354,
      "crane": 1,
      "start_time": 152.6999998092649,
      "end_time": 201.6999998092649,
      "source_cor": "(51,1,0)",
      "dest_cor": "(2,10,1)"
    },
    {
      "id": 2109,
      "type": "input",
      "source_block_id": 3016,
      "dest_block_id": 11,
      "crane": 0,
      "start_time": 427.69999980926514,
      "end_time": 431.69999980926514,
      "source_cor": "(8,0,0)",
      "dest_cor": "(4,1,2)"
    },
    {
      "id": 2110,
      "type": "input",
      "source_block_id": 3045,
      "dest_block_id": 1502,
      "crane": 0,
      "start_time": 307.6999998092634,
      "end_time": 328.6999998092634,
      "source_cor": "(22,21,0)",
      "dest_cor": "(1,11,2)"
    },
    {
      "id": 2111,
      "type": "input",
      "source_block_id": 3140,
      "dest_block_id": 278,
      "crane": 0,
      "start_time": 109.69999980926491,
      "end_time": 152.6999998092649,
      "source_cor": "(0,19,0)",
      "dest_cor": "(43,2,2)"
    },
    {
      "id": 2112,
      "type": "input",
      "source_block_id": 3007,
      "dest_block_id": 2549,
      "crane": 0,
      "start_time": 451.69999980926514,
      "end_time": 498.69999980926514,
      "source_cor": "(3,21,0)",
      "dest_cor": "(50,17,2)"
    },
    {
      "id": 2113,
      "type": "input",
      "source_block_id": 3139,
      "dest_block_id": 956,
      "crane": 1,
      "start_time": 255.69999980926514,
      "end_time": 287.69999980926514,
      "source_cor": "(51,18,0)",
      "dest_cor": "(19,7,2)"
    },
    {
      "id": 2114,
      "type": "input",
      "source_block_id": 3066,
      "dest_block_id": 2249,
      "crane": 1,
      "start_time": 435.6999998092688,
      "end_time": 452.6999998092688,
      "source_cor": "(33,0,0)",
      "dest_cor": "(50,15,2)"
    },
    {
      "id": 2115,
      "type": "input",
      "source_block_id": 3039,
      "dest_block_id": 2297,
      "crane": 0,
      "start_time": 296.69999980926343,
      "end_time": 301.69999980926343,
      "source_cor": "(19,21,0)",
      "dest_cor": "(16,16,2)"
    },
    {
      "id": 2116,
      "type": "input",
      "source_block_id": 3095,
      "dest_block_id": 2296,
      "crane": 0,
      "start_time": 254.69999980926707,
      "end_time": 285.69999980926707,
      "source_cor": "(47,21,0)",
      "dest_cor": "(16,16,1)"
    },
    {
      "id": 2117,
      "type": "input",
      "source_block_id": 3128,
      "dest_block_id": 1358,
      "crane": 0,
      "start_time": 347.69999980926514,
      "end_time": 350.69999980926514,
      "source_cor": "(0,13,0)",
      "dest_cor": "(3,10,2)"
    }
  ]
}