{
  "instance": "20_3_0.5m.json",
  "comments": "solution by BAP and CSP formulations",
  "objective": 1151.4028785765558,
  "bap_objective": 99.0,
  "csp_objective": 2203.805757153112,
  "products": [
    {
      "id": 81,
      "type": "output",
      "source_block_id": 624,
      "dest_block_id": 1668,
      "crane": 1,
      "start_time": 240.50000000000455,
      "end_time": 244.50000000000455,
      "source_cor": "(34,6,0)",
      "dest_cor": "(36,10,0)"
    },
    {
      "id": 84,
      "type": "yard_movement",
      "source_block_id": 625,
      "dest_block_id": 11,
      "crane": 0,
      "start_time": 179.500000000005,
      "end_time": 209.500000000005,
      "source_cor": "(34,6,1)",
      "dest_cor": "(4,1,2)"
    },
    {
      "id": 116,
      "type": "yard_movement",
      "source_block_id": 626,
      "dest_block_id": 1042,
      "crane": 0,
      "start_time": 0.500000000001819,
      "end_time": 4.500000000001819,
      "source_cor": "(34,6,2)",
      "dest_cor": "(33,10,1)"
    },
    {
      "id": 213,
      "type": "output",
      "source_block_id": 693,
      "dest_block_id": 1600,
      "crane": 1,
      "start_time": 258.5000000000051,
      "end_time": 268.5000000000051,
      "source_cor": "(22,7,0)",
      "dest_cor": "(12,16,0)"
    },
    {
      "id": 314,
      "type": "yard_movement",
      "source_block_id": 694,
      "dest_block_id": 308,
      "crane": 1,
      "start_time": 118.50000000000824,
      "end_time": 129.50000000000824,
      "source_cor": "(22,7,1)",
      "dest_cor": "(33,3,2)"
    },
    {
      "id": 787,
      "type": "input",
      "source_block_id": 1648,
      "dest_block_id": 266,
      "crane": 1,
      "start_time": 1.5000000000000042,
      "end_time": 18.500000000000004,
      "source_cor": "(36,16,0)",
      "dest_cor": "(19,3,2)"
    },
    {
      "id": 788,
      "type": "input",
      "source_block_id": 1670,
      "dest_block_id": 143,
      "crane": 1,
      "start_time": 86.50000000000591,
      "end_time": 109.50000000000591,
      "source_cor": "(36,11,0)",
      "dest_cor": "(13,2,2)"
    },
    {
      "id": 789,
      "type": "input",
      "source_block_id": 1633,
      "dest_block_id": 370,
      "crane": 0,
      "start_time": 36.5000000000025,
      "end_time": 46.5000000000025,
      "source_cor": "(29,0,0)",
      "dest_cor": "(19,4,1)"
    },
    {
      "id": 790,
      "type": "input",
      "source_block_id": 1632,
      "dest_block_id": 515,
      "crane": 1,
      "start_time": 31.500000000002206,
      "end_time": 42.5000000000022,
      "source_cor": "(28,16,0)",
      "dest_cor": "(32,5,2)"
    },
    {
      "id": 791,
      "type": "input",
      "source_block_id": 1665,
      "dest_block_id": 482,
      "crane": 0,
      "start_time": 219.50000000000455,
      "end_time": 240.50000000000455,
      "source_cor": "(0,9,0)",
      "dest_cor": "(21,5,2)"
    },
    {
      "id": 792,
      "type": "input",
      "source_block_id": 1605,
      "dest_block_id": 490,
      "crane": 0,
      "start_time": 22.500000000002274,
      "end_time": 31.500000000002274,
      "source_cor": "(15,0,0)",
      "dest_cor": "(24,5,1)"
    },
    {
      "id": 793,
      "type": "input",
      "source_block_id": 1612,
      "dest_block_id": 1175,
      "crane": 1,
      "start_time": 274.5000000000051,
      "end_time": 285.5000000000051,
      "source_cor": "(18,16,0)",
      "dest_cor": "(7,12,2)"
    },
    {
      "id": 794,
      "type": "input",
      "source_block_id": 1664,
      "dest_block_id": 1535,
      "crane": 1,
      "start_time": 46.50000000000301,
      "end_time": 60.50000000000301,
      "source_cor": "(36,8,0)",
      "dest_cor": "(22,15,2)"
    },
    {
      "id": 795,
      "type": "input",
      "source_block_id": 1595,
      "dest_block_id": 725,
      "crane": 0,
      "start_time": 123.50000000000438,
      "end_time": 145.50000000000438,
      "source_cor": "(10,0,0)",
      "dest_cor": "(32,7,2)"
    },
    {
      "id": 796,
      "type": "input",
      "source_block_id": 1608,
      "dest_block_id": 926,
      "crane": 1,
      "start_time": 66.50000000000392,
      "end_time": 79.50000000000392,
      "source_cor": "(16,16,0)",
      "dest_cor": "(29,9,2)"
    },
    {
      "id": 797,
      "type": "input",
      "source_block_id": 1641,
      "dest_block_id": 641,
      "crane": 1,
      "start_time": 311.5000000000051,
      "end_time": 340.5000000000051,
      "source_cor": "(33,0,0)",
      "dest_cor": "(4,7,2)"
    },
    {
      "id": 798,
      "type": "input",
      "source_block_id": 1607,
      "dest_block_id": 545,
      "crane": 0,
      "start_time": 69.50000000000387,
      "end_time": 78.50000000000387,
      "source_cor": "(16,0,0)",
      "dest_cor": "(7,6,2)"
    },
    {
      "id": 799,
      "type": "input",
      "source_block_id": 1650,
      "dest_block_id": 1169,
      "crane": 1,
      "start_time": 180.50000000000546,
      "end_time": 211.50000000000546,
      "source_cor": "(36,1,0)",
      "dest_cor": "(5,12,2)"
    },
    {
      "id": 800,
      "type": "input",
      "source_block_id": 1633,
      "dest_block_id": 1162,
      "crane": 0,
      "start_time": 248.50000000000455,
      "end_time": 274.50000000000455,
      "source_cor": "(29,0,0)",
      "dest_cor": "(3,12,1)"
    },
    {
      "id": 801,
      "type": "input",
      "source_block_id": 1664,
      "dest_block_id": 1214,
      "crane": 0,
      "start_time": 149.50000000000466,
      "end_time": 165.50000000000466,
      "source_cor": "(36,8,0)",
      "dest_cor": "(20,12,2)"
    },
    {
      "id": 802,
      "type": "input",
      "source_block_id": 1653,
      "dest_block_id": 44,
      "crane": 0,
      "start_time": 103.50000000000409,
      "end_time": 118.50000000000409,
      "source_cor": "(0,3,0)",
      "dest_cor": "(15,1,2)"
    },
    {
      "id": 803,
      "type": "input",
      "source_block_id": 1649,
      "dest_block_id": 1067,
      "crane": 0,
      "start_time": 85.50000000000409,
      "end_time": 95.50000000000409,
      "source_cor": "(0,1,0)",
      "dest_cor": "(6,11,2)"
    },
    {
      "id": 804,
      "type": "input",
      "source_block_id": 1633,
      "dest_block_id": 404,
      "crane": 1,
      "start_time": 159.50000000000512,
      "end_time": 163.50000000000512,
      "source_cor": "(29,0,0)",
      "dest_cor": "(30,4,2)"
    }
  ]
}