{
  "instance": "20_5_0.5s.json",
  "comments": "solution by BAP and CSP formulations",
  "objective": 1289.2089014408466,
  "bap_objective": 1527.0,
  "csp_objective": 1051.4178028816932,
  "products": [
    {
      "id": 69,
      "type": "output",
      "source_block_id": 885,
      "dest_block_id": 1311,
      "crane": 0,
      "start_time": 171.09999990463626,
      "end_time": 194.09999990463626,
      "source_cor": "(3,8,0)",
      "dest_cor": "(26,4,0)"
    },
    {
      "id": 138,
      "type": "yard_movement",
      "source_block_id": 886,
      "dest_block_id": 228,
      "crane": 0,
      "start_time": 135.09999990463626,
      "end_time": 153.09999990463626,
      "source_cor": "(3,8,1)",
      "dest_cor": "(21,2,3)"
    },
    {
      "id": 518,
      "type": "output",
      "source_block_id": 632,
      "dest_block_id": 1304,
      "crane": 0,
      "start_time": 105.09999990463382,
      "end_time": 110.09999990463382,
      "source_cor": "(2,6,2)",
      "dest_cor": "(0,1,0)"
    },
    {
      "id": 596,
      "type": "yard_movement",
      "source_block_id": 887,
      "dest_block_id": 522,
      "crane": 0,
      "start_time": 0.0,
      "end_time": 3.0,
      "source_cor": "(3,8,2)",
      "dest_cor": "(5,5,2)"
    },
    {
      "id": 625,
      "type": "input",
      "source_block_id": 1266,
      "dest_block_id": 713,
      "crane": 0,
      "start_time": 7.999999999999545,
      "end_time": 17.999999999999545,
      "source_cor": "(8,0,0)",
      "dest_cor": "(18,6,3)"
    },
    {
      "id": 626,
      "type": "input",
      "source_block_id": 1323,
      "dest_block_id": 212,
      "crane": 1,
      "start_time": 3.0999999046325675,
      "end_time": 11.099999904632568,
      "source_cor": "(26,10,0)",
      "dest_cor": "(18,2,2)"
    },
    {
      "id": 627,
      "type": "input",
      "source_block_id": 1259,
      "dest_block_id": 573,
      "crane": 1,
      "start_time": 47.099999904632,
      "end_time": 58.099999904632,
      "source_cor": "(4,11,0)",
      "dest_cor": "(15,5,3)"
    },
    {
      "id": 628,
      "type": "input",
      "source_block_id": 1307,
      "dest_block_id": 546,
      "crane": 1,
      "start_time": 19.099999904628817,
      "end_time": 35.09999990462882,
      "source_cor": "(26,2,0)",
      "dest_cor": "(10,5,1)"
    },
    {
      "id": 629,
      "type": "input",
      "source_block_id": 1262,
      "dest_block_id": 1125,
      "crane": 0,
      "start_time": 29.999999999999087,
      "end_time": 39.99999999999909,
      "source_cor": "(6,0,0)",
      "dest_cor": "(1,10,0)"
    },
    {
      "id": 630,
      "type": "input",
      "source_block_id": 1259,
      "dest_block_id": 1008,
      "crane": 1,
      "start_time": 41.09999990463111,
      "end_time": 44.09999990463111,
      "source_cor": "(4,11,0)",
      "dest_cor": "(2,9,3)"
    },
    {
      "id": 631,
      "type": "input",
      "source_block_id": 1300,
      "dest_block_id": 162,
      "crane": 1,
      "start_time": 152.0999999046367,
      "end_time": 169.0999999046367,
      "source_cor": "(25,0,0)",
      "dest_cor": "(8,2,2)"
    },
    {
      "id": 632,
      "type": "input",
      "source_block_id": 1292,
      "dest_block_id": 385,
      "crane": 0,
      "start_time": 85.09999990463336,
      "end_time": 103.09999990463336,
      "source_cor": "(21,0,0)",
      "dest_cor": "(3,4,0)"
    },
    {
      "id": 633,
      "type": "input",
      "source_block_id": 1316,
      "dest_block_id": 881,
      "crane": 0,
      "start_time": 47.099999904632,
      "end_time": 49.099999904632,
      "source_cor": "(0,7,0)",
      "dest_cor": "(2,8,1)"
    },
    {
      "id": 634,
      "type": "input",
      "source_block_id": 1270,
      "dest_block_id": 487,
      "crane": 1,
      "start_time": 131.09999990463626,
      "end_time": 144.09999990463626,
      "source_cor": "(10,0,0)",
      "dest_cor": "(23,4,2)"
    },
    {
      "id": 635,
      "type": "input",
      "source_block_id": 1258,
      "dest_block_id": 683,
      "crane": 0,
      "start_time": 66.09999990463285,
      "end_time": 74.09999990463285,
      "source_cor": "(4,0,0)",
      "dest_cor": "(12,6,3)"
    },
    {
      "id": 636,
      "type": "input",
      "source_block_id": 1312,
      "dest_block_id": 292,
      "crane": 0,
      "start_time": 52.099999904632455,
      "end_time": 61.099999904632455,
      "source_cor": "(0,5,0)",
      "dest_cor": "(9,3,2)"
    },
    {
      "id": 637,
      "type": "input",
      "source_block_id": 1278,
      "dest_block_id": 354,
      "crane": 1,
      "start_time": 75.09999990463382,
      "end_time": 82.09999990463382,
      "source_cor": "(14,0,0)",
      "dest_cor": "(21,3,4)"
    },
    {
      "id": 638,
      "type": "input",
      "source_block_id": 1289,
      "dest_block_id": 684,
      "crane": 1,
      "start_time": 115.09999990463484,
      "end_time": 122.09999990463484,
      "source_cor": "(19,11,0)",
      "dest_cor": "(12,6,4)"
    },
    {
      "id": 639,
      "type": "input",
      "source_block_id": 1296,
      "dest_block_id": 213,
      "crane": 1,
      "start_time": 86.09999990463521,
      "end_time": 91.09999990463521,
      "source_cor": "(23,0,0)",
      "dest_cor": "(18,2,3)"
    },
    {
      "id": 640,
      "type": "input",
      "source_block_id": 1316,
      "dest_block_id": 676,
      "crane": 0,
      "start_time": 116.09999990463422,
      "end_time": 127.09999990463422,
      "source_cor": "(0,7,0)",
      "dest_cor": "(11,6,1)"
    },
    {
      "id": 641,
      "type": "input",
      "source_block_id": 1268,
      "dest_block_id": 588,
      "crane": 1,
      "start_time": 100.09999990463382,
      "end_time": 109.09999990463382,
      "source_cor": "(9,0,0)",
      "dest_cor": "(18,5,3)"
    },
    {
      "id": 642,
      "type": "input",
      "source_block_id": 1287,
      "dest_block_id": 852,
      "crane": 1,
      "start_time": 64.09999990463295,
      "end_time": 68.09999990463295,
      "source_cor": "(18,11,0)",
      "dest_cor": "(21,7,2)"
    }
  ]
}