{
  "instance": "20_3_0.3s.json",
  "comments": "solution by BAP and CSP formulations",
  "objective": 691.0194336018722,
  "bap_objective": 54.0,
  "csp_objective": 1328.0388672037445,
  "products": [
    {
      "id": 25,
      "type": "output",
      "source_block_id": 741,
      "dest_block_id": 788,
      "crane": 1,
      "start_time": 168.29999923706265,
      "end_time": 178.29999923706265,
      "source_cor": "(23,10,0)",
      "dest_cor": "(19,0,0)"
    },
    {
      "id": 85,
      "type": "output",
      "source_block_id": 588,
      "dest_block_id": 814,
      "crane": 0,
      "start_time": 198.29999923706328,
      "end_time": 220.29999923706328,
      "source_cor": "(22,8,0)",
      "dest_cor": "(0,6,0)"
    },
    {
      "id": 205,
      "type": "yard_movement",
      "source_block_id": 742,
      "dest_block_id": 479,
      "crane": 1,
      "start_time": 142.299999237063,
      "end_time": 155.299999237063,
      "source_cor": "(23,10,1)",
      "dest_cor": "(10,7,2)"
    },
    {
      "id": 225,
      "type": "input",
      "source_block_id": 786,
      "dest_block_id": 598,
      "crane": 1,
      "start_time": 25.09999990463301,
      "end_time": 33.09999990463301,
      "source_cor": "(18,0,0)",
      "dest_cor": "(25,8,1)"
    },
    {
      "id": 226,
      "type": "input",
      "source_block_id": 807,
      "dest_block_id": 413,
      "crane": 1,
      "start_time": 3.0999999046325675,
      "end_time": 16.09999990463257,
      "source_cor": "(26,2,0)",
      "dest_cor": "(13,6,2)"
    },
    {
      "id": 227,
      "type": "input",
      "source_block_id": 808,
      "dest_block_id": 499,
      "crane": 0,
      "start_time": 6.099999904632567,
      "end_time": 23.09999990463257,
      "source_cor": "(0,3,0)",
      "dest_cor": "(17,7,1)"
    },
    {
      "id": 228,
      "type": "input",
      "source_block_id": 755,
      "dest_block_id": 739,
      "crane": 0,
      "start_time": 119.29999923706208,
      "end_time": 139.29999923706208,
      "source_cor": "(2,11,0)",
      "dest_cor": "(22,10,1)"
    },
    {
      "id": 229,
      "type": "input",
      "source_block_id": 770,
      "dest_block_id": 262,
      "crane": 0,
      "start_time": 54.09999990463355,
      "end_time": 58.09999990463355,
      "source_cor": "(10,0,0)",
      "dest_cor": "(13,4,1)"
    },
    {
      "id": 230,
      "type": "input",
      "source_block_id": 786,
      "dest_block_id": 730,
      "crane": 1,
      "start_time": 51.29999923705877,
      "end_time": 61.29999923705877,
      "source_cor": "(18,0,0)",
      "dest_cor": "(19,10,1)"
    },
    {
      "id": 231,
      "type": "input",
      "source_block_id": 792,
      "dest_block_id": 36,
      "crane": 1,
      "start_time": 89.29999923706089,
      "end_time": 97.29999923706089,
      "source_cor": "(21,0,0)",
      "dest_cor": "(13,1,0)"
    },
    {
      "id": 232,
      "type": "input",
      "source_block_id": 816,
      "dest_block_id": 553,
      "crane": 0,
      "start_time": 88.09999990463348,
      "end_time": 98.09999990463348,
      "source_cor": "(0,7,0)",
      "dest_cor": "(10,8,1)"
    },
    {
      "id": 233,
      "type": "input",
      "source_block_id": 800,
      "dest_block_id": 40,
      "crane": 0,
      "start_time": 35.09999990463345,
      "end_time": 46.09999990463345,
      "source_cor": "(25,0,0)",
      "dest_cor": "(14,1,1)"
    },
    {
      "id": 234,
      "type": "input",
      "source_block_id": 782,
      "dest_block_id": 186,
      "crane": 0,
      "start_time": 48.099999904633904,
      "end_time": 51.099999904633904,
      "source_cor": "(16,0,0)",
      "dest_cor": "(13,3,0)"
    },
    {
      "id": 235,
      "type": "input",
      "source_block_id": 792,
      "dest_block_id": 541,
      "crane": 1,
      "start_time": 105.2999992370618,
      "end_time": 120.2999992370618,
      "source_cor": "(21,0,0)",
      "dest_cor": "(6,8,1)"
    },
    {
      "id": 236,
      "type": "input",
      "source_block_id": 783,
      "dest_block_id": 283,
      "crane": 1,
      "start_time": 78.29999923706032,
      "end_time": 85.29999923706032,
      "source_cor": "(16,11,0)",
      "dest_cor": "(20,4,1)"
    },
    {
      "id": 237,
      "type": "input",
      "source_block_id": 823,
      "dest_block_id": 430,
      "crane": 1,
      "start_time": 38.29999923706054,
      "end_time": 45.29999923706054,
      "source_cor": "(26,10,0)",
      "dest_cor": "(19,6,1)"
    },
    {
      "id": 238,
      "type": "input",
      "source_block_id": 789,
      "dest_block_id": 543,
      "crane": 0,
      "start_time": 142.29999923706254,
      "end_time": 154.29999923706254,
      "source_cor": "(19,11,0)",
      "dest_cor": "(7,8,0)"
    },
    {
      "id": 239,
      "type": "input",
      "source_block_id": 787,
      "dest_block_id": 1,
      "crane": 0,
      "start_time": 65.0999999046331,
      "end_time": 82.0999999046331,
      "source_cor": "(18,11,0)",
      "dest_cor": "(1,1,1)"
    },
    {
      "id": 240,
      "type": "input",
      "source_block_id": 795,
      "dest_block_id": 304,
      "crane": 1,
      "start_time": 201.29999923706362,
      "end_time": 221.29999923706362,
      "source_cor": "(22,11,0)",
      "dest_cor": "(2,5,1)"
    },
    {
      "id": 241,
      "type": "input",
      "source_block_id": 823,
      "dest_block_id": 653,
      "crane": 1,
      "start_time": 68.29999923705941,
      "end_time": 76.29999923705941,
      "source_cor": "(26,10,0)",
      "dest_cor": "(18,9,2)"
    },
    {
      "id": 242,
      "type": "input",
      "source_block_id": 784,
      "dest_block_id": 306,
      "crane": 0,
      "start_time": 165.29999923706288,
      "end_time": 179.29999923706288,
      "source_cor": "(17,0,0)",
      "dest_cor": "(3,5,0)"
    }
  ]
}