{
  "instance": "30_1_0.5l.json",
  "comments": "solution by BAP and CSP formulations",
  "objective": 2341.965370085386,
  "bap_objective": 0.0,
  "csp_objective": 4683.930740170771,
  "products": [
    {
      "id": 165,
      "type": "output",
      "source_block_id": 346,
      "dest_block_id": 1109,
      "crane": 1,
      "start_time": 113.49999999995323,
      "end_time": 117.49999999995323,
      "source_cor": "(47,7,0)",
      "dest_cor": "(51,3,0)"
    },
    {
      "id": 167,
      "type": "output",
      "source_block_id": 159,
      "dest_block_id": 1068,
      "crane": 0,
      "start_time": 327.4999999999441,
      "end_time": 351.4999999999441,
      "source_cor": "(10,4,0)",
      "dest_cor": "(34,0,0)"
    },
    {
      "id": 418,
      "type": "output",
      "source_block_id": 821,
      "dest_block_id": 1069,
      "crane": 1,
      "start_time": 237.49999999995322,
      "end_time": 249.49999999995322,
      "source_cor": "(22,17,0)",
      "dest_cor": "(34,21,0)"
    },
    {
      "id": 500,
      "type": "input",
      "source_block_id": 1141,
      "dest_block_id": 0,
      "crane": 0,
      "start_time": 1.4999999999999996,
      "end_time": 51.5,
      "source_cor": "(51,19,0)",
      "dest_cor": "(1,1,0)"
    },
    {
      "id": 501,
      "type": "input",
      "source_block_id": 1089,
      "dest_block_id": 749,
      "crane": 1,
      "start_time": 74.49999999995322,
      "end_time": 80.49999999995322,
      "source_cor": "(44,21,0)",
      "dest_cor": "(50,15,0)"
    },
    {
      "id": 502,
      "type": "input",
      "source_block_id": 1066,
      "dest_block_id": 633,
      "crane": 1,
      "start_time": 22.5,
      "end_time": 35.5,
      "source_cor": "(33,0,0)",
      "dest_cor": "(34,13,0)"
    },
    {
      "id": 503,
      "type": "input",
      "source_block_id": 1035,
      "dest_block_id": 634,
      "crane": 0,
      "start_time": 71.5,
      "end_time": 89.5,
      "source_cor": "(17,21,0)",
      "dest_cor": "(35,13,0)"
    },
    {
      "id": 504,
      "type": "input",
      "source_block_id": 1075,
      "dest_block_id": 197,
      "crane": 1,
      "start_time": 93.49999999995322,
      "end_time": 110.49999999995322,
      "source_cor": "(37,21,0)",
      "dest_cor": "(48,4,0)"
    },
    {
      "id": 505,
      "type": "input",
      "source_block_id": 1046,
      "dest_block_id": 834,
      "crane": 1,
      "start_time": 48.5,
      "end_time": 65.5,
      "source_cor": "(23,0,0)",
      "dest_cor": "(35,17,0)"
    },
    {
      "id": 506,
      "type": "input",
      "source_block_id": 1129,
      "dest_block_id": 851,
      "crane": 0,
      "start_time": 120.49999999995323,
      "end_time": 169.49999999995322,
      "source_cor": "(51,13,0)",
      "dest_cor": "(2,18,0)"
    },
    {
      "id": 507,
      "type": "input",
      "source_block_id": 1012,
      "dest_block_id": 883,
      "crane": 1,
      "start_time": 191.49999999995322,
      "end_time": 219.49999999995322,
      "source_cor": "(6,0,0)",
      "dest_cor": "(34,18,0)"
    },
    {
      "id": 508,
      "type": "input",
      "source_block_id": 1098,
      "dest_block_id": 902,
      "crane": 1,
      "start_time": 125.49999999995323,
      "end_time": 171.49999999995322,
      "source_cor": "(49,0,0)",
      "dest_cor": "(3,19,0)"
    },
    {
      "id": 509,
      "type": "input",
      "source_block_id": 1095,
      "dest_block_id": 976,
      "crane": 1,
      "start_time": 398.499999999945,
      "end_time": 418.499999999945,
      "source_cor": "(47,21,0)",
      "dest_cor": "(27,20,0)"
    },
    {
      "id": 510,
      "type": "input",
      "source_block_id": 1006,
      "dest_block_id": 964,
      "crane": 0,
      "start_time": 280.4999999999441,
      "end_time": 300.4999999999441,
      "source_cor": "(3,0,0)",
      "dest_cor": "(15,20,0)"
    },
    {
      "id": 511,
      "type": "input",
      "source_block_id": 1046,
      "dest_block_id": 153,
      "crane": 0,
      "start_time": 233.49999999995322,
      "end_time": 252.49999999995322,
      "source_cor": "(23,0,0)",
      "dest_cor": "(4,4,0)"
    },
    {
      "id": 512,
      "type": "input",
      "source_block_id": 1049,
      "dest_block_id": 379,
      "crane": 0,
      "start_time": 212.49999999995322,
      "end_time": 225.49999999995322,
      "source_cor": "(24,21,0)",
      "dest_cor": "(30,8,0)"
    },
    {
      "id": 513,
      "type": "input",
      "source_block_id": 1018,
      "dest_block_id": 30,
      "crane": 0,
      "start_time": 376.4999999999441,
      "end_time": 398.4999999999441,
      "source_cor": "(9,0,0)",
      "dest_cor": "(31,1,0)"
    },
    {
      "id": 514,
      "type": "input",
      "source_block_id": 1090,
      "dest_block_id": 636,
      "crane": 1,
      "start_time": 598.4999999999445,
      "end_time": 611.4999999999445,
      "source_cor": "(45,0,0)",
      "dest_cor": "(37,13,0)"
    },
    {
      "id": 515,
      "type": "input",
      "source_block_id": 1099,
      "dest_block_id": 672,
      "crane": 1,
      "start_time": 264.4999999999514,
      "end_time": 290.4999999999514,
      "source_cor": "(49,21,0)",
      "dest_cor": "(23,14,0)"
    },
    {
      "id": 516,
      "type": "input",
      "source_block_id": 1005,
      "dest_block_id": 272,
      "crane": 1,
      "start_time": 316.4999999999441,
      "end_time": 337.4999999999441,
      "source_cor": "(2,21,0)",
      "dest_cor": "(23,6,0)"
    },
    {
      "id": 517,
      "type": "input",
      "source_block_id": 1133,
      "dest_block_id": 258,
      "crane": 1,
      "start_time": 520.4999999999444,
      "end_time": 562.4999999999444,
      "source_cor": "(51,15,0)",
      "dest_cor": "(9,6,0)"
    },
    {
      "id": 518,
      "type": "input",
      "source_block_id": 1018,
      "dest_block_id": 355,
      "crane": 0,
      "start_time": 264.4999999999441,
      "end_time": 272.4999999999441,
      "source_cor": "(9,0,0)",
      "dest_cor": "(6,8,0)"
    },
    {
      "id": 519,
      "type": "input",
      "source_block_id": 1035,
      "dest_block_id": 255,
      "crane": 0,
      "start_time": 418.4999999999441,
      "end_time": 433.4999999999441,
      "source_cor": "(17,21,0)",
      "dest_cor": "(6,6,0)"
    },
    {
      "id": 520,
      "type": "input",
      "source_block_id": 1110,
      "dest_block_id": 853,
      "crane": 0,
      "start_time": 611.4999999999446,
      "end_time": 625.4999999999446,
      "source_cor": "(0,4,0)",
      "dest_cor": "(4,18,0)"
    },
    {
      "id": 521,
      "type": "input",
      "source_block_id": 1011,
      "dest_block_id": 43,
      "crane": 1,
      "start_time": 440.49999999994543,
      "end_time": 479.49999999994543,
      "source_cor": "(5,21,0)",
      "dest_cor": "(44,1,0)"
    },
    {
      "id": 522,
      "type": "input",
      "source_block_id": 1082,
      "dest_block_id": 594,
      "crane": 1,
      "start_time": 502.4999999999444,
      "end_time": 514.4999999999444,
      "source_cor": "(41,0,0)",
      "dest_cor": "(45,12,0)"
    },
    {
      "id": 523,
      "type": "input",
      "source_block_id": 1141,
      "dest_block_id": 758,
      "crane": 0,
      "start_time": 489.49999999994543,
      "end_time": 531.4999999999454,
      "source_cor": "(51,19,0)",
      "dest_cor": "(9,16,0)"
    },
    {
      "id": 524,
      "type": "input",
      "source_block_id": 1005,
      "dest_block_id": 204,
      "crane": 0,
      "start_time": 173.49999999995322,
      "end_time": 189.49999999995322,
      "source_cor": "(2,21,0)",
      "dest_cor": "(5,5,0)"
    },
    {
      "id": 525,
      "type": "input",
      "source_block_id": 1074,
      "dest_block_id": 268,
      "crane": 1,
      "start_time": 351.4999999999441,
      "end_time": 369.4999999999441,
      "source_cor": "(37,0,0)",
      "dest_cor": "(19,6,0)"
    },
    {
      "id": 526,
      "type": "input",
      "source_block_id": 1034,
      "dest_block_id": 130,
      "crane": 0,
      "start_time": 455.49999999994395,
      "end_time": 469.49999999994395,
      "source_cor": "(17,0,0)",
      "dest_cor": "(31,3,0)"
    }
  ]
}