{
  "instance": "30_1_0.3l.json",
  "comments": "solution by BAP and CSP formulations",
  "objective": 2455.513600608677,
  "bap_objective": 0.0,
  "csp_objective": 4911.027201217354,
  "products": [
    {
      "id": 63,
      "type": "output",
      "source_block_id": 924,
      "dest_block_id": 1131,
      "crane": 0,
      "start_time": 175.09999990462921,
      "end_time": 201.09999990462921,
      "source_cor": "(25,19,0)",
      "dest_cor": "(51,14,0)"
    },
    {
      "id": 141,
      "type": "output",
      "source_block_id": 507,
      "dest_block_id": 1109,
      "crane": 1,
      "start_time": 137.09999990462904,
      "end_time": 180.09999990462904,
      "source_cor": "(8,11,0)",
      "dest_cor": "(51,3,0)"
    },
    {
      "id": 256,
      "type": "output",
      "source_block_id": 278,
      "dest_block_id": 1038,
      "crane": 1,
      "start_time": 95.09999990462894,
      "end_time": 105.09999990462894,
      "source_cor": "(29,6,0)",
      "dest_cor": "(19,0,0)"
    },
    {
      "id": 300,
      "type": "input",
      "source_block_id": 1141,
      "dest_block_id": 0,
      "crane": 0,
      "start_time": 341.09999990462165,
      "end_time": 391.09999990462165,
      "source_cor": "(51,19,0)",
      "dest_cor": "(1,1,0)"
    },
    {
      "id": 301,
      "type": "input",
      "source_block_id": 1138,
      "dest_block_id": 329,
      "crane": 0,
      "start_time": 3.0999999046325826,
      "end_time": 33.09999990463258,
      "source_cor": "(0,18,0)",
      "dest_cor": "(30,7,0)"
    },
    {
      "id": 302,
      "type": "input",
      "source_block_id": 1094,
      "dest_block_id": 108,
      "crane": 1,
      "start_time": 19.099999904607124,
      "end_time": 57.099999904607124,
      "source_cor": "(47,0,0)",
      "dest_cor": "(9,3,0)"
    },
    {
      "id": 303,
      "type": "input",
      "source_block_id": 1050,
      "dest_block_id": 869,
      "crane": 0,
      "start_time": 94.09999990463258,
      "end_time": 112.09999990463258,
      "source_cor": "(25,0,0)",
      "dest_cor": "(20,18,0)"
    },
    {
      "id": 304,
      "type": "input",
      "source_block_id": 1012,
      "dest_block_id": 255,
      "crane": 1,
      "start_time": 273.09999990463075,
      "end_time": 279.09999990463075,
      "source_cor": "(6,0,0)",
      "dest_cor": "(6,6,0)"
    },
    {
      "id": 305,
      "type": "input",
      "source_block_id": 1030,
      "dest_block_id": 511,
      "crane": 1,
      "start_time": 122.09999990463257,
      "end_time": 133.09999990463257,
      "source_cor": "(15,0,0)",
      "dest_cor": "(12,11,0)"
    },
    {
      "id": 306,
      "type": "input",
      "source_block_id": 1114,
      "dest_block_id": 13,
      "crane": 0,
      "start_time": 69.09999990463258,
      "end_time": 83.09999990463258,
      "source_cor": "(0,6,0)",
      "dest_cor": "(14,1,0)"
    },
    {
      "id": 307,
      "type": "input",
      "source_block_id": 1125,
      "dest_block_id": 11,
      "crane": 1,
      "start_time": 228.09999990462893,
      "end_time": 267.09999990462893,
      "source_cor": "(51,11,0)",
      "dest_cor": "(12,1,0)"
    },
    {
      "id": 308,
      "type": "input",
      "source_block_id": 1134,
      "dest_block_id": 640,
      "crane": 0,
      "start_time": 415.09999990463257,
      "end_time": 456.09999990463257,
      "source_cor": "(0,16,0)",
      "dest_cor": "(41,13,0)"
    },
    {
      "id": 309,
      "type": "input",
      "source_block_id": 1123,
      "dest_block_id": 94,
      "crane": 1,
      "start_time": 344.09999990462165,
      "end_time": 352.09999990462165,
      "source_cor": "(51,10,0)",
      "dest_cor": "(45,2,0)"
    },
    {
      "id": 310,
      "type": "input",
      "source_block_id": 1011,
      "dest_block_id": 19,
      "crane": 0,
      "start_time": 137.09999990462921,
      "end_time": 157.09999990462921,
      "source_cor": "(5,21,0)",
      "dest_cor": "(20,1,0)"
    },
    {
      "id": 311,
      "type": "input",
      "source_block_id": 1039,
      "dest_block_id": 915,
      "crane": 0,
      "start_time": 115.09999990463258,
      "end_time": 118.09999990463258,
      "source_cor": "(19,21,0)",
      "dest_cor": "(16,19,0)"
    },
    {
      "id": 312,
      "type": "input",
      "source_block_id": 1105,
      "dest_block_id": 114,
      "crane": 1,
      "start_time": 391.09999990463257,
      "end_time": 427.09999990463257,
      "source_cor": "(51,1,0)",
      "dest_cor": "(15,3,0)"
    },
    {
      "id": 313,
      "type": "input",
      "source_block_id": 1112,
      "dest_block_id": 60,
      "crane": 1,
      "start_time": 66.09999990463258,
      "end_time": 77.09999990463258,
      "source_cor": "(0,5,0)",
      "dest_cor": "(11,2,0)"
    },
    {
      "id": 314,
      "type": "input",
      "source_block_id": 1112,
      "dest_block_id": 43,
      "crane": 1,
      "start_time": 634.0999999046506,
      "end_time": 678.0999999046506,
      "source_cor": "(0,5,0)",
      "dest_cor": "(44,1,0)"
    },
    {
      "id": 315,
      "type": "input",
      "source_block_id": 1103,
      "dest_block_id": 98,
      "crane": 1,
      "start_time": 495.0999999046471,
      "end_time": 514.0999999046471,
      "source_cor": "(51,21,0)",
      "dest_cor": "(49,2,0)"
    },
    {
      "id": 316,
      "type": "input",
      "source_block_id": 1088,
      "dest_block_id": 30,
      "crane": 0,
      "start_time": 469.09999990465076,
      "end_time": 482.09999990465076,
      "source_cor": "(44,0,0)",
      "dest_cor": "(31,1,0)"
    },
    {
      "id": 317,
      "type": "input",
      "source_block_id": 1143,
      "dest_block_id": 698,
      "crane": 1,
      "start_time": 482.09999990465076,
      "end_time": 488.09999990465076,
      "source_cor": "(51,20,0)",
      "dest_cor": "(49,14,0)"
    },
    {
      "id": 318,
      "type": "input",
      "source_block_id": 1008,
      "dest_block_id": 988,
      "crane": 0,
      "start_time": 294.0999999046217,
      "end_time": 329.0999999046217,
      "source_cor": "(4,0,0)",
      "dest_cor": "(39,20,0)"
    },
    {
      "id": 319,
      "type": "input",
      "source_block_id": 1042,
      "dest_block_id": 993,
      "crane": 0,
      "start_time": 1151.270509162757,
      "end_time": 1174.270509162757,
      "source_cor": "(21,0,0)",
      "dest_cor": "(44,20,0)"
    },
    {
      "id": 320,
      "type": "input",
      "source_block_id": 1018,
      "dest_block_id": 360,
      "crane": 0,
      "start_time": 678.0999999046461,
      "end_time": 686.0999999046461,
      "source_cor": "(9,0,0)",
      "dest_cor": "(11,8,0)"
    },
    {
      "id": 321,
      "type": "input",
      "source_block_id": 1012,
      "dest_block_id": 38,
      "crane": 0,
      "start_time": 507.09999990465076,
      "end_time": 540.0999999046508,
      "source_cor": "(6,0,0)",
      "dest_cor": "(39,1,0)"
    },
    {
      "id": 322,
      "type": "input",
      "source_block_id": 1029,
      "dest_block_id": 40,
      "crane": 1,
      "start_time": 294.09999990462717,
      "end_time": 321.09999990462717,
      "source_cor": "(14,21,0)",
      "dest_cor": "(41,1,0)"
    },
    {
      "id": 323,
      "type": "input",
      "source_block_id": 1116,
      "dest_block_id": 925,
      "crane": 0,
      "start_time": 579.0999999046508,
      "end_time": 605.0999999046508,
      "source_cor": "(0,7,0)",
      "dest_cor": "(26,19,0)"
    },
    {
      "id": 324,
      "type": "input",
      "source_block_id": 1089,
      "dest_block_id": 985,
      "crane": 0,
      "start_time": 208.09999990462893,
      "end_time": 216.09999990462893,
      "source_cor": "(44,21,0)",
      "dest_cor": "(36,20,0)"
    },
    {
      "id": 325,
      "type": "input",
      "source_block_id": 1097,
      "dest_block_id": 100,
      "crane": 0,
      "start_time": 228.09999990462893,
      "end_time": 275.09999990462893,
      "source_cor": "(48,21,0)",
      "dest_cor": "(1,3,0)"
    },
    {
      "id": 326,
      "type": "input",
      "source_block_id": 1078,
      "dest_block_id": 835,
      "crane": 1,
      "start_time": 358.099999904618,
      "end_time": 375.099999904618,
      "source_cor": "(39,0,0)",
      "dest_cor": "(36,17,0)"
    }
  ]
}