{
  "instance": "30_1_0.5m.json",
  "comments": "solution by BAP and CSP formulations",
  "objective": 1880.5859158788655,
  "bap_objective": 19.0,
  "csp_objective": 3742.1718317577315,
  "products": [
    {
      "id": 95,
      "type": "output",
      "source_block_id": 336,
      "dest_block_id": 581,
      "crane": 1,
      "start_time": 279.50000000001876,
      "end_time": 289.50000000001876,
      "source_cor": "(22,10,0)",
      "dest_cor": "(28,0,0)"
    },
    {
      "id": 182,
      "type": "output",
      "source_block_id": 416,
      "dest_block_id": 594,
      "crane": 1,
      "start_time": 82.49999999999636,
      "end_time": 86.49999999999636,
      "source_cor": "(32,12,0)",
      "dest_cor": "(34,16,0)"
    },
    {
      "id": 215,
      "type": "output",
      "source_block_id": 490,
      "dest_block_id": 578,
      "crane": 1,
      "start_time": 218.50000000001697,
      "end_time": 243.50000000001697,
      "source_cor": "(1,15,0)",
      "dest_cor": "(26,16,0)"
    },
    {
      "id": 262,
      "type": "input",
      "source_block_id": 553,
      "dest_block_id": 290,
      "crane": 1,
      "start_time": 1.4999999999999996,
      "end_time": 10.5,
      "source_cor": "(14,0,0)",
      "dest_cor": "(11,9,0)"
    },
    {
      "id": 263,
      "type": "input",
      "source_block_id": 562,
      "dest_block_id": 313,
      "crane": 1,
      "start_time": 251.5000000000188,
      "end_time": 267.50000000001876,
      "source_cor": "(18,16,0)",
      "dest_cor": "(34,9,0)"
    },
    {
      "id": 264,
      "type": "input",
      "source_block_id": 585,
      "dest_block_id": 288,
      "crane": 1,
      "start_time": 102.49999999999818,
      "end_time": 123.49999999999818,
      "source_cor": "(30,0,0)",
      "dest_cor": "(9,9,0)"
    },
    {
      "id": 265,
      "type": "input",
      "source_block_id": 541,
      "dest_block_id": 262,
      "crane": 0,
      "start_time": 10.4999999999973,
      "end_time": 20.4999999999973,
      "source_cor": "(8,0,0)",
      "dest_cor": "(18,8,0)"
    },
    {
      "id": 266,
      "type": "input",
      "source_block_id": 583,
      "dest_block_id": 81,
      "crane": 1,
      "start_time": 158.50000000000003,
      "end_time": 175.50000000000003,
      "source_cor": "(29,0,0)",
      "dest_cor": "(12,3,0)"
    },
    {
      "id": 267,
      "type": "input",
      "source_block_id": 555,
      "dest_block_id": 446,
      "crane": 1,
      "start_time": 32.49999999999626,
      "end_time": 45.49999999999626,
      "source_cor": "(15,0,0)",
      "dest_cor": "(27,13,0)"
    },
    {
      "id": 268,
      "type": "input",
      "source_block_id": 559,
      "dest_block_id": 180,
      "crane": 0,
      "start_time": 46.49999999999818,
      "end_time": 57.49999999999818,
      "source_cor": "(17,0,0)",
      "dest_cor": "(6,6,0)"
    },
    {
      "id": 269,
      "type": "input",
      "source_block_id": 571,
      "dest_block_id": 16,
      "crane": 1,
      "start_time": 24.499999999999993,
      "end_time": 30.499999999999993,
      "source_cor": "(23,0,0)",
      "dest_cor": "(17,1,0)"
    },
    {
      "id": 270,
      "type": "input",
      "source_block_id": 553,
      "dest_block_id": 190,
      "crane": 0,
      "start_time": 34.49999999999818,
      "end_time": 40.49999999999818,
      "source_cor": "(14,0,0)",
      "dest_cor": "(16,6,0)"
    },
    {
      "id": 271,
      "type": "input",
      "source_block_id": 600,
      "dest_block_id": 201,
      "crane": 1,
      "start_time": 67.49999999999636,
      "end_time": 76.49999999999636,
      "source_cor": "(36,1,0)",
      "dest_cor": "(27,6,0)"
    },
    {
      "id": 272,
      "type": "input",
      "source_block_id": 574,
      "dest_block_id": 405,
      "crane": 1,
      "start_time": 48.49999999999636,
      "end_time": 52.49999999999636,
      "source_cor": "(24,16,0)",
      "dest_cor": "(21,12,0)"
    },
    {
      "id": 273,
      "type": "input",
      "source_block_id": 570,
      "dest_block_id": 64,
      "crane": 1,
      "start_time": 142.4999999999982,
      "end_time": 156.4999999999982,
      "source_cor": "(22,16,0)",
      "dest_cor": "(30,2,0)"
    },
    {
      "id": 274,
      "type": "input",
      "source_block_id": 591,
      "dest_block_id": 117,
      "crane": 0,
      "start_time": 96.49999999999818,
      "end_time": 116.49999999999818,
      "source_cor": "(33,0,0)",
      "dest_cor": "(13,4,0)"
    },
    {
      "id": 275,
      "type": "input",
      "source_block_id": 623,
      "dest_block_id": 511,
      "crane": 0,
      "start_time": 284.50000000001717,
      "end_time": 306.50000000001717,
      "source_cor": "(0,13,0)",
      "dest_cor": "(22,15,0)"
    },
    {
      "id": 276,
      "type": "input",
      "source_block_id": 554,
      "dest_block_id": 120,
      "crane": 0,
      "start_time": 67.49999999999818,
      "end_time": 79.49999999999818,
      "source_cor": "(14,16,0)",
      "dest_cor": "(16,4,0)"
    },
    {
      "id": 277,
      "type": "input",
      "source_block_id": 582,
      "dest_block_id": 321,
      "crane": 1,
      "start_time": 191.4999999999999,
      "end_time": 212.4999999999999,
      "source_cor": "(28,16,0)",
      "dest_cor": "(7,10,0)"
    },
    {
      "id": 278,
      "type": "input",
      "source_block_id": 530,
      "dest_block_id": 226,
      "crane": 0,
      "start_time": 359.50000000001535,
      "end_time": 374.50000000001535,
      "source_cor": "(2,16,0)",
      "dest_cor": "(17,7,0)"
    },
    {
      "id": 279,
      "type": "input",
      "source_block_id": 555,
      "dest_block_id": 497,
      "crane": 1,
      "start_time": 347.50000000001535,
      "end_time": 362.50000000001535,
      "source_cor": "(15,0,0)",
      "dest_cor": "(8,15,0)"
    },
    {
      "id": 280,
      "type": "input",
      "source_block_id": 622,
      "dest_block_id": 229,
      "crane": 0,
      "start_time": 320.5000000000169,
      "end_time": 336.5000000000169,
      "source_cor": "(36,12,0)",
      "dest_cor": "(20,7,0)"
    },
    {
      "id": 281,
      "type": "input",
      "source_block_id": 567,
      "dest_block_id": 228,
      "crane": 0,
      "start_time": 147.4999999999982,
      "end_time": 154.4999999999982,
      "source_cor": "(21,0,0)",
      "dest_cor": "(19,7,0)"
    },
    {
      "id": 282,
      "type": "input",
      "source_block_id": 607,
      "dest_block_id": 324,
      "crane": 0,
      "start_time": 220.50000000001697,
      "end_time": 230.50000000001697,
      "source_cor": "(0,5,0)",
      "dest_cor": "(10,10,0)"
    },
    {
      "id": 283,
      "type": "input",
      "source_block_id": 613,
      "dest_block_id": 436,
      "crane": 0,
      "start_time": 175.49999999999093,
      "end_time": 192.49999999999093,
      "source_cor": "(0,8,0)",
      "dest_cor": "(17,13,0)"
    },
    {
      "id": 284,
      "type": "input",
      "source_block_id": 560,
      "dest_block_id": 192,
      "crane": 0,
      "start_time": 256.5000000000171,
      "end_time": 266.5000000000171,
      "source_cor": "(17,16,0)",
      "dest_cor": "(18,6,0)"
    },
    {
      "id": 285,
      "type": "input",
      "source_block_id": 541,
      "dest_block_id": 363,
      "crane": 0,
      "start_time": 383.50000000001535,
      "end_time": 394.50000000001535,
      "source_cor": "(8,0,0)",
      "dest_cor": "(14,11,0)"
    },
    {
      "id": 286,
      "type": "input",
      "source_block_id": 557,
      "dest_block_id": 326,
      "crane": 0,
      "start_time": 240.5000000000171,
      "end_time": 250.5000000000171,
      "source_cor": "(16,0,0)",
      "dest_cor": "(12,10,0)"
    },
    {
      "id": 287,
      "type": "input",
      "source_block_id": 533,
      "dest_block_id": 194,
      "crane": 0,
      "start_time": 125.49999999999818,
      "end_time": 141.49999999999818,
      "source_cor": "(4,0,0)",
      "dest_cor": "(20,6,0)"
    },
    {
      "id": 288,
      "type": "input",
      "source_block_id": 622,
      "dest_block_id": 156,
      "crane": 1,
      "start_time": 323.5000000000169,
      "end_time": 342.5000000000169,
      "source_cor": "(36,12,0)",
      "dest_cor": "(17,5,0)"
    }
  ]
}