{
  "instance": "30_1_0.3s.json",
  "comments": "solution by BAP and CSP formulations",
  "objective": 1747.9292950561157,
  "bap_objective": 0.0,
  "csp_objective": 3495.858590112232,
  "products": [
    {
      "id": 27,
      "type": "output",
      "source_block_id": 35,
      "dest_block_id": 277,
      "crane": 1,
      "start_time": 120.5,
      "end_time": 129.5,
      "source_cor": "(11,2,0)",
      "dest_cor": "(13,11,0)"
    },
    {
      "id": 51,
      "type": "output",
      "source_block_id": 93,
      "dest_block_id": 321,
      "crane": 1,
      "start_time": 313.5,
      "end_time": 320.5,
      "source_cor": "(19,4,0)",
      "dest_cor": "(26,9,0)"
    },
    {
      "id": 68,
      "type": "output",
      "source_block_id": 14,
      "dest_block_id": 314,
      "crane": 1,
      "start_time": 355.5000000000018,
      "end_time": 370.5000000000018,
      "source_cor": "(15,1,0)",
      "dest_cor": "(0,6,0)"
    },
    {
      "id": 75,
      "type": "input",
      "source_block_id": 285,
      "dest_block_id": 0,
      "crane": 0,
      "start_time": 1.4999999999999996,
      "end_time": 17.5,
      "source_cor": "(17,11,0)",
      "dest_cor": "(1,1,0)"
    },
    {
      "id": 76,
      "type": "input",
      "source_block_id": 295,
      "dest_block_id": 52,
      "crane": 1,
      "start_time": 324.5000000000018,
      "end_time": 343.5000000000018,
      "source_cor": "(22,11,0)",
      "dest_cor": "(3,3,0)"
    },
    {
      "id": 77,
      "type": "input",
      "source_block_id": 300,
      "dest_block_id": 56,
      "crane": 1,
      "start_time": 6.099999904632567,
      "end_time": 24.09999990463257,
      "source_cor": "(25,0,0)",
      "dest_cor": "(7,3,0)"
    },
    {
      "id": 78,
      "type": "input",
      "source_block_id": 270,
      "dest_block_id": 101,
      "crane": 1,
      "start_time": 194.5,
      "end_time": 202.5,
      "source_cor": "(10,0,0)",
      "dest_cor": "(2,5,0)"
    },
    {
      "id": 79,
      "type": "input",
      "source_block_id": 296,
      "dest_block_id": 231,
      "crane": 1,
      "start_time": 240.50000000000182,
      "end_time": 256.5000000000018,
      "source_cor": "(23,0,0)",
      "dest_cor": "(7,10,0)"
    },
    {
      "id": 80,
      "type": "input",
      "source_block_id": 299,
      "dest_block_id": 184,
      "crane": 1,
      "start_time": 282.5,
      "end_time": 296.5,
      "source_cor": "(24,11,0)",
      "dest_cor": "(10,8,0)"
    },
    {
      "id": 81,
      "type": "input",
      "source_block_id": 256,
      "dest_block_id": 91,
      "crane": 1,
      "start_time": 28.09999990463257,
      "end_time": 42.09999990463257,
      "source_cor": "(3,0,0)",
      "dest_cor": "(17,4,0)"
    },
    {
      "id": 82,
      "type": "input",
      "source_block_id": 310,
      "dest_block_id": 54,
      "crane": 0,
      "start_time": 28.09999990463257,
      "end_time": 33.09999990463257,
      "source_cor": "(0,4,0)",
      "dest_cor": "(5,3,0)"
    },
    {
      "id": 83,
      "type": "input",
      "source_block_id": 283,
      "dest_block_id": 220,
      "crane": 1,
      "start_time": 49.09999990463257,
      "end_time": 54.09999990463257,
      "source_cor": "(16,11,0)",
      "dest_cor": "(21,9,0)"
    },
    {
      "id": 84,
      "type": "input",
      "source_block_id": 312,
      "dest_block_id": 34,
      "crane": 1,
      "start_time": 204.5,
      "end_time": 214.5,
      "source_cor": "(0,5,0)",
      "dest_cor": "(10,2,0)"
    },
    {
      "id": 85,
      "type": "input",
      "source_block_id": 259,
      "dest_block_id": 41,
      "crane": 1,
      "start_time": 138.5,
      "end_time": 151.5,
      "source_cor": "(4,11,0)",
      "dest_cor": "(17,2,0)"
    },
    {
      "id": 86,
      "type": "input",
      "source_block_id": 264,
      "dest_block_id": 26,
      "crane": 0,
      "start_time": 36.09999847412109,
      "end_time": 41.09999847412109,
      "source_cor": "(7,0,0)",
      "dest_cor": "(2,2,0)"
    },
    {
      "id": 87,
      "type": "input",
      "source_block_id": 310,
      "dest_block_id": 225,
      "crane": 0,
      "start_time": 43.099998474121094,
      "end_time": 49.099998474121094,
      "source_cor": "(0,4,0)",
      "dest_cor": "(1,10,0)"
    },
    {
      "id": 88,
      "type": "input",
      "source_block_id": 264,
      "dest_block_id": 222,
      "crane": 1,
      "start_time": 68.09999990463257,
      "end_time": 84.09999990463257,
      "source_cor": "(7,0,0)",
      "dest_cor": "(23,9,0)"
    },
    {
      "id": 89,
      "type": "input",
      "source_block_id": 270,
      "dest_block_id": 248,
      "crane": 1,
      "start_time": 216.5,
      "end_time": 230.5,
      "source_cor": "(10,0,0)",
      "dest_cor": "(24,10,0)"
    },
    {
      "id": 90,
      "type": "input",
      "source_block_id": 300,
      "dest_block_id": 58,
      "crane": 0,
      "start_time": 278.5,
      "end_time": 294.5,
      "source_cor": "(25,0,0)",
      "dest_cor": "(9,3,0)"
    },
    {
      "id": 91,
      "type": "input",
      "source_block_id": 261,
      "dest_block_id": 201,
      "crane": 0,
      "start_time": 116.5,
      "end_time": 119.5,
      "source_cor": "(5,11,0)",
      "dest_cor": "(2,9,0)"
    },
    {
      "id": 92,
      "type": "input",
      "source_block_id": 283,
      "dest_block_id": 38,
      "crane": 1,
      "start_time": 108.5,
      "end_time": 117.5,
      "source_cor": "(16,11,0)",
      "dest_cor": "(14,2,0)"
    },
    {
      "id": 93,
      "type": "input",
      "source_block_id": 299,
      "dest_block_id": 234,
      "crane": 0,
      "start_time": 97.5,
      "end_time": 111.5,
      "source_cor": "(24,11,0)",
      "dest_cor": "(10,10,0)"
    },
    {
      "id": 94,
      "type": "input",
      "source_block_id": 296,
      "dest_block_id": 182,
      "crane": 0,
      "start_time": 178.5,
      "end_time": 193.5,
      "source_cor": "(23,0,0)",
      "dest_cor": "(8,8,0)"
    },
    {
      "id": 95,
      "type": "input",
      "source_block_id": 295,
      "dest_block_id": 62,
      "crane": 0,
      "start_time": 159.5,
      "end_time": 168.5,
      "source_cor": "(22,11,0)",
      "dest_cor": "(13,3,0)"
    },
    {
      "id": 96,
      "type": "input",
      "source_block_id": 312,
      "dest_block_id": 238,
      "crane": 0,
      "start_time": 73.5,
      "end_time": 87.5,
      "source_cor": "(0,5,0)",
      "dest_cor": "(14,10,0)"
    },
    {
      "id": 97,
      "type": "input",
      "source_block_id": 255,
      "dest_block_id": 227,
      "crane": 0,
      "start_time": 67.49999999999999,
      "end_time": 68.49999999999999,
      "source_cor": "(2,11,0)",
      "dest_cor": "(3,10,0)"
    },
    {
      "id": 98,
      "type": "input",
      "source_block_id": 296,
      "dest_block_id": 175,
      "crane": 0,
      "start_time": 232.5,
      "end_time": 254.5,
      "source_cor": "(23,0,0)",
      "dest_cor": "(1,8,0)"
    },
    {
      "id": 99,
      "type": "input",
      "source_block_id": 292,
      "dest_block_id": 117,
      "crane": 1,
      "start_time": 307.5,
      "end_time": 312.5,
      "source_cor": "(21,0,0)",
      "dest_cor": "(18,5,0)"
    },
    {
      "id": 100,
      "type": "input",
      "source_block_id": 255,
      "dest_block_id": 242,
      "crane": 0,
      "start_time": 139.5,
      "end_time": 155.5,
      "source_cor": "(2,11,0)",
      "dest_cor": "(18,10,0)"
    },
    {
      "id": 101,
      "type": "input",
      "source_block_id": 300,
      "dest_block_id": 244,
      "crane": 1,
      "start_time": 159.5,
      "end_time": 169.5,
      "source_cor": "(25,0,0)",
      "dest_cor": "(20,10,0)"
    }
  ]
}