{
  "instance": "50_1_0.3s.json",
  "comments": "solution by BAP and CSP formulations",
  "objective": 8343.461593842323,
  "bap_objective": 0.0,
  "csp_objective": 16686.923187684642,
  "products": [
    {
      "id": 3,
      "type": "output",
      "source_block_id": 174,
      "dest_block_id": 277,
      "crane": 1,
      "start_time": 638.2999992368043,
      "end_time": 650.2999992368043,
      "source_cor": "(25,7,0)",
      "dest_cor": "(13,11,0)"
    },
    {
      "id": 27,
      "type": "output",
      "source_block_id": 35,
      "dest_block_id": 277,
      "crane": 1,
      "start_time": 140.29999923694507,
      "end_time": 149.29999923694507,
      "source_cor": "(11,2,0)",
      "dest_cor": "(13,11,0)"
    },
    {
      "id": 33,
      "type": "output",
      "source_block_id": 161,
      "dest_block_id": 317,
      "crane": 1,
      "start_time": 590.2999992368298,
      "end_time": 604.2999992368298,
      "source_cor": "(12,7,0)",
      "dest_cor": "(26,7,0)"
    },
    {
      "id": 34,
      "type": "output",
      "source_block_id": 64,
      "dest_block_id": 305,
      "crane": 1,
      "start_time": 787.2999992368043,
      "end_time": 798.2999992368043,
      "source_cor": "(15,3,0)",
      "dest_cor": "(26,1,0)"
    },
    {
      "id": 37,
      "type": "output",
      "source_block_id": 128,
      "dest_block_id": 293,
      "crane": 1,
      "start_time": 820.2999992368043,
      "end_time": 837.2999992368043,
      "source_cor": "(4,6,0)",
      "dest_cor": "(21,11,0)"
    },
    {
      "id": 45,
      "type": "output",
      "source_block_id": 173,
      "dest_block_id": 271,
      "crane": 1,
      "start_time": 368.29999923682976,
      "end_time": 382.29999923682976,
      "source_cor": "(24,7,0)",
      "dest_cor": "(10,11,0)"
    },
    {
      "id": 46,
      "type": "output",
      "source_block_id": 50,
      "dest_block_id": 271,
      "crane": 0,
      "start_time": 538.2999992368298,
      "end_time": 547.2999992368298,
      "source_cor": "(1,3,0)",
      "dest_cor": "(10,11,0)"
    },
    {
      "id": 48,
      "type": "output",
      "source_block_id": 121,
      "dest_block_id": 251,
      "crane": 1,
      "start_time": 414.29999923682976,
      "end_time": 436.29999923682976,
      "source_cor": "(22,5,0)",
      "dest_cor": "(0,11,0)"
    },
    {
      "id": 51,
      "type": "output",
      "source_block_id": 93,
      "dest_block_id": 321,
      "crane": 1,
      "start_time": 21.299999237060543,
      "end_time": 28.299999237060543,
      "source_cor": "(19,4,0)",
      "dest_cor": "(26,9,0)"
    },
    {
      "id": 68,
      "type": "output",
      "source_block_id": 14,
      "dest_block_id": 314,
      "crane": 1,
      "start_time": 563.2999992368298,
      "end_time": 578.2999992368298,
      "source_cor": "(15,1,0)",
      "dest_cor": "(0,6,0)"
    },
    {
      "id": 75,
      "type": "input",
      "source_block_id": 285,
      "dest_block_id": 0,
      "crane": 0,
      "start_time": 1.4999999999999996,
      "end_time": 17.5,
      "source_cor": "(17,11,0)",
      "dest_cor": "(1,1,0)"
    },
    {
      "id": 76,
      "type": "input",
      "source_block_id": 295,
      "dest_block_id": 232,
      "crane": 1,
      "start_time": 83.29999923487053,
      "end_time": 97.29999923487053,
      "source_cor": "(22,11,0)",
      "dest_cor": "(8,10,0)"
    },
    {
      "id": 77,
      "type": "input",
      "source_block_id": 300,
      "dest_block_id": 58,
      "crane": 1,
      "start_time": 326.29999923682976,
      "end_time": 342.29999923682976,
      "source_cor": "(25,0,0)",
      "dest_cor": "(9,3,0)"
    },
    {
      "id": 78,
      "type": "input",
      "source_block_id": 270,
      "dest_block_id": 34,
      "crane": 1,
      "start_time": 44.29999923694959,
      "end_time": 46.29999923694959,
      "source_cor": "(10,0,0)",
      "dest_cor": "(10,2,0)"
    },
    {
      "id": 79,
      "type": "input",
      "source_block_id": 296,
      "dest_block_id": 248,
      "crane": 1,
      "start_time": 59.29999923694868,
      "end_time": 69.29999923694868,
      "source_cor": "(23,0,0)",
      "dest_cor": "(24,10,0)"
    },
    {
      "id": 80,
      "type": "input",
      "source_block_id": 299,
      "dest_block_id": 125,
      "crane": 0,
      "start_time": 274.29999923692685,
      "end_time": 297.29999923692685,
      "source_cor": "(24,11,0)",
      "dest_cor": "(1,6,0)"
    },
    {
      "id": 81,
      "type": "input",
      "source_block_id": 256,
      "dest_block_id": 208,
      "crane": 1,
      "start_time": 160.29999923694865,
      "end_time": 169.29999923694865,
      "source_cor": "(3,0,0)",
      "dest_cor": "(9,9,0)"
    },
    {
      "id": 82,
      "type": "input",
      "source_block_id": 310,
      "dest_block_id": 182,
      "crane": 1,
      "start_time": 178.29999923694865,
      "end_time": 186.29999923694865,
      "source_cor": "(0,4,0)",
      "dest_cor": "(8,8,0)"
    },
    {
      "id": 83,
      "type": "input",
      "source_block_id": 283,
      "dest_block_id": 244,
      "crane": 1,
      "start_time": 77.29999923693948,
      "end_time": 81.29999923693948,
      "source_cor": "(16,11,0)",
      "dest_cor": "(20,10,0)"
    },
    {
      "id": 84,
      "type": "input",
      "source_block_id": 312,
      "dest_block_id": 101,
      "crane": 0,
      "start_time": 39.86406254399526,
      "end_time": 41.86406254399526,
      "source_cor": "(0,5,0)",
      "dest_cor": "(2,5,0)"
    },
    {
      "id": 85,
      "type": "input",
      "source_block_id": 259,
      "dest_block_id": 238,
      "crane": 1,
      "start_time": 101.29999923694781,
      "end_time": 111.29999923694781,
      "source_cor": "(4,11,0)",
      "dest_cor": "(14,10,0)"
    },
    {
      "id": 86,
      "type": "input",
      "source_block_id": 264,
      "dest_block_id": 242,
      "crane": 1,
      "start_time": 121.29999923694781,
      "end_time": 132.29999923694783,
      "source_cor": "(7,0,0)",
      "dest_cor": "(18,10,0)"
    },
    {
      "id": 87,
      "type": "input",
      "source_block_id": 310,
      "dest_block_id": 117,
      "crane": 0,
      "start_time": 194.29999923692685,
      "end_time": 212.29999923692685,
      "source_cor": "(0,4,0)",
      "dest_cor": "(18,5,0)"
    },
    {
      "id": 88,
      "type": "input",
      "source_block_id": 264,
      "dest_block_id": 65,
      "crane": 1,
      "start_time": 294.2999992368274,
      "end_time": 303.2999992368274,
      "source_cor": "(7,0,0)",
      "dest_cor": "(16,3,0)"
    },
    {
      "id": 89,
      "type": "input",
      "source_block_id": 270,
      "dest_block_id": 41,
      "crane": 1,
      "start_time": 194.29999923694868,
      "end_time": 201.29999923694868,
      "source_cor": "(10,0,0)",
      "dest_cor": "(17,2,0)"
    },
    {
      "id": 90,
      "type": "input",
      "source_block_id": 300,
      "dest_block_id": 225,
      "crane": 1,
      "start_time": 728.2999992368043,
      "end_time": 752.2999992368043,
      "source_cor": "(25,0,0)",
      "dest_cor": "(1,10,0)"
    },
    {
      "id": 91,
      "type": "input",
      "source_block_id": 261,
      "dest_block_id": 51,
      "crane": 0,
      "start_time": 97.29999923487053,
      "end_time": 105.29999923487053,
      "source_cor": "(5,11,0)",
      "dest_cor": "(2,3,0)"
    },
    {
      "id": 92,
      "type": "input",
      "source_block_id": 283,
      "dest_block_id": 91,
      "crane": 1,
      "start_time": 350.29999923682976,
      "end_time": 357.29999923682976,
      "source_cor": "(16,11,0)",
      "dest_cor": "(17,4,0)"
    },
    {
      "id": 93,
      "type": "input",
      "source_block_id": 299,
      "dest_block_id": 227,
      "crane": 1,
      "start_time": 212.29999923692685,
      "end_time": 233.29999923692685,
      "source_cor": "(24,11,0)",
      "dest_cor": "(3,10,0)"
    },
    {
      "id": 94,
      "type": "input",
      "source_block_id": 296,
      "dest_block_id": 10,
      "crane": 0,
      "start_time": 366.29999923682976,
      "end_time": 378.29999923682976,
      "source_cor": "(23,0,0)",
      "dest_cor": "(11,1,0)"
    },
    {
      "id": 95,
      "type": "input",
      "source_block_id": 295,
      "dest_block_id": 27,
      "crane": 1,
      "start_time": 458.29999923682976,
      "end_time": 477.29999923682976,
      "source_cor": "(22,11,0)",
      "dest_cor": "(3,2,0)"
    },
    {
      "id": 96,
      "type": "input",
      "source_block_id": 312,
      "dest_block_id": 8,
      "crane": 0,
      "start_time": 233.29999923692685,
      "end_time": 242.29999923692685,
      "source_cor": "(0,5,0)",
      "dest_cor": "(9,1,0)"
    },
    {
      "id": 97,
      "type": "input",
      "source_block_id": 255,
      "dest_block_id": 38,
      "crane": 0,
      "start_time": 479.29999923682976,
      "end_time": 491.29999923682976,
      "source_cor": "(2,11,0)",
      "dest_cor": "(14,2,0)"
    },
    {
      "id": 98,
      "type": "input",
      "source_block_id": 296,
      "dest_block_id": 119,
      "crane": 1,
      "start_time": 395.29999923682976,
      "end_time": 400.29999923682976,
      "source_cor": "(23,0,0)",
      "dest_cor": "(20,5,0)"
    },
    {
      "id": 99,
      "type": "input",
      "source_block_id": 292,
      "dest_block_id": 222,
      "crane": 1,
      "start_time": 308.2999992368274,
      "end_time": 317.2999992368274,
      "source_cor": "(21,0,0)",
      "dest_cor": "(23,9,0)"
    },
    {
      "id": 100,
      "type": "input",
      "source_block_id": 255,
      "dest_block_id": 89,
      "crane": 0,
      "start_time": 252.29999923692685,
      "end_time": 265.29999923692685,
      "source_cor": "(2,11,0)",
      "dest_cor": "(15,4,0)"
    },
    {
      "id": 101,
      "type": "input",
      "source_block_id": 300,
      "dest_block_id": 184,
      "crane": 0,
      "start_time": 408.29999923682976,
      "end_time": 423.29999923682976,
      "source_cor": "(25,0,0)",
      "dest_cor": "(10,8,0)"
    },
    {
      "id": 102,
      "type": "input",
      "source_block_id": 308,
      "dest_block_id": 62,
      "crane": 0,
      "start_time": 513.2999992368298,
      "end_time": 526.2999992368298,
      "source_cor": "(0,3,0)",
      "dest_cor": "(13,3,0)"
    },
    {
      "id": 103,
      "type": "input",
      "source_block_id": 283,
      "dest_block_id": 201,
      "crane": 0,
      "start_time": 609.2999992368043,
      "end_time": 623.2999992368043,
      "source_cor": "(16,11,0)",
      "dest_cor": "(2,9,0)"
    },
    {
      "id": 104,
      "type": "input",
      "source_block_id": 264,
      "dest_block_id": 153,
      "crane": 0,
      "start_time": 590.2999992368043,
      "end_time": 597.2999992368043,
      "source_cor": "(7,0,0)",
      "dest_cor": "(4,7,0)"
    },
    {
      "id": 105,
      "type": "input",
      "source_block_id": 286,
      "dest_block_id": 78,
      "crane": 0,
      "start_time": 495.29999923682976,
      "end_time": 509.29999923682976,
      "source_cor": "(18,0,0)",
      "dest_cor": "(4,4,0)"
    },
    {
      "id": 106,
      "type": "input",
      "source_block_id": 296,
      "dest_block_id": 192,
      "crane": 1,
      "start_time": 774.2999992368043,
      "end_time": 782.2999992368043,
      "source_cor": "(23,0,0)",
      "dest_cor": "(18,8,0)"
    },
    {
      "id": 107,
      "type": "input",
      "source_block_id": 289,
      "dest_block_id": 54,
      "crane": 0,
      "start_time": 556.2999992368298,
      "end_time": 570.2999992368298,
      "source_cor": "(19,11,0)",
      "dest_cor": "(5,3,0)"
    },
    {
      "id": 108,
      "type": "input",
      "source_block_id": 264,
      "dest_block_id": 220,
      "crane": 0,
      "start_time": 660.2999992368043,
      "end_time": 674.2999992368043,
      "source_cor": "(7,0,0)",
      "dest_cor": "(21,9,0)"
    },
    {
      "id": 109,
      "type": "input",
      "source_block_id": 285,
      "dest_block_id": 75,
      "crane": 0,
      "start_time": 638.2999992368043,
      "end_time": 654.2999992368043,
      "source_cor": "(17,11,0)",
      "dest_cor": "(1,4,0)"
    },
    {
      "id": 110,
      "type": "input",
      "source_block_id": 299,
      "dest_block_id": 77,
      "crane": 0,
      "start_time": 677.2999992368043,
      "end_time": 698.2999992368043,
      "source_cor": "(24,11,0)",
      "dest_cor": "(3,4,0)"
    },
    {
      "id": 111,
      "type": "input",
      "source_block_id": 307,
      "dest_block_id": 234,
      "crane": 1,
      "start_time": 686.2999992368043,
      "end_time": 702.2999992368043,
      "source_cor": "(26,2,0)",
      "dest_cor": "(10,10,0)"
    },
    {
      "id": 112,
      "type": "input",
      "source_block_id": 323,
      "dest_block_id": 175,
      "crane": 0,
      "start_time": 724.2999992368043,
      "end_time": 749.2999992368043,
      "source_cor": "(26,10,0)",
      "dest_cor": "(1,8,0)"
    },
    {
      "id": 113,
      "type": "input",
      "source_block_id": 287,
      "dest_block_id": 127,
      "crane": 0,
      "start_time": 837.2999992368043,
      "end_time": 852.2999992368043,
      "source_cor": "(18,11,0)",
      "dest_cor": "(3,6,0)"
    },
    {
      "id": 114,
      "type": "input",
      "source_block_id": 258,
      "dest_block_id": 56,
      "crane": 0,
      "start_time": 702.2999992368043,
      "end_time": 705.2999992368043,
      "source_cor": "(4,0,0)",
      "dest_cor": "(7,3,0)"
    }
  ]
}