{
  "instance": "70_1_0.5s.json",
  "comments": "solution by BAP and CSP formulations",
  "objective": 10748.130200262636,
  "bap_objective": 1436.0,
  "csp_objective": 20060.260400525276,
  "products": [
    {
      "id": 4,
      "type": "output",
      "source_block_id": 147,
      "dest_block_id": 290,
      "crane": 0,
      "start_time": 172.20000076293766,
      "end_time": 178.20000076293766,
      "source_cor": "(23,6,0)",
      "dest_cor": "(20,0,0)"
    },
    {
      "id": 5,
      "type": "output",
      "source_block_id": 67,
      "dest_block_id": 301,
      "crane": 1,
      "start_time": 65.20000076293921,
      "end_time": 73.20000076293921,
      "source_cor": "(18,3,0)",
      "dest_cor": "(25,11,0)"
    },
    {
      "id": 24,
      "type": "output",
      "source_block_id": 210,
      "dest_block_id": 311,
      "crane": 1,
      "start_time": 92.20000076293901,
      "end_time": 107.20000076293901,
      "source_cor": "(11,9,0)",
      "dest_cor": "(26,4,0)"
    },
    {
      "id": 51,
      "type": "output",
      "source_block_id": 93,
      "dest_block_id": 272,
      "crane": 1,
      "start_time": 116.20000076293874,
      "end_time": 124.20000076293874,
      "source_cor": "(19,4,0)",
      "dest_cor": "(11,0,0)"
    },
    {
      "id": 55,
      "type": "output",
      "source_block_id": 136,
      "dest_block_id": 309,
      "crane": 0,
      "start_time": 669.200000762937,
      "end_time": 683.200000762937,
      "source_cor": "(12,6,0)",
      "dest_cor": "(26,3,0)"
    },
    {
      "id": 69,
      "type": "output",
      "source_block_id": 105,
      "dest_block_id": 313,
      "crane": 0,
      "start_time": 231.20000076293746,
      "end_time": 251.20000076293746,
      "source_cor": "(6,5,0)",
      "dest_cor": "(26,5,0)"
    },
    {
      "id": 73,
      "type": "output",
      "source_block_id": 187,
      "dest_block_id": 260,
      "crane": 1,
      "start_time": 609.200000762937,
      "end_time": 617.200000762937,
      "source_cor": "(13,8,0)",
      "dest_cor": "(5,0,0)"
    },
    {
      "id": 84,
      "type": "output",
      "source_block_id": 178,
      "dest_block_id": 298,
      "crane": 0,
      "start_time": 886.200000762937,
      "end_time": 906.200000762937,
      "source_cor": "(4,8,0)",
      "dest_cor": "(24,0,0)"
    },
    {
      "id": 96,
      "type": "output",
      "source_block_id": 72,
      "dest_block_id": 314,
      "crane": 1,
      "start_time": 722.200000762937,
      "end_time": 745.200000762937,
      "source_cor": "(23,3,0)",
      "dest_cor": "(0,6,0)"
    },
    {
      "id": 112,
      "type": "output",
      "source_block_id": 16,
      "dest_block_id": 263,
      "crane": 0,
      "start_time": 80.49999999999993,
      "end_time": 91.49999999999993,
      "source_cor": "(17,1,0)",
      "dest_cor": "(6,11,0)"
    },
    {
      "id": 113,
      "type": "output",
      "source_block_id": 31,
      "dest_block_id": 302,
      "crane": 0,
      "start_time": 836.200000762937,
      "end_time": 855.200000762937,
      "source_cor": "(7,2,0)",
      "dest_cor": "(26,0,0)"
    },
    {
      "id": 117,
      "type": "output",
      "source_block_id": 99,
      "dest_block_id": 281,
      "crane": 1,
      "start_time": 540.200000762937,
      "end_time": 550.200000762937,
      "source_cor": "(25,4,0)",
      "dest_cor": "(15,11,0)"
    },
    {
      "id": 125,
      "type": "input",
      "source_block_id": 256,
      "dest_block_id": 152,
      "crane": 1,
      "start_time": 1.4999999999999996,
      "end_time": 8.5,
      "source_cor": "(3,0,0)",
      "dest_cor": "(3,7,0)"
    },
    {
      "id": 126,
      "type": "input",
      "source_block_id": 323,
      "dest_block_id": 27,
      "crane": 0,
      "start_time": 809.200000762937,
      "end_time": 832.200000762937,
      "source_cor": "(26,10,0)",
      "dest_cor": "(3,2,0)"
    },
    {
      "id": 127,
      "type": "input",
      "source_block_id": 285,
      "dest_block_id": 24,
      "crane": 0,
      "start_time": 790.200000762937,
      "end_time": 800.200000762937,
      "source_cor": "(17,11,0)",
      "dest_cor": "(25,1,0)"
    },
    {
      "id": 128,
      "type": "input",
      "source_block_id": 299,
      "dest_block_id": 44,
      "crane": 1,
      "start_time": 74.20000076293921,
      "end_time": 83.20000076293921,
      "source_cor": "(24,11,0)",
      "dest_cor": "(20,2,0)"
    },
    {
      "id": 129,
      "type": "input",
      "source_block_id": 255,
      "dest_block_id": 7,
      "crane": 1,
      "start_time": 12.600000381469723,
      "end_time": 22.600000381469723,
      "source_cor": "(2,11,0)",
      "dest_cor": "(8,1,0)"
    },
    {
      "id": 130,
      "type": "input",
      "source_block_id": 264,
      "dest_block_id": 210,
      "crane": 0,
      "start_time": 384.20000076293695,
      "end_time": 393.20000076293695,
      "source_cor": "(7,0,0)",
      "dest_cor": "(11,9,0)"
    },
    {
      "id": 131,
      "type": "input",
      "source_block_id": 307,
      "dest_block_id": 145,
      "crane": 1,
      "start_time": 46.200000762939446,
      "end_time": 51.200000762939446,
      "source_cor": "(26,2,0)",
      "dest_cor": "(21,6,0)"
    },
    {
      "id": 132,
      "type": "input",
      "source_block_id": 258,
      "dest_block_id": 227,
      "crane": 0,
      "start_time": 24.499999999999993,
      "end_time": 34.49999999999999,
      "source_cor": "(4,0,0)",
      "dest_cor": "(3,10,0)"
    },
    {
      "id": 133,
      "type": "input",
      "source_block_id": 292,
      "dest_block_id": 20,
      "crane": 1,
      "start_time": 40.200000762939446,
      "end_time": 41.200000762939446,
      "source_cor": "(21,0,0)",
      "dest_cor": "(21,1,0)"
    },
    {
      "id": 134,
      "type": "input",
      "source_block_id": 278,
      "dest_block_id": 90,
      "crane": 1,
      "start_time": 31.200000762939446,
      "end_time": 35.200000762939446,
      "source_cor": "(14,0,0)",
      "dest_cor": "(16,4,0)"
    },
    {
      "id": 135,
      "type": "input",
      "source_block_id": 284,
      "dest_block_id": 216,
      "crane": 0,
      "start_time": 181.20000076293766,
      "end_time": 190.20000076293766,
      "source_cor": "(17,0,0)",
      "dest_cor": "(17,9,0)"
    },
    {
      "id": 136,
      "type": "input",
      "source_block_id": 312,
      "dest_block_id": 99,
      "crane": 0,
      "start_time": 631.200000762937,
      "end_time": 656.200000762937,
      "source_cor": "(0,5,0)",
      "dest_cor": "(25,4,0)"
    },
    {
      "id": 137,
      "type": "input",
      "source_block_id": 286,
      "dest_block_id": 51,
      "crane": 0,
      "start_time": 49.49999999999999,
      "end_time": 65.5,
      "source_cor": "(18,0,0)",
      "dest_cor": "(2,3,0)"
    },
    {
      "id": 138,
      "type": "input",
      "source_block_id": 310,
      "dest_block_id": 56,
      "crane": 0,
      "start_time": 573.200000762937,
      "end_time": 580.200000762937,
      "source_cor": "(0,4,0)",
      "dest_cor": "(7,3,0)"
    },
    {
      "id": 139,
      "type": "input",
      "source_block_id": 266,
      "dest_block_id": 54,
      "crane": 0,
      "start_time": 116.49999999999974,
      "end_time": 119.49999999999974,
      "source_cor": "(8,0,0)",
      "dest_cor": "(5,3,0)"
    },
    {
      "id": 140,
      "type": "input",
      "source_block_id": 307,
      "dest_block_id": 42,
      "crane": 1,
      "start_time": 56.200000762939446,
      "end_time": 64.20000076293945,
      "source_cor": "(26,2,0)",
      "dest_cor": "(18,2,0)"
    },
    {
      "id": 141,
      "type": "input",
      "source_block_id": 312,
      "dest_block_id": 80,
      "crane": 0,
      "start_time": 141.20000076293874,
      "end_time": 147.20000076293874,
      "source_cor": "(0,5,0)",
      "dest_cor": "(6,4,0)"
    },
    {
      "id": 142,
      "type": "input",
      "source_block_id": 261,
      "dest_block_id": 119,
      "crane": 0,
      "start_time": 154.20000076293874,
      "end_time": 169.20000076293874,
      "source_cor": "(5,11,0)",
      "dest_cor": "(20,5,0)"
    },
    {
      "id": 143,
      "type": "input",
      "source_block_id": 278,
      "dest_block_id": 248,
      "crane": 1,
      "start_time": 266.20000076293746,
      "end_time": 276.20000076293746,
      "source_cor": "(14,0,0)",
      "dest_cor": "(24,10,0)"
    },
    {
      "id": 144,
      "type": "input",
      "source_block_id": 266,
      "dest_block_id": 192,
      "crane": 0,
      "start_time": 490.20000076293695,
      "end_time": 500.20000076293695,
      "source_cor": "(8,0,0)",
      "dest_cor": "(18,8,0)"
    },
    {
      "id": 145,
      "type": "input",
      "source_block_id": 322,
      "dest_block_id": 238,
      "crane": 0,
      "start_time": 751.200000762937,
      "end_time": 765.200000762937,
      "source_cor": "(0,10,0)",
      "dest_cor": "(14,10,0)"
    },
    {
      "id": 146,
      "type": "input",
      "source_block_id": 256,
      "dest_block_id": 232,
      "crane": 1,
      "start_time": 751.200000762937,
      "end_time": 761.200000762937,
      "source_cor": "(3,0,0)",
      "dest_cor": "(8,10,0)"
    },
    {
      "id": 147,
      "type": "input",
      "source_block_id": 270,
      "dest_block_id": 229,
      "crane": 0,
      "start_time": 126.20000076293874,
      "end_time": 136.20000076293874,
      "source_cor": "(10,0,0)",
      "dest_cor": "(5,10,0)"
    },
    {
      "id": 148,
      "type": "input",
      "source_block_id": 266,
      "dest_block_id": 142,
      "crane": 0,
      "start_time": 775.200000762937,
      "end_time": 785.200000762937,
      "source_cor": "(8,0,0)",
      "dest_cor": "(18,6,0)"
    },
    {
      "id": 149,
      "type": "input",
      "source_block_id": 307,
      "dest_block_id": 22,
      "crane": 1,
      "start_time": 109.20000076293901,
      "end_time": 112.20000076293901,
      "source_cor": "(26,2,0)",
      "dest_cor": "(23,1,0)"
    },
    {
      "id": 150,
      "type": "input",
      "source_block_id": 292,
      "dest_block_id": 9,
      "crane": 1,
      "start_time": 219.20000076293746,
      "end_time": 230.20000076293746,
      "source_cor": "(21,0,0)",
      "dest_cor": "(10,1,0)"
    },
    {
      "id": 151,
      "type": "input",
      "source_block_id": 289,
      "dest_block_id": 33,
      "crane": 0,
      "start_time": 104.49999999999993,
      "end_time": 114.49999999999993,
      "source_cor": "(19,11,0)",
      "dest_cor": "(9,2,0)"
    },
    {
      "id": 152,
      "type": "input",
      "source_block_id": 299,
      "dest_block_id": 156,
      "crane": 0,
      "start_time": 866.200000762937,
      "end_time": 883.200000762937,
      "source_cor": "(24,11,0)",
      "dest_cor": "(7,7,0)"
    },
    {
      "id": 153,
      "type": "input",
      "source_block_id": 259,
      "dest_block_id": 0,
      "crane": 1,
      "start_time": 561.200000762937,
      "end_time": 571.200000762937,
      "source_cor": "(4,11,0)",
      "dest_cor": "(1,1,0)"
    },
    {
      "id": 154,
      "type": "input",
      "source_block_id": 259,
      "dest_block_id": 1,
      "crane": 0,
      "start_time": 369.20000076293695,
      "end_time": 379.20000076293695,
      "source_cor": "(4,11,0)",
      "dest_cor": "(2,1,0)"
    },
    {
      "id": 155,
      "type": "input",
      "source_block_id": 299,
      "dest_block_id": 62,
      "crane": 0,
      "start_time": 335.20000076293695,
      "end_time": 346.20000076293695,
      "source_cor": "(24,11,0)",
      "dest_cor": "(13,3,0)"
    },
    {
      "id": 156,
      "type": "input",
      "source_block_id": 299,
      "dest_block_id": 184,
      "crane": 1,
      "start_time": 181.20000076293766,
      "end_time": 195.20000076293766,
      "source_cor": "(24,11,0)",
      "dest_cor": "(10,8,0)"
    },
    {
      "id": 157,
      "type": "input",
      "source_block_id": 296,
      "dest_block_id": 57,
      "crane": 1,
      "start_time": 815.200000762937,
      "end_time": 830.200000762937,
      "source_cor": "(23,0,0)",
      "dest_cor": "(8,3,0)"
    },
    {
      "id": 158,
      "type": "input",
      "source_block_id": 312,
      "dest_block_id": 186,
      "crane": 0,
      "start_time": 303.20000076293695,
      "end_time": 315.20000076293695,
      "source_cor": "(0,5,0)",
      "dest_cor": "(12,8,0)"
    },
    {
      "id": 159,
      "type": "input",
      "source_block_id": 268,
      "dest_block_id": 175,
      "crane": 1,
      "start_time": 621.200000762937,
      "end_time": 629.200000762937,
      "source_cor": "(9,0,0)",
      "dest_cor": "(1,8,0)"
    },
    {
      "id": 160,
      "type": "input",
      "source_block_id": 308,
      "dest_block_id": 150,
      "crane": 0,
      "start_time": 297.20000076293695,
      "end_time": 301.20000076293695,
      "source_cor": "(0,3,0)",
      "dest_cor": "(1,7,0)"
    },
    {
      "id": 161,
      "type": "input",
      "source_block_id": 264,
      "dest_block_id": 71,
      "crane": 0,
      "start_time": 200.20000076293746,
      "end_time": 215.20000076293746,
      "source_cor": "(7,0,0)",
      "dest_cor": "(22,3,0)"
    },
    {
      "id": 162,
      "type": "input",
      "source_block_id": 280,
      "dest_block_id": 136,
      "crane": 1,
      "start_time": 697.200000762937,
      "end_time": 703.200000762937,
      "source_cor": "(15,0,0)",
      "dest_cor": "(12,6,0)"
    },
    {
      "id": 163,
      "type": "input",
      "source_block_id": 296,
      "dest_block_id": 189,
      "crane": 1,
      "start_time": 522.200000762937,
      "end_time": 530.200000762937,
      "source_cor": "(23,0,0)",
      "dest_cor": "(15,8,0)"
    },
    {
      "id": 164,
      "type": "input",
      "source_block_id": 307,
      "dest_block_id": 110,
      "crane": 1,
      "start_time": 475.20000076293695,
      "end_time": 490.20000076293695,
      "source_cor": "(26,2,0)",
      "dest_cor": "(11,5,0)"
    },
    {
      "id": 165,
      "type": "input",
      "source_block_id": 256,
      "dest_block_id": 247,
      "crane": 1,
      "start_time": 573.200000762937,
      "end_time": 593.200000762937,
      "source_cor": "(3,0,0)",
      "dest_cor": "(23,10,0)"
    },
    {
      "id": 166,
      "type": "input",
      "source_block_id": 323,
      "dest_block_id": 244,
      "crane": 1,
      "start_time": 148.20000076293874,
      "end_time": 154.20000076293874,
      "source_cor": "(26,10,0)",
      "dest_cor": "(20,10,0)"
    },
    {
      "id": 167,
      "type": "input",
      "source_block_id": 299,
      "dest_block_id": 13,
      "crane": 0,
      "start_time": 718.200000762937,
      "end_time": 728.200000762937,
      "source_cor": "(24,11,0)",
      "dest_cor": "(14,1,0)"
    },
    {
      "id": 168,
      "type": "input",
      "source_block_id": 292,
      "dest_block_id": 139,
      "crane": 1,
      "start_time": 500.20000076293695,
      "end_time": 506.20000076293695,
      "source_cor": "(21,0,0)",
      "dest_cor": "(15,6,0)"
    },
    {
      "id": 169,
      "type": "input",
      "source_block_id": 284,
      "dest_block_id": 208,
      "crane": 0,
      "start_time": 274.20000076293695,
      "end_time": 283.20000076293695,
      "source_cor": "(17,0,0)",
      "dest_cor": "(9,9,0)"
    },
    {
      "id": 170,
      "type": "input",
      "source_block_id": 259,
      "dest_block_id": 198,
      "crane": 0,
      "start_time": 446.20000076293695,
      "end_time": 466.20000076293695,
      "source_cor": "(4,11,0)",
      "dest_cor": "(24,8,0)"
    },
    {
      "id": 171,
      "type": "input",
      "source_block_id": 312,
      "dest_block_id": 147,
      "crane": 1,
      "start_time": 362.20000076293695,
      "end_time": 385.20000076293695,
      "source_cor": "(0,5,0)",
      "dest_cor": "(23,6,0)"
    },
    {
      "id": 172,
      "type": "input",
      "source_block_id": 307,
      "dest_block_id": 47,
      "crane": 1,
      "start_time": 517.200000762937,
      "end_time": 520.200000762937,
      "source_cor": "(26,2,0)",
      "dest_cor": "(23,2,0)"
    },
    {
      "id": 173,
      "type": "input",
      "source_block_id": 257,
      "dest_block_id": 75,
      "crane": 0,
      "start_time": 289.20000076293695,
      "end_time": 296.20000076293695,
      "source_cor": "(3,11,0)",
      "dest_cor": "(1,4,0)"
    },
    {
      "id": 174,
      "type": "input",
      "source_block_id": 289,
      "dest_block_id": 88,
      "crane": 1,
      "start_time": 435.20000076293695,
      "end_time": 442.20000076293695,
      "source_cor": "(19,11,0)",
      "dest_cor": "(14,4,0)"
    },
    {
      "id": 175,
      "type": "input",
      "source_block_id": 257,
      "dest_block_id": 16,
      "crane": 0,
      "start_time": 588.200000762937,
      "end_time": 602.200000762937,
      "source_cor": "(3,11,0)",
      "dest_cor": "(17,1,0)"
    },
    {
      "id": 176,
      "type": "input",
      "source_block_id": 284,
      "dest_block_id": 92,
      "crane": 1,
      "start_time": 446.20000076293695,
      "end_time": 450.20000076293695,
      "source_cor": "(17,0,0)",
      "dest_cor": "(18,4,0)"
    },
    {
      "id": 177,
      "type": "input",
      "source_block_id": 307,
      "dest_block_id": 73,
      "crane": 0,
      "start_time": 472.20000076293695,
      "end_time": 474.20000076293695,
      "source_cor": "(26,2,0)",
      "dest_cor": "(24,3,0)"
    },
    {
      "id": 178,
      "type": "input",
      "source_block_id": 270,
      "dest_block_id": 234,
      "crane": 1,
      "start_time": 416.20000076293695,
      "end_time": 426.20000076293695,
      "source_cor": "(10,0,0)",
      "dest_cor": "(10,10,0)"
    },
    {
      "id": 179,
      "type": "input",
      "source_block_id": 292,
      "dest_block_id": 102,
      "crane": 1,
      "start_time": 391.20000076293695,
      "end_time": 409.20000076293695,
      "source_cor": "(21,0,0)",
      "dest_cor": "(3,5,0)"
    },
    {
      "id": 180,
      "type": "input",
      "source_block_id": 286,
      "dest_block_id": 149,
      "crane": 0,
      "start_time": 323.20000076293695,
      "end_time": 330.20000076293695,
      "source_cor": "(18,0,0)",
      "dest_cor": "(25,6,0)"
    },
    {
      "id": 181,
      "type": "input",
      "source_block_id": 286,
      "dest_block_id": 182,
      "crane": 1,
      "start_time": 344.20000076293695,
      "end_time": 354.20000076293695,
      "source_cor": "(18,0,0)",
      "dest_cor": "(8,8,0)"
    },
    {
      "id": 182,
      "type": "input",
      "source_block_id": 289,
      "dest_block_id": 59,
      "crane": 0,
      "start_time": 258.20000076293746,
      "end_time": 267.20000076293746,
      "source_cor": "(19,11,0)",
      "dest_cor": "(10,3,0)"
    }
  ]
}