{
    "objective": "49.258017785890395",
    "BAP cost": "0",
    "CSP cost": "98.51603557178079",
    "products": [
        {
            "id": "900",
            "type": "input",
            "source_block_id": "3046",
            "destination_block_id": "69",
            "crane": "1",
            "start_time": "1.5",
            "end_time": "2.5"
        },
        {
            "id": "901",
            "type": "input",
            "source_block_id": "3005",
            "destination_block_id": "1531",
            "crane": "0",
            "start_time": "90.699999809265137",
            "end_time": "100.69999980926514"
        },
        {
            "id": "902",
            "type": "input",
            "source_block_id": "3050",
            "destination_block_id": "84",
            "crane": "1",
            "start_time": "6.0999999046325684",
            "end_time": "10.099999904632568"
        },
        {
            "id": "903",
            "type": "input",
            "source_block_id": "3110",
            "destination_block_id": "300",
            "crane": "0",
            "start_time": "9.6999998092651367",
            "end_time": "10.699999809265137"
        },
        {
            "id": "904",
            "type": "input",
            "source_block_id": "3136",
            "destination_block_id": "762",
            "crane": "0",
            "start_time": "64.699999809265137",
            "end_time": "75.699999809265137"
        },
        {
            "id": "905",
            "type": "input",
            "source_block_id": "3020",
            "destination_block_id": "342",
            "crane": "0",
            "start_time": "19.699999809265137",
            "end_time": "24.699999809265137"
        },
        {
            "id": "906",
            "type": "input",
            "source_block_id": "3066",
            "destination_block_id": "828",
            "crane": "1",
            "start_time": "18.399999618530273",
            "end_time": "24.399999618530273"
        },
        {
            "id": "849",
            "type": "output",
            "source_block_id": "2679",
            "destination_block_id": "3061",
            "crane": "1",
            "start_time": "68.399999618530273",
            "end_time": "82.399999618530273"
        },
        {
            "id": "907",
            "type": "input",
            "source_block_id": "3134",
            "destination_block_id": "453",
            "crane": "0",
            "start_time": "39.699999809265137",
            "end_time": "51.699999809265137"
        },
        {
            "id": "908",
            "type": "input",
            "source_block_id": "3090",
            "destination_block_id": "2043",
            "crane": "1",
            "start_time": "42.399999618530273",
            "end_time": "56.399999618530273"
        }
    ]
}
