{
    "objective": "39.912237077371763",
    "BAP cost": "0",
    "CSP cost": "79.824474154743527",
    "products": [
        {
            "id": "300",
            "type": "input",
            "source_block_id": "1141",
            "destination_block_id": "899",
            "crane": "1",
            "start_time": "34.5",
            "end_time": "35.5"
        },
        {
            "id": "301",
            "type": "input",
            "source_block_id": "1138",
            "destination_block_id": "851",
            "crane": "0",
            "start_time": "162.69999980926514",
            "end_time": "164.69999980926514"
        },
        {
            "id": "302",
            "type": "input",
            "source_block_id": "1094",
            "destination_block_id": "94",
            "crane": "1",
            "start_time": "6.0999999046325684",
            "end_time": "8.0999999046325684"
        },
        {
            "id": "303",
            "type": "input",
            "source_block_id": "1050",
            "destination_block_id": "19",
            "crane": "0",
            "start_time": "9.6999998092651367",
            "end_time": "14.699999809265137"
        },
        {
            "id": "304",
            "type": "input",
            "source_block_id": "1012",
            "destination_block_id": "108",
            "crane": "0",
            "start_time": "144.69999980926514",
            "end_time": "147.69999980926514"
        },
        {
            "id": "305",
            "type": "input",
            "source_block_id": "1030",
            "destination_block_id": "13",
            "crane": "0",
            "start_time": "19.699999809265137",
            "end_time": "20.699999809265137"
        },
        {
            "id": "306",
            "type": "input",
            "source_block_id": "1114",
            "destination_block_id": "250",
            "crane": "0",
            "start_time": "34.699999809265137",
            "end_time": "35.699999809265137"
        },
        {
            "id": "141",
            "type": "output",
            "source_block_id": "507",
            "destination_block_id": "1109",
            "crane": "0",
            "start_time": "56.699999809265137",
            "end_time": "99.699999809265137"
        },
        {
            "id": "307",
            "type": "input",
            "source_block_id": "1125",
            "destination_block_id": "499",
            "crane": "1",
            "start_time": "24.5",
            "end_time": "25.5"
        },
        {
            "id": "308",
            "type": "input",
            "source_block_id": "1134",
            "destination_block_id": "902",
            "crane": "0",
            "start_time": "45.699999809265137",
            "end_time": "48.699999809265137"
        }
    ]
}
