{
    "objective": "190.87604051062053",
    "BAP cost": "9",
    "CSP cost": "372.75208102124111",
    "products": [
        {
            "id": "787",
            "type": "input",
            "source_block_id": "2719",
            "destination_block_id": "1131",
            "crane": "0",
            "start_time": "6.0999999046325684",
            "end_time": "23.099999904632568"
        },
        {
            "id": "788",
            "type": "input",
            "source_block_id": "2723",
            "destination_block_id": "116",
            "crane": "1",
            "start_time": "3.0999999046325684",
            "end_time": "27.099999904632568"
        },
        {
            "id": "789",
            "type": "input",
            "source_block_id": "2727",
            "destination_block_id": "1518",
            "crane": "0",
            "start_time": "94.099999904632568",
            "end_time": "118.09999990463257"
        },
        {
            "id": "790",
            "type": "input",
            "source_block_id": "2637",
            "destination_block_id": "237",
            "crane": "0",
            "start_time": "39.099999904632568",
            "end_time": "46.099999904632568"
        },
        {
            "id": "791",
            "type": "input",
            "source_block_id": "2720",
            "destination_block_id": "2079",
            "crane": "1",
            "start_time": "39.099999904632568",
            "end_time": "44.099999904632568"
        },
        {
            "id": "792",
            "type": "input",
            "source_block_id": "2728",
            "destination_block_id": "1122",
            "crane": "1",
            "start_time": "63.099999904632568",
            "end_time": "84.099999904632568"
        },
        {
            "id": "793",
            "type": "input",
            "source_block_id": "2728",
            "destination_block_id": "1893",
            "crane": "1",
            "start_time": "49.099999904632568",
            "end_time": "56.099999904632568"
        },
        {
            "id": "499",
            "type": "output",
            "source_block_id": "1945",
            "destination_block_id": "2673",
            "crane": "1",
            "start_time": "94.099999904632568",
            "end_time": "113.09999990463257"
        },
        {
            "id": "794",
            "type": "input",
            "source_block_id": "2655",
            "destination_block_id": "217",
            "crane": "0",
            "start_time": "30.099999904632568",
            "end_time": "36.099999904632568"
        },
        {
            "id": "795",
            "type": "input",
            "source_block_id": "2639",
            "destination_block_id": "2206",
            "crane": "0",
            "start_time": "52.099999904632568",
            "end_time": "67.099999904632568"
        }
    ]
}
