{
    "objective": "222.63265210101446",
    "BAP cost": "25",
    "CSP cost": "420.26530420202891",
    "products": [
        {
            "id": "1255",
            "type": "yard_movement",
            "source_block_id": "2534",
            "destination_block_id": "1624",
            "crane": "0",
            "start_time": "39.099999904632568",
            "end_time": "46.099999904632568"
        },
        {
            "id": "1312",
            "type": "input",
            "source_block_id": "2683",
            "destination_block_id": "2079",
            "crane": "1",
            "start_time": "1.5",
            "end_time": "13.5"
        },
        {
            "id": "1313",
            "type": "input",
            "source_block_id": "2714",
            "destination_block_id": "1124",
            "crane": "1",
            "start_time": "121.09999990463257",
            "end_time": "142.09999990463257"
        },
        {
            "id": "1314",
            "type": "input",
            "source_block_id": "2713",
            "destination_block_id": "1638",
            "crane": "0",
            "start_time": "6.0999999046325684",
            "end_time": "19.099999904632568"
        },
        {
            "id": "1315",
            "type": "input",
            "source_block_id": "2714",
            "destination_block_id": "2248",
            "crane": "1",
            "start_time": "18.5",
            "end_time": "24.5"
        },
        {
            "id": "1316",
            "type": "input",
            "source_block_id": "2675",
            "destination_block_id": "2036",
            "crane": "1",
            "start_time": "72.099999904632568",
            "end_time": "84.099999904632568"
        },
        {
            "id": "1317",
            "type": "input",
            "source_block_id": "2662",
            "destination_block_id": "237",
            "crane": "1",
            "start_time": "41.099999904632568",
            "end_time": "55.099999904632568"
        },
        {
            "id": "1318",
            "type": "input",
            "source_block_id": "2658",
            "destination_block_id": "1448",
            "crane": "0",
            "start_time": "25.099999904632568",
            "end_time": "32.099999904632568"
        },
        {
            "id": "1319",
            "type": "input",
            "source_block_id": "2632",
            "destination_block_id": "1858",
            "crane": "0",
            "start_time": "53.099999904632568",
            "end_time": "72.099999904632568"
        },
        {
            "id": "1320",
            "type": "input",
            "source_block_id": "2660",
            "destination_block_id": "2479",
            "crane": "0",
            "start_time": "77.099999904632568",
            "end_time": "88.099999904632568"
        },
        {
            "id": "1151",
            "type": "yard_movement",
            "source_block_id": "2533",
            "destination_block_id": "1122",
            "crane": "1",
            "start_time": "90.099999904632568",
            "end_time": "98.099999904632568"
        },
        {
            "id": "105",
            "type": "yard_movement",
            "source_block_id": "2532",
            "destination_block_id": "1123",
            "crane": "0",
            "start_time": "103.09999990463257",
            "end_time": "111.09999990463257"
        },
        {
            "id": "94",
            "type": "output",
            "source_block_id": "2531",
            "destination_block_id": "2665",
            "crane": "0",
            "start_time": "119.09999990463257",
            "end_time": "134.09999990463257"
        }
    ]
}
