{
    "objective": "121.88746343120471",
    "BAP cost": "13",
    "CSP cost": "230.77492686240942",
    "products": [
        {
            "id": "225",
            "type": "input",
            "source_block_id": "786",
            "destination_block_id": "283",
            "crane": "1",
            "start_time": "1.5",
            "end_time": "5.5"
        },
        {
            "id": "226",
            "type": "input",
            "source_block_id": "807",
            "destination_block_id": "730",
            "crane": "1",
            "start_time": "11.5",
            "end_time": "19.5"
        },
        {
            "id": "227",
            "type": "input",
            "source_block_id": "808",
            "destination_block_id": "541",
            "crane": "0",
            "start_time": "6.0999999046325684",
            "end_time": "12.099999904632568"
        },
        {
            "id": "228",
            "type": "input",
            "source_block_id": "755",
            "destination_block_id": "479",
            "crane": "0",
            "start_time": "16.099999904632568",
            "end_time": "24.099999904632568"
        },
        {
            "id": "229",
            "type": "input",
            "source_block_id": "770",
            "destination_block_id": "262",
            "crane": "0",
            "start_time": "31.099999904632568",
            "end_time": "35.099999904632568"
        },
        {
            "id": "230",
            "type": "input",
            "source_block_id": "786",
            "destination_block_id": "499",
            "crane": "1",
            "start_time": "29.5",
            "end_time": "36.5"
        },
        {
            "id": "231",
            "type": "input",
            "source_block_id": "792",
            "destination_block_id": "304",
            "crane": "0",
            "start_time": "43.5",
            "end_time": "62.5"
        },
        {
            "id": "85",
            "type": "output",
            "source_block_id": "588",
            "destination_block_id": "814",
            "crane": "1",
            "start_time": "65.5",
            "end_time": "87.5"
        },
        {
            "id": "232",
            "type": "input",
            "source_block_id": "816",
            "destination_block_id": "1",
            "crane": "0",
            "start_time": "64.5",
            "end_time": "70.5"
        },
        {
            "id": "233",
            "type": "input",
            "source_block_id": "800",
            "destination_block_id": "186",
            "crane": "1",
            "start_time": "44.5",
            "end_time": "56.5"
        }
    ]
}
