{
    "objective": "153.8788139994881",
    "BAP cost": "0",
    "CSP cost": "307.7576279989762",
    "products": [
        {
            "id": "900",
            "type": "input",
            "source_block_id": "3046",
            "destination_block_id": "69",
            "crane": "1",
            "start_time": "1.5",
            "end_time": "2.5"
        },
        {
            "id": "901",
            "type": "input",
            "source_block_id": "3005",
            "destination_block_id": "1531",
            "crane": "0",
            "start_time": "141.69999980926514",
            "end_time": "151.69999980926514"
        },
        {
            "id": "902",
            "type": "input",
            "source_block_id": "3050",
            "destination_block_id": "84",
            "crane": "1",
            "start_time": "6.0999999046325684",
            "end_time": "10.099999904632568"
        },
        {
            "id": "903",
            "type": "input",
            "source_block_id": "3110",
            "destination_block_id": "300",
            "crane": "0",
            "start_time": "9.6999998092651367",
            "end_time": "10.699999809265137"
        },
        {
            "id": "904",
            "type": "input",
            "source_block_id": "3136",
            "destination_block_id": "762",
            "crane": "0",
            "start_time": "293.69999980926514",
            "end_time": "304.69999980926514"
        },
        {
            "id": "905",
            "type": "input",
            "source_block_id": "3020",
            "destination_block_id": "342",
            "crane": "0",
            "start_time": "19.699999809265137",
            "end_time": "24.699999809265137"
        },
        {
            "id": "906",
            "type": "input",
            "source_block_id": "3066",
            "destination_block_id": "828",
            "crane": "1",
            "start_time": "18.399999618530273",
            "end_time": "24.399999618530273"
        },
        {
            "id": "849",
            "type": "output",
            "source_block_id": "2679",
            "destination_block_id": "3061",
            "crane": "1",
            "start_time": "118.29999923706055",
            "end_time": "132.29999923706055"
        },
        {
            "id": "907",
            "type": "input",
            "source_block_id": "3134",
            "destination_block_id": "453",
            "crane": "0",
            "start_time": "39.699999809265137",
            "end_time": "51.699999809265137"
        },
        {
            "id": "908",
            "type": "input",
            "source_block_id": "3090",
            "destination_block_id": "2043",
            "crane": "1",
            "start_time": "61.299999237060547",
            "end_time": "75.299999237060547"
        },
        {
            "id": "909",
            "type": "input",
            "source_block_id": "3042",
            "destination_block_id": "1270",
            "crane": "0",
            "start_time": "320.69999980926514",
            "end_time": "329.69999980926514"
        },
        {
            "id": "910",
            "type": "input",
            "source_block_id": "3042",
            "destination_block_id": "2051",
            "crane": "1",
            "start_time": "33.299999237060547",
            "end_time": "47.299999237060547"
        },
        {
            "id": "911",
            "type": "input",
            "source_block_id": "3074",
            "destination_block_id": "2187",
            "crane": "1",
            "start_time": "89.299999237060547",
            "end_time": "104.29999923706055"
        },
        {
            "id": "912",
            "type": "input",
            "source_block_id": "3133",
            "destination_block_id": "2649",
            "crane": "0",
            "start_time": "198.69999980926514",
            "end_time": "215.69999980926514"
        },
        {
            "id": "913",
            "type": "input",
            "source_block_id": "3033",
            "destination_block_id": "2151",
            "crane": "0",
            "start_time": "83.699999809265137",
            "end_time": "89.699999809265137"
        },
        {
            "id": "914",
            "type": "input",
            "source_block_id": "3029",
            "destination_block_id": "2633",
            "crane": "0",
            "start_time": "161.69999980926514",
            "end_time": "175.69999980926514"
        },
        {
            "id": "915",
            "type": "input",
            "source_block_id": "3012",
            "destination_block_id": "159",
            "crane": "0",
            "start_time": "55.699999809265137",
            "end_time": "57.699999809265137"
        },
        {
            "id": "916",
            "type": "input",
            "source_block_id": "3132",
            "destination_block_id": "0",
            "crane": "0",
            "start_time": "107.69999980926514",
            "end_time": "121.69999980926514"
        },
        {
            "id": "137",
            "type": "output",
            "source_block_id": "2106",
            "destination_block_id": "3023",
            "crane": "0",
            "start_time": "70.699999809265137",
            "end_time": "78.699999809265137"
        },
        {
            "id": "917",
            "type": "input",
            "source_block_id": "3094",
            "destination_block_id": "6",
            "crane": "0",
            "start_time": "233.69999980926514",
            "end_time": "277.69999980926514"
        }
    ]
}
