{
    "objective": "753.21500946668516",
    "BAP cost": "65",
    "CSP cost": "1441.4300189333703",
    "products": [
        {
            "id": "1976",
            "type": "yard_movement",
            "source_block_id": "1824",
            "destination_block_id": "3343",
            "crane": "0",
            "start_time": "0",
            "end_time": "6"
        },
        {
            "id": "2500",
            "type": "input",
            "source_block_id": "5016",
            "destination_block_id": "158",
            "crane": "0",
            "start_time": "82",
            "end_time": "106"
        },
        {
            "id": "2501",
            "type": "input",
            "source_block_id": "5094",
            "destination_block_id": "157",
            "crane": "1",
            "start_time": "51.699999809265137",
            "end_time": "66.699999809265137"
        },
        {
            "id": "2502",
            "type": "input",
            "source_block_id": "5014",
            "destination_block_id": "314",
            "crane": "0",
            "start_time": "20",
            "end_time": "26"
        },
        {
            "id": "2503",
            "type": "input",
            "source_block_id": "5046",
            "destination_block_id": "4728",
            "crane": "1",
            "start_time": "9.6999998092651367",
            "end_time": "32.699999809265137"
        },
        {
            "id": "2504",
            "type": "input",
            "source_block_id": "5016",
            "destination_block_id": "4544",
            "crane": "0",
            "start_time": "372",
            "end_time": "391"
        },
        {
            "id": "2505",
            "type": "input",
            "source_block_id": "5143",
            "destination_block_id": "2523",
            "crane": "1",
            "start_time": "244",
            "end_time": "290"
        },
        {
            "id": "2506",
            "type": "input",
            "source_block_id": "5132",
            "destination_block_id": "3998",
            "crane": "1",
            "start_time": "295",
            "end_time": "345"
        },
        {
            "id": "2227",
            "type": "output",
            "source_block_id": "4786",
            "destination_block_id": "5065",
            "crane": "0",
            "start_time": "233",
            "end_time": "257"
        },
        {
            "id": "2507",
            "type": "input",
            "source_block_id": "5139",
            "destination_block_id": "159",
            "crane": "1",
            "start_time": "139",
            "end_time": "158"
        },
        {
            "id": "2508",
            "type": "input",
            "source_block_id": "5034",
            "destination_block_id": "843",
            "crane": "1",
            "start_time": "186",
            "end_time": "190"
        },
        {
            "id": "2509",
            "type": "input",
            "source_block_id": "5062",
            "destination_block_id": "557",
            "crane": "1",
            "start_time": "162",
            "end_time": "181"
        },
        {
            "id": "2510",
            "type": "input",
            "source_block_id": "5066",
            "destination_block_id": "1043",
            "crane": "0",
            "start_time": "109",
            "end_time": "133"
        },
        {
            "id": "2511",
            "type": "input",
            "source_block_id": "5140",
            "destination_block_id": "4028",
            "crane": "0",
            "start_time": "43",
            "end_time": "49"
        },
        {
            "id": "2512",
            "type": "input",
            "source_block_id": "5030",
            "destination_block_id": "4958",
            "crane": "1",
            "start_time": "208",
            "end_time": "235"
        },
        {
            "id": "2513",
            "type": "input",
            "source_block_id": "5060",
            "destination_block_id": "143",
            "crane": "1",
            "start_time": "68.699999809265137",
            "end_time": "71.699999809265137"
        },
        {
            "id": "2514",
            "type": "input",
            "source_block_id": "5138",
            "destination_block_id": "1289",
            "crane": "0",
            "start_time": "186",
            "end_time": "198"
        },
        {
            "id": "2515",
            "type": "input",
            "source_block_id": "5037",
            "destination_block_id": "808",
            "crane": "0",
            "start_time": "61",
            "end_time": "78"
        },
        {
            "id": "2516",
            "type": "input",
            "source_block_id": "5095",
            "destination_block_id": "3223",
            "crane": "1",
            "start_time": "91.699999809265137",
            "end_time": "99.699999809265137"
        },
        {
            "id": "2517",
            "type": "input",
            "source_block_id": "5066",
            "destination_block_id": "3839",
            "crane": "1",
            "start_time": "362",
            "end_time": "378"
        },
        {
            "id": "1972",
            "type": "yard_movement",
            "source_block_id": "1823",
            "destination_block_id": "2403",
            "crane": "0",
            "start_time": "139",
            "end_time": "155"
        },
        {
            "id": "1946",
            "type": "yard_movement",
            "source_block_id": "1822",
            "destination_block_id": "954",
            "crane": "0",
            "start_time": "313",
            "end_time": "339"
        },
        {
            "id": "1403",
            "type": "yard_movement",
            "source_block_id": "1821",
            "destination_block_id": "333",
            "crane": "1",
            "start_time": "194",
            "end_time": "200"
        },
        {
            "id": "44",
            "type": "output",
            "source_block_id": "1820",
            "destination_block_id": "5024",
            "crane": "0",
            "start_time": "205",
            "end_time": "213"
        }
    ]
}
