{
    "objective": "794.94684073051576",
    "BAP cost": "244",
    "CSP cost": "1345.8936814610313",
    "products": [
        {
            "id": "367",
            "type": "input",
            "source_block_id": "530",
            "destination_block_id": "497",
            "crane": "0",
            "start_time": "60.099999904632568",
            "end_time": "66.099999904632568"
        },
        {
            "id": "368",
            "type": "input",
            "source_block_id": "614",
            "destination_block_id": "180",
            "crane": "0",
            "start_time": "3.0999999046325684",
            "end_time": "33.099999904632568"
        },
        {
            "id": "369",
            "type": "input",
            "source_block_id": "600",
            "destination_block_id": "361",
            "crane": "1",
            "start_time": "6.0999999046325684",
            "end_time": "30.099999904632568"
        },
        {
            "id": "370",
            "type": "input",
            "source_block_id": "628",
            "destination_block_id": "200",
            "crane": "1",
            "start_time": "123.09999990463257",
            "end_time": "133.09999990463257"
        },
        {
            "id": "371",
            "type": "input",
            "source_block_id": "571",
            "destination_block_id": "194",
            "crane": "1",
            "start_time": "54.099999904632568",
            "end_time": "60.099999904632568"
        },
        {
            "id": "372",
            "type": "input",
            "source_block_id": "555",
            "destination_block_id": "327",
            "crane": "1",
            "start_time": "66.099999904632568",
            "end_time": "76.099999904632568"
        },
        {
            "id": "373",
            "type": "input",
            "source_block_id": "570",
            "destination_block_id": "304",
            "crane": "1",
            "start_time": "88.099999904632568",
            "end_time": "95.099999904632568"
        },
        {
            "id": "186",
            "type": "output",
            "source_block_id": "0",
            "destination_block_id": "608",
            "crane": "0",
            "start_time": "204.09999990463257",
            "end_time": "239.09999990463257"
        },
        {
            "id": "374",
            "type": "input",
            "source_block_id": "553",
            "destination_block_id": "127",
            "crane": "1",
            "start_time": "41.099999904632568",
            "end_time": "50.099999904632568"
        },
        {
            "id": "375",
            "type": "input",
            "source_block_id": "541",
            "destination_block_id": "228",
            "crane": "0",
            "start_time": "104.09999990463257",
            "end_time": "115.09999990463257"
        },
        {
            "id": "376",
            "type": "input",
            "source_block_id": "537",
            "destination_block_id": "291",
            "crane": "0",
            "start_time": "41.099999904632568",
            "end_time": "50.099999904632568"
        },
        {
            "id": "377",
            "type": "input",
            "source_block_id": "600",
            "destination_block_id": "438",
            "crane": "1",
            "start_time": "143.09999990463257",
            "end_time": "160.09999990463257"
        },
        {
            "id": "378",
            "type": "input",
            "source_block_id": "536",
            "destination_block_id": "511",
            "crane": "0",
            "start_time": "166.09999990463257",
            "end_time": "183.09999990463257"
        },
        {
            "id": "379",
            "type": "input",
            "source_block_id": "543",
            "destination_block_id": "399",
            "crane": "0",
            "start_time": "144.09999990463257",
            "end_time": "156.09999990463257"
        },
        {
            "id": "380",
            "type": "input",
            "source_block_id": "619",
            "destination_block_id": "225",
            "crane": "0",
            "start_time": "80.099999904632568",
            "end_time": "96.099999904632568"
        },
        {
            "id": "381",
            "type": "input",
            "source_block_id": "575",
            "destination_block_id": "521",
            "crane": "1",
            "start_time": "104.09999990463257",
            "end_time": "119.09999990463257"
        },
        {
            "id": "382",
            "type": "input",
            "source_block_id": "619",
            "destination_block_id": "456",
            "crane": "0",
            "start_time": "74.099999904632568",
            "end_time": "77.099999904632568"
        },
        {
            "id": "383",
            "type": "input",
            "source_block_id": "559",
            "destination_block_id": "363",
            "crane": "0",
            "start_time": "122.09999990463257",
            "end_time": "133.09999990463257"
        },
        {
            "id": "80",
            "type": "output",
            "source_block_id": "432",
            "destination_block_id": "566",
            "crane": "1",
            "start_time": "79.099999904632568",
            "end_time": "86.099999904632568"
        },
        {
            "id": "384",
            "type": "input",
            "source_block_id": "591",
            "destination_block_id": "398",
            "crane": "1",
            "start_time": "175.09999990463257",
            "end_time": "194.09999990463257"
        }
    ]
}
