{
    "objective": "121.97484939785119",
    "BAP cost": "0",
    "CSP cost": "243.94969879570237",
    "products": [
        {
            "id": "157",
            "type": "input",
            "source_block_id": "582",
            "destination_block_id": "518",
            "crane": "1",
            "start_time": "1.5",
            "end_time": "2.5"
        },
        {
            "id": "158",
            "type": "input",
            "source_block_id": "628",
            "destination_block_id": "349",
            "crane": "1",
            "start_time": "9.5",
            "end_time": "14.5"
        },
        {
            "id": "159",
            "type": "input",
            "source_block_id": "564",
            "destination_block_id": "472",
            "crane": "0",
            "start_time": "6.0999999046325684",
            "end_time": "8.0999999046325684"
        },
        {
            "id": "160",
            "type": "input",
            "source_block_id": "554",
            "destination_block_id": "502",
            "crane": "0",
            "start_time": "12.099999904632568",
            "end_time": "13.099999904632568"
        },
        {
            "id": "161",
            "type": "input",
            "source_block_id": "583",
            "destination_block_id": "63",
            "crane": "1",
            "start_time": "28.5",
            "end_time": "30.5"
        },
        {
            "id": "162",
            "type": "input",
            "source_block_id": "622",
            "destination_block_id": "313",
            "crane": "1",
            "start_time": "16.5",
            "end_time": "19.5"
        },
        {
            "id": "163",
            "type": "input",
            "source_block_id": "536",
            "destination_block_id": "497",
            "crane": "0",
            "start_time": "21.099999904632568",
            "end_time": "24.099999904632568"
        },
        {
            "id": "10",
            "type": "output",
            "source_block_id": "248",
            "destination_block_id": "577",
            "crane": "0",
            "start_time": "104.09999990463257",
            "end_time": "126.09999990463257"
        },
        {
            "id": "164",
            "type": "input",
            "source_block_id": "536",
            "destination_block_id": "390",
            "crane": "0",
            "start_time": "27.099999904632568",
            "end_time": "31.099999904632568"
        },
        {
            "id": "165",
            "type": "input",
            "source_block_id": "583",
            "destination_block_id": "66",
            "crane": "1",
            "start_time": "32.5",
            "end_time": "35.5"
        },
        {
            "id": "166",
            "type": "input",
            "source_block_id": "530",
            "destination_block_id": "351",
            "crane": "0",
            "start_time": "35.099999904632568",
            "end_time": "40.099999904632568"
        },
        {
            "id": "167",
            "type": "input",
            "source_block_id": "603",
            "destination_block_id": "107",
            "crane": "0",
            "start_time": "48.099999904632568",
            "end_time": "51.099999904632568"
        },
        {
            "id": "168",
            "type": "input",
            "source_block_id": "597",
            "destination_block_id": "99",
            "crane": "1",
            "start_time": "39.5",
            "end_time": "45.5"
        },
        {
            "id": "169",
            "type": "input",
            "source_block_id": "591",
            "destination_block_id": "201",
            "crane": "1",
            "start_time": "48.5",
            "end_time": "54.5"
        },
        {
            "id": "170",
            "type": "input",
            "source_block_id": "554",
            "destination_block_id": "466",
            "crane": "0",
            "start_time": "63.099999904632568",
            "end_time": "65.099999904632568"
        },
        {
            "id": "171",
            "type": "input",
            "source_block_id": "587",
            "destination_block_id": "95",
            "crane": "1",
            "start_time": "60.5",
            "end_time": "65.5"
        },
        {
            "id": "172",
            "type": "input",
            "source_block_id": "582",
            "destination_block_id": "480",
            "crane": "1",
            "start_time": "91.5",
            "end_time": "93.5"
        },
        {
            "id": "173",
            "type": "input",
            "source_block_id": "597",
            "destination_block_id": "244",
            "crane": "1",
            "start_time": "75.5",
            "end_time": "82.5"
        },
        {
            "id": "135",
            "type": "output",
            "source_block_id": "54",
            "destination_block_id": "535",
            "crane": "0",
            "start_time": "81.099999904632568",
            "end_time": "96.099999904632568"
        },
        {
            "id": "174",
            "type": "input",
            "source_block_id": "567",
            "destination_block_id": "54",
            "crane": "0",
            "start_time": "79.099999904632568",
            "end_time": "81.099999904632568"
        }
    ]
}
