{
    "objective": "272.34870402823822",
    "BAP cost": "4",
    "CSP cost": "540.69740805647643",
    "products": [
        {
            "id": "125",
            "type": "input",
            "source_block_id": "256",
            "destination_block_id": "1",
            "crane": "0",
            "start_time": "1.5",
            "end_time": "2.5"
        },
        {
            "id": "126",
            "type": "input",
            "source_block_id": "323",
            "destination_block_id": "248",
            "crane": "1",
            "start_time": "3.0999999046325684",
            "end_time": "5.0999999046325684"
        },
        {
            "id": "127",
            "type": "input",
            "source_block_id": "285",
            "destination_block_id": "238",
            "crane": "0",
            "start_time": "17.5",
            "end_time": "20.5"
        },
        {
            "id": "128",
            "type": "input",
            "source_block_id": "299",
            "destination_block_id": "90",
            "crane": "1",
            "start_time": "67.5",
            "end_time": "75.5"
        },
        {
            "id": "129",
            "type": "input",
            "source_block_id": "255",
            "destination_block_id": "175",
            "crane": "0",
            "start_time": "67.5",
            "end_time": "70.5"
        },
        {
            "id": "130",
            "type": "input",
            "source_block_id": "264",
            "destination_block_id": "8",
            "crane": "0",
            "start_time": "37.5",
            "end_time": "39.5"
        },
        {
            "id": "131",
            "type": "input",
            "source_block_id": "307",
            "destination_block_id": "42",
            "crane": "1",
            "start_time": "18.399999618530273",
            "end_time": "26.399999618530273"
        },
        {
            "id": "73",
            "type": "output",
            "source_block_id": "187",
            "destination_block_id": "260",
            "crane": "0",
            "start_time": "22.5",
            "end_time": "30.5"
        },
        {
            "id": "132",
            "type": "input",
            "source_block_id": "258",
            "destination_block_id": "54",
            "crane": "0",
            "start_time": "31.5",
            "end_time": "34.5"
        },
        {
            "id": "133",
            "type": "input",
            "source_block_id": "292",
            "destination_block_id": "62",
            "crane": "1",
            "start_time": "29.399999618530273",
            "end_time": "37.399999618530273"
        },
        {
            "id": "134",
            "type": "input",
            "source_block_id": "278",
            "destination_block_id": "59",
            "crane": "0",
            "start_time": "44.5",
            "end_time": "48.5"
        },
        {
            "id": "135",
            "type": "input",
            "source_block_id": "284",
            "destination_block_id": "184",
            "crane": "1",
            "start_time": "79.5",
            "end_time": "87.5"
        },
        {
            "id": "136",
            "type": "input",
            "source_block_id": "312",
            "destination_block_id": "182",
            "crane": "0",
            "start_time": "73.5",
            "end_time": "81.5"
        },
        {
            "id": "137",
            "type": "input",
            "source_block_id": "286",
            "destination_block_id": "186",
            "crane": "1",
            "start_time": "44.5",
            "end_time": "52.5"
        },
        {
            "id": "138",
            "type": "input",
            "source_block_id": "310",
            "destination_block_id": "232",
            "crane": "0",
            "start_time": "98.5",
            "end_time": "106.5"
        },
        {
            "id": "139",
            "type": "input",
            "source_block_id": "266",
            "destination_block_id": "208",
            "crane": "0",
            "start_time": "51.5",
            "end_time": "60.5"
        },
        {
            "id": "140",
            "type": "input",
            "source_block_id": "307",
            "destination_block_id": "234",
            "crane": "1",
            "start_time": "103.5",
            "end_time": "119.5"
        },
        {
            "id": "141",
            "type": "input",
            "source_block_id": "312",
            "destination_block_id": "44",
            "crane": "0",
            "start_time": "114.5",
            "end_time": "134.5"
        },
        {
            "id": "5",
            "type": "output",
            "source_block_id": "67",
            "destination_block_id": "301",
            "crane": "1",
            "start_time": "58.5",
            "end_time": "66.5"
        },
        {
            "id": "142",
            "type": "input",
            "source_block_id": "261",
            "destination_block_id": "81",
            "crane": "0",
            "start_time": "84.5",
            "end_time": "91.5"
        }
    ]
}
