{
    "objective": "397.63167475206808",
    "BAP cost": "64",
    "CSP cost": "731.26334950413593",
    "products": [
        {
            "id": "265",
            "type": "yard_movement",
            "source_block_id": "436",
            "destination_block_id": "739",
            "crane": "1",
            "start_time": "0",
            "end_time": "10"
        },
        {
            "id": "375",
            "type": "input",
            "source_block_id": "1270",
            "destination_block_id": "377",
            "crane": "0",
            "start_time": "1.5",
            "end_time": "10.5"
        },
        {
            "id": "376",
            "type": "input",
            "source_block_id": "1287",
            "destination_block_id": "720",
            "crane": "1",
            "start_time": "15",
            "end_time": "20"
        },
        {
            "id": "377",
            "type": "input",
            "source_block_id": "1259",
            "destination_block_id": "637",
            "crane": "0",
            "start_time": "47.5",
            "end_time": "52.5"
        },
        {
            "id": "378",
            "type": "input",
            "source_block_id": "1261",
            "destination_block_id": "951",
            "crane": "0",
            "start_time": "17.5",
            "end_time": "28.5"
        },
        {
            "id": "379",
            "type": "input",
            "source_block_id": "1285",
            "destination_block_id": "532",
            "crane": "0",
            "start_time": "31.5",
            "end_time": "41.5"
        },
        {
            "id": "380",
            "type": "input",
            "source_block_id": "1299",
            "destination_block_id": "1075",
            "crane": "1",
            "start_time": "58",
            "end_time": "66"
        },
        {
            "id": "381",
            "type": "input",
            "source_block_id": "1307",
            "destination_block_id": "362",
            "crane": "1",
            "start_time": "26",
            "end_time": "29"
        },
        {
            "id": "382",
            "type": "input",
            "source_block_id": "1261",
            "destination_block_id": "17",
            "crane": "0",
            "start_time": "95",
            "end_time": "105"
        },
        {
            "id": "383",
            "type": "input",
            "source_block_id": "1295",
            "destination_block_id": "286",
            "crane": "1",
            "start_time": "110",
            "end_time": "124"
        },
        {
            "id": "384",
            "type": "input",
            "source_block_id": "1280",
            "destination_block_id": "285",
            "crane": "1",
            "start_time": "83",
            "end_time": "90"
        },
        {
            "id": "385",
            "type": "input",
            "source_block_id": "1284",
            "destination_block_id": "332",
            "crane": "1",
            "start_time": "35",
            "end_time": "38"
        },
        {
            "id": "386",
            "type": "input",
            "source_block_id": "1284",
            "destination_block_id": "600",
            "crane": "1",
            "start_time": "41",
            "end_time": "46"
        },
        {
            "id": "387",
            "type": "input",
            "source_block_id": "1259",
            "destination_block_id": "267",
            "crane": "0",
            "start_time": "57.5",
            "end_time": "65.5"
        },
        {
            "id": "388",
            "type": "input",
            "source_block_id": "1287",
            "destination_block_id": "1232",
            "crane": "1",
            "start_time": "52",
            "end_time": "56"
        },
        {
            "id": "389",
            "type": "input",
            "source_block_id": "1257",
            "destination_block_id": "287",
            "crane": "0",
            "start_time": "122",
            "end_time": "130"
        },
        {
            "id": "390",
            "type": "input",
            "source_block_id": "1280",
            "destination_block_id": "72",
            "crane": "1",
            "start_time": "79",
            "end_time": "81"
        },
        {
            "id": "391",
            "type": "input",
            "source_block_id": "1287",
            "destination_block_id": "945",
            "crane": "1",
            "start_time": "68",
            "end_time": "71"
        },
        {
            "id": "368",
            "type": "output",
            "source_block_id": "568",
            "destination_block_id": "1251",
            "crane": "0",
            "start_time": "75.5",
            "end_time": "89.5"
        },
        {
            "id": "392",
            "type": "input",
            "source_block_id": "1262",
            "destination_block_id": "712",
            "crane": "1",
            "start_time": "93",
            "end_time": "105"
        },
        {
            "id": "82",
            "type": "output",
            "source_block_id": "435",
            "destination_block_id": "1304",
            "crane": "1",
            "start_time": "129",
            "end_time": "142"
        }
    ]
}
