{
    "objective": "95.23222942392556",
    "BAP cost": "0",
    "CSP cost": "190.46445884785112",
    "products": [
        {
            "id": "75",
            "type": "input",
            "source_block_id": "285",
            "destination_block_id": "242",
            "crane": "0",
            "start_time": "1.5",
            "end_time": "2.5"
        },
        {
            "id": "76",
            "type": "input",
            "source_block_id": "295",
            "destination_block_id": "220",
            "crane": "1",
            "start_time": "34.099999904632568",
            "end_time": "36.099999904632568"
        },
        {
            "id": "77",
            "type": "input",
            "source_block_id": "300",
            "destination_block_id": "119",
            "crane": "1",
            "start_time": "6.0999999046325684",
            "end_time": "11.099999904632568"
        },
        {
            "id": "78",
            "type": "input",
            "source_block_id": "270",
            "destination_block_id": "8",
            "crane": "0",
            "start_time": "12.5",
            "end_time": "13.5"
        },
        {
            "id": "79",
            "type": "input",
            "source_block_id": "296",
            "destination_block_id": "117",
            "crane": "1",
            "start_time": "16.099999904632568",
            "end_time": "21.099999904632568"
        },
        {
            "id": "80",
            "type": "input",
            "source_block_id": "299",
            "destination_block_id": "248",
            "crane": "1",
            "start_time": "31.099999904632568",
            "end_time": "32.099999904632568"
        },
        {
            "id": "81",
            "type": "input",
            "source_block_id": "256",
            "destination_block_id": "1",
            "crane": "0",
            "start_time": "19.5",
            "end_time": "20.5"
        },
        {
            "id": "51",
            "type": "output",
            "source_block_id": "93",
            "destination_block_id": "321",
            "crane": "1",
            "start_time": "22.099999904632568",
            "end_time": "29.099999904632568"
        },
        {
            "id": "82",
            "type": "input",
            "source_block_id": "310",
            "destination_block_id": "100",
            "crane": "0",
            "start_time": "24.5",
            "end_time": "25.5"
        },
        {
            "id": "83",
            "type": "input",
            "source_block_id": "283",
            "destination_block_id": "238",
            "crane": "1",
            "start_time": "41.099999904632568",
            "end_time": "43.099999904632568"
        },
        {
            "id": "84",
            "type": "input",
            "source_block_id": "312",
            "destination_block_id": "76",
            "crane": "0",
            "start_time": "39.299999237060547",
            "end_time": "41.299999237060547"
        },
        {
            "id": "85",
            "type": "input",
            "source_block_id": "259",
            "destination_block_id": "227",
            "crane": "0",
            "start_time": "33.299999237060547",
            "end_time": "34.299999237060547"
        },
        {
            "id": "86",
            "type": "input",
            "source_block_id": "264",
            "destination_block_id": "53",
            "crane": "0",
            "start_time": "50.299999237060547",
            "end_time": "53.299999237060547"
        },
        {
            "id": "87",
            "type": "input",
            "source_block_id": "310",
            "destination_block_id": "27",
            "crane": "0",
            "start_time": "43.299999237060547",
            "end_time": "46.299999237060547"
        },
        {
            "id": "88",
            "type": "input",
            "source_block_id": "264",
            "destination_block_id": "56",
            "crane": "0",
            "start_time": "56.299999237060547",
            "end_time": "59.299999237060547"
        },
        {
            "id": "89",
            "type": "input",
            "source_block_id": "270",
            "destination_block_id": "58",
            "crane": "0",
            "start_time": "62.299999237060547",
            "end_time": "65.299999237060547"
        },
        {
            "id": "90",
            "type": "input",
            "source_block_id": "300",
            "destination_block_id": "41",
            "crane": "1",
            "start_time": "66",
            "end_time": "74"
        },
        {
            "id": "91",
            "type": "input",
            "source_block_id": "261",
            "destination_block_id": "231",
            "crane": "0",
            "start_time": "73.299999237060547",
            "end_time": "75.299999237060547"
        },
        {
            "id": "68",
            "type": "output",
            "source_block_id": "14",
            "destination_block_id": "314",
            "crane": "1",
            "start_time": "76",
            "end_time": "91"
        },
        {
            "id": "92",
            "type": "input",
            "source_block_id": "283",
            "destination_block_id": "192",
            "crane": "1",
            "start_time": "55",
            "end_time": "58"
        }
    ]
}
