{
    "objective": "538.83167360765879",
    "BAP cost": "448",
    "CSP cost": "629.66334721531757",
    "products": [
        {
            "id": "175",
            "type": "input",
            "source_block_id": "322",
            "destination_block_id": "34",
            "crane": "0",
            "start_time": "1.5",
            "end_time": "11.5"
        },
        {
            "id": "176",
            "type": "input",
            "source_block_id": "289",
            "destination_block_id": "9",
            "crane": "1",
            "start_time": "5.5",
            "end_time": "15.5"
        },
        {
            "id": "177",
            "type": "input",
            "source_block_id": "268",
            "destination_block_id": "8",
            "crane": "1",
            "start_time": "16.5",
            "end_time": "17.5"
        },
        {
            "id": "178",
            "type": "input",
            "source_block_id": "308",
            "destination_block_id": "182",
            "crane": "0",
            "start_time": "25.399999618530273",
            "end_time": "33.399999618530273"
        },
        {
            "id": "179",
            "type": "input",
            "source_block_id": "282",
            "destination_block_id": "22",
            "crane": "1",
            "start_time": "24.5",
            "end_time": "31.5"
        },
        {
            "id": "180",
            "type": "input",
            "source_block_id": "255",
            "destination_block_id": "0",
            "crane": "0",
            "start_time": "70.399999618530273",
            "end_time": "80.399999618530273"
        },
        {
            "id": "181",
            "type": "input",
            "source_block_id": "264",
            "destination_block_id": "1",
            "crane": "0",
            "start_time": "18.399999618530273",
            "end_time": "23.399999618530273"
        },
        {
            "id": "16",
            "type": "output",
            "source_block_id": "69",
            "destination_block_id": "298",
            "crane": "1",
            "start_time": "34.5",
            "end_time": "38.5"
        },
        {
            "id": "182",
            "type": "input",
            "source_block_id": "307",
            "destination_block_id": "59",
            "crane": "1",
            "start_time": "113.5",
            "end_time": "129.5"
        },
        {
            "id": "183",
            "type": "input",
            "source_block_id": "323",
            "destination_block_id": "81",
            "crane": "0",
            "start_time": "110.5",
            "end_time": "129.5"
        },
        {
            "id": "184",
            "type": "input",
            "source_block_id": "258",
            "destination_block_id": "227",
            "crane": "0",
            "start_time": "41.399999618530273",
            "end_time": "51.399999618530273"
        },
        {
            "id": "185",
            "type": "input",
            "source_block_id": "256",
            "destination_block_id": "42",
            "crane": "0",
            "start_time": "87.5",
            "end_time": "102.5"
        },
        {
            "id": "186",
            "type": "input",
            "source_block_id": "323",
            "destination_block_id": "198",
            "crane": "1",
            "start_time": "71.5",
            "end_time": "73.5"
        },
        {
            "id": "187",
            "type": "input",
            "source_block_id": "299",
            "destination_block_id": "51",
            "crane": "1",
            "start_time": "143.5",
            "end_time": "165.5"
        },
        {
            "id": "188",
            "type": "input",
            "source_block_id": "292",
            "destination_block_id": "139",
            "crane": "1",
            "start_time": "41.5",
            "end_time": "47.5"
        },
        {
            "id": "189",
            "type": "input",
            "source_block_id": "284",
            "destination_block_id": "88",
            "crane": "1",
            "start_time": "53.5",
            "end_time": "57.5"
        },
        {
            "id": "190",
            "type": "input",
            "source_block_id": "259",
            "destination_block_id": "156",
            "crane": "0",
            "start_time": "52.399999618530273",
            "end_time": "56.399999618530273"
        },
        {
            "id": "191",
            "type": "input",
            "source_block_id": "312",
            "destination_block_id": "152",
            "crane": "0",
            "start_time": "63.399999618530273",
            "end_time": "66.399999618530273"
        },
        {
            "id": "141",
            "type": "output",
            "source_block_id": "194",
            "destination_block_id": "267",
            "crane": "1",
            "start_time": "77.5",
            "end_time": "89.5"
        },
        {
            "id": "192",
            "type": "input",
            "source_block_id": "289",
            "destination_block_id": "247",
            "crane": "1",
            "start_time": "64.5",
            "end_time": "68.5"
        }
    ]
}
