{
    "objective": "688.60803916161581",
    "BAP cost": "12",
    "CSP cost": "1365.2160783232316",
    "products": [
        {
            "id": "487",
            "type": "yard_movement",
            "source_block_id": "2488",
            "destination_block_id": "828",
            "crane": "1",
            "start_time": "23.099999904632568",
            "end_time": "34.099999904632568"
        },
        {
            "id": "900",
            "type": "input",
            "source_block_id": "3046",
            "destination_block_id": "218",
            "crane": "1",
            "start_time": "1.5",
            "end_time": "3.5"
        },
        {
            "id": "901",
            "type": "input",
            "source_block_id": "3005",
            "destination_block_id": "2043",
            "crane": "0",
            "start_time": "192.69999980926514",
            "end_time": "222.69999980926514"
        },
        {
            "id": "902",
            "type": "input",
            "source_block_id": "3050",
            "destination_block_id": "2187",
            "crane": "1",
            "start_time": "6.0999999046325684",
            "end_time": "21.099999904632568"
        },
        {
            "id": "903",
            "type": "input",
            "source_block_id": "3110",
            "destination_block_id": "342",
            "crane": "0",
            "start_time": "9.6999998092651367",
            "end_time": "24.699999809265137"
        },
        {
            "id": "904",
            "type": "input",
            "source_block_id": "3136",
            "destination_block_id": "453",
            "crane": "0",
            "start_time": "305.69999980926514",
            "end_time": "318.69999980926514"
        },
        {
            "id": "905",
            "type": "input",
            "source_block_id": "3020",
            "destination_block_id": "2151",
            "crane": "0",
            "start_time": "29.699999809265137",
            "end_time": "44.699999809265137"
        },
        {
            "id": "906",
            "type": "input",
            "source_block_id": "3066",
            "destination_block_id": "67",
            "crane": "1",
            "start_time": "40.099999904632568",
            "end_time": "50.099999904632568"
        },
        {
            "id": "849",
            "type": "output",
            "source_block_id": "2679",
            "destination_block_id": "3061",
            "crane": "1",
            "start_time": "190.09999990463257",
            "end_time": "204.09999990463257"
        },
        {
            "id": "907",
            "type": "input",
            "source_block_id": "3134",
            "destination_block_id": "300",
            "crane": "0",
            "start_time": "69.699999809265137",
            "end_time": "82.699999809265137"
        },
        {
            "id": "908",
            "type": "input",
            "source_block_id": "3090",
            "destination_block_id": "1270",
            "crane": "1",
            "start_time": "136.09999990463257",
            "end_time": "157.09999990463257"
        },
        {
            "id": "909",
            "type": "input",
            "source_block_id": "3042",
            "destination_block_id": "0",
            "crane": "0",
            "start_time": "337.69999980926514",
            "end_time": "357.69999980926514"
        },
        {
            "id": "910",
            "type": "input",
            "source_block_id": "3042",
            "destination_block_id": "84",
            "crane": "1",
            "start_time": "52.099999904632568",
            "end_time": "60.099999904632568"
        },
        {
            "id": "911",
            "type": "input",
            "source_block_id": "3074",
            "destination_block_id": "2457",
            "crane": "1",
            "start_time": "68.099999904632568",
            "end_time": "85.099999904632568"
        },
        {
            "id": "912",
            "type": "input",
            "source_block_id": "3133",
            "destination_block_id": "762",
            "crane": "0",
            "start_time": "241.69999980926514",
            "end_time": "287.69999980926514"
        },
        {
            "id": "913",
            "type": "input",
            "source_block_id": "3033",
            "destination_block_id": "2851",
            "crane": "0",
            "start_time": "50.699999809265137",
            "end_time": "65.699999809265137"
        },
        {
            "id": "914",
            "type": "input",
            "source_block_id": "3029",
            "destination_block_id": "159",
            "crane": "0",
            "start_time": "143.69999980926514",
            "end_time": "162.69999980926514"
        },
        {
            "id": "915",
            "type": "input",
            "source_block_id": "3012",
            "destination_block_id": "6",
            "crane": "0",
            "start_time": "87.699999809265137",
            "end_time": "90.699999809265137"
        },
        {
            "id": "916",
            "type": "input",
            "source_block_id": "3132",
            "destination_block_id": "7",
            "crane": "0",
            "start_time": "104.69999980926514",
            "end_time": "118.69999980926514"
        },
        {
            "id": "137",
            "type": "output",
            "source_block_id": "2106",
            "destination_block_id": "3023",
            "crane": "0",
            "start_time": "175.69999980926514",
            "end_time": "183.69999980926514"
        },
        {
            "id": "917",
            "type": "input",
            "source_block_id": "3094",
            "destination_block_id": "1531",
            "crane": "0",
            "start_time": "403.69999980926514",
            "end_time": "439.69999980926514"
        },
        {
            "id": "918",
            "type": "input",
            "source_block_id": "3099",
            "destination_block_id": "608",
            "crane": "1",
            "start_time": "246.69999980926514",
            "end_time": "292.69999980926514"
        },
        {
            "id": "919",
            "type": "input",
            "source_block_id": "3042",
            "destination_block_id": "2393",
            "crane": "0",
            "start_time": "462.69999980926514",
            "end_time": "489.69999980926514"
        },
        {
            "id": "920",
            "type": "input",
            "source_block_id": "3030",
            "destination_block_id": "69",
            "crane": "0",
            "start_time": "450.69999980926514",
            "end_time": "459.69999980926514"
        },
        {
            "id": "921",
            "type": "input",
            "source_block_id": "3046",
            "destination_block_id": "2051",
            "crane": "1",
            "start_time": "166.09999990463257",
            "end_time": "180.09999990463257"
        },
        {
            "id": "922",
            "type": "input",
            "source_block_id": "3077",
            "destination_block_id": "2633",
            "crane": "1",
            "start_time": "103.09999990463257",
            "end_time": "113.09999990463257"
        },
        {
            "id": "923",
            "type": "input",
            "source_block_id": "3097",
            "destination_block_id": "2369",
            "crane": "1",
            "start_time": "405.69999980926514",
            "end_time": "413.69999980926514"
        },
        {
            "id": "924",
            "type": "input",
            "source_block_id": "3049",
            "destination_block_id": "2649",
            "crane": "1",
            "start_time": "89.099999904632568",
            "end_time": "99.099999904632568"
        },
        {
            "id": "925",
            "type": "input",
            "source_block_id": "3132",
            "destination_block_id": "2071",
            "crane": "1",
            "start_time": "302.69999980926514",
            "end_time": "343.69999980926514"
        },
        {
            "id": "926",
            "type": "input",
            "source_block_id": "3008",
            "destination_block_id": "2310",
            "crane": "0",
            "start_time": "119.69999980926514",
            "end_time": "136.69999980926514"
        },
        {
            "id": "10",
            "type": "output",
            "source_block_id": "2487",
            "destination_block_id": "3096",
            "crane": "1",
            "start_time": "115.09999990463257",
            "end_time": "133.09999990463257"
        }
    ]
}
