{
    "objective": "1019.7149727014802",
    "BAP cost": "249",
    "CSP cost": "1790.4299454029599",
    "products": [
        {
            "id": "700",
            "type": "input",
            "source_block_id": "1028",
            "destination_block_id": "758",
            "crane": "0",
            "start_time": "120.09999990463257",
            "end_time": "136.09999990463257"
        },
        {
            "id": "701",
            "type": "input",
            "source_block_id": "1045",
            "destination_block_id": "5",
            "crane": "0",
            "start_time": "268.09999990463257",
            "end_time": "288.09999990463257"
        },
        {
            "id": "702",
            "type": "input",
            "source_block_id": "1060",
            "destination_block_id": "853",
            "crane": "0",
            "start_time": "6.0999999046325684",
            "end_time": "32.099999904632568"
        },
        {
            "id": "703",
            "type": "input",
            "source_block_id": "1060",
            "destination_block_id": "986",
            "crane": "1",
            "start_time": "109.09999990463257",
            "end_time": "129.09999990463257"
        },
        {
            "id": "704",
            "type": "input",
            "source_block_id": "1112",
            "destination_block_id": "985",
            "crane": "0",
            "start_time": "294.09999990463257",
            "end_time": "330.09999990463257"
        },
        {
            "id": "705",
            "type": "input",
            "source_block_id": "1046",
            "destination_block_id": "130",
            "crane": "1",
            "start_time": "16.099999904632568",
            "end_time": "24.099999904632568"
        },
        {
            "id": "706",
            "type": "input",
            "source_block_id": "1097",
            "destination_block_id": "971",
            "crane": "1",
            "start_time": "283.09999990463257",
            "end_time": "309.09999990463257"
        },
        {
            "id": "391",
            "type": "output",
            "source_block_id": "166",
            "destination_block_id": "1080",
            "crane": "1",
            "start_time": "38.099999904632568",
            "end_time": "61.099999904632568"
        },
        {
            "id": "707",
            "type": "input",
            "source_block_id": "1140",
            "destination_block_id": "902",
            "crane": "0",
            "start_time": "36.099999904632568",
            "end_time": "39.099999904632568"
        },
        {
            "id": "708",
            "type": "input",
            "source_block_id": "1134",
            "destination_block_id": "404",
            "crane": "0",
            "start_time": "42.099999904632568",
            "end_time": "49.099999904632568"
        },
        {
            "id": "709",
            "type": "input",
            "source_block_id": "1074",
            "destination_block_id": "689",
            "crane": "1",
            "start_time": "332.09999990463257",
            "end_time": "346.09999990463257"
        },
        {
            "id": "710",
            "type": "input",
            "source_block_id": "1105",
            "destination_block_id": "379",
            "crane": "1",
            "start_time": "72.099999904632568",
            "end_time": "93.099999904632568"
        },
        {
            "id": "711",
            "type": "input",
            "source_block_id": "1049",
            "destination_block_id": "208",
            "crane": "0",
            "start_time": "210.09999990463257",
            "end_time": "226.09999990463257"
        },
        {
            "id": "712",
            "type": "input",
            "source_block_id": "1141",
            "destination_block_id": "260",
            "crane": "1",
            "start_time": "357.09999990463257",
            "end_time": "397.09999990463257"
        },
        {
            "id": "713",
            "type": "input",
            "source_block_id": "1140",
            "destination_block_id": "259",
            "crane": "0",
            "start_time": "59.099999904632568",
            "end_time": "72.099999904632568"
        },
        {
            "id": "714",
            "type": "input",
            "source_block_id": "1074",
            "destination_block_id": "482",
            "crane": "1",
            "start_time": "258.09999990463257",
            "end_time": "268.09999990463257"
        },
        {
            "id": "715",
            "type": "input",
            "source_block_id": "1011",
            "destination_block_id": "113",
            "crane": "0",
            "start_time": "99.099999904632568",
            "end_time": "117.09999990463257"
        },
        {
            "id": "716",
            "type": "input",
            "source_block_id": "1123",
            "destination_block_id": "21",
            "crane": "1",
            "start_time": "214.09999990463257",
            "end_time": "243.09999990463257"
        },
        {
            "id": "603",
            "type": "output",
            "source_block_id": "713",
            "destination_block_id": "1115",
            "crane": "1",
            "start_time": "173.09999990463257",
            "end_time": "210.09999990463257"
        },
        {
            "id": "717",
            "type": "input",
            "source_block_id": "1074",
            "destination_block_id": "0",
            "crane": "0",
            "start_time": "350.09999990463257",
            "end_time": "386.09999990463257"
        },
        {
            "id": "718",
            "type": "input",
            "source_block_id": "1014",
            "destination_block_id": "709",
            "crane": "0",
            "start_time": "78.099999904632568",
            "end_time": "93.099999904632568"
        },
        {
            "id": "719",
            "type": "input",
            "source_block_id": "1073",
            "destination_block_id": "531",
            "crane": "0",
            "start_time": "459.09999990463257",
            "end_time": "469.09999990463257"
        },
        {
            "id": "720",
            "type": "input",
            "source_block_id": "1123",
            "destination_block_id": "594",
            "crane": "0",
            "start_time": "444.09999990463257",
            "end_time": "450.09999990463257"
        },
        {
            "id": "721",
            "type": "input",
            "source_block_id": "1073",
            "destination_block_id": "416",
            "crane": "1",
            "start_time": "148.09999990463257",
            "end_time": "167.09999990463257"
        },
        {
            "id": "722",
            "type": "input",
            "source_block_id": "1075",
            "destination_block_id": "582",
            "crane": "1",
            "start_time": "130.09999990463257",
            "end_time": "139.09999990463257"
        },
        {
            "id": "723",
            "type": "input",
            "source_block_id": "1029",
            "destination_block_id": "991",
            "crane": "0",
            "start_time": "406.09999990463257",
            "end_time": "434.09999990463257"
        },
        {
            "id": "724",
            "type": "input",
            "source_block_id": "1110",
            "destination_block_id": "471",
            "crane": "0",
            "start_time": "235.09999990463257",
            "end_time": "257.09999990463257"
        },
        {
            "id": "725",
            "type": "input",
            "source_block_id": "1116",
            "destination_block_id": "268",
            "crane": "0",
            "start_time": "176.09999990463257",
            "end_time": "195.09999990463257"
        },
        {
            "id": "360",
            "type": "output",
            "source_block_id": "424",
            "destination_block_id": "1056",
            "crane": "1",
            "start_time": "98.099999904632568",
            "end_time": "107.09999990463257"
        },
        {
            "id": "726",
            "type": "input",
            "source_block_id": "1029",
            "destination_block_id": "116",
            "crane": "0",
            "start_time": "141.09999990463257",
            "end_time": "159.09999990463257"
        }
    ]
}
