{
    "objective": "1869.0048130357848",
    "BAP cost": "115",
    "CSP cost": "3623.0096260715695",
    "products": [
        {
            "id": "1120",
            "type": "yard_movement",
            "source_block_id": "2804",
            "destination_block_id": "386",
            "crane": "0",
            "start_time": "142.69999980926514",
            "end_time": "158.69999980926514"
        },
        {
            "id": "1394",
            "type": "yard_movement",
            "source_block_id": "1070",
            "destination_block_id": "1361",
            "crane": "0",
            "start_time": "348.69999980926514",
            "end_time": "351.69999980926514"
        },
        {
            "id": "1500",
            "type": "input",
            "source_block_id": "3072",
            "destination_block_id": "953",
            "crane": "1",
            "start_time": "46.699999809265137",
            "end_time": "64.699999809265137"
        },
        {
            "id": "1501",
            "type": "input",
            "source_block_id": "3018",
            "destination_block_id": "342",
            "crane": "1",
            "start_time": "73.699999809265137",
            "end_time": "79.699999809265137"
        },
        {
            "id": "1502",
            "type": "input",
            "source_block_id": "3005",
            "destination_block_id": "2851",
            "crane": "1",
            "start_time": "97.699999809265137",
            "end_time": "98.699999809265137"
        },
        {
            "id": "1503",
            "type": "input",
            "source_block_id": "3134",
            "destination_block_id": "2310",
            "crane": "1",
            "start_time": "9.6999998092651367",
            "end_time": "30.699999809265137"
        },
        {
            "id": "1504",
            "type": "input",
            "source_block_id": "3011",
            "destination_block_id": "1469",
            "crane": "1",
            "start_time": "362.69999980926514",
            "end_time": "397.69999980926514"
        },
        {
            "id": "1505",
            "type": "input",
            "source_block_id": "3116",
            "destination_block_id": "451",
            "crane": "0",
            "start_time": "15.699999809265137",
            "end_time": "18.699999809265137"
        },
        {
            "id": "1506",
            "type": "input",
            "source_block_id": "3116",
            "destination_block_id": "0",
            "crane": "0",
            "start_time": "88.400001525878906",
            "end_time": "94.400001525878906"
        },
        {
            "id": "1507",
            "type": "input",
            "source_block_id": "3072",
            "destination_block_id": "67",
            "crane": "1",
            "start_time": "329.69999980926514",
            "end_time": "342.69999980926514"
        },
        {
            "id": "1508",
            "type": "input",
            "source_block_id": "3049",
            "destination_block_id": "2966",
            "crane": "1",
            "start_time": "179.69999980926514",
            "end_time": "194.69999980926514"
        },
        {
            "id": "1509",
            "type": "input",
            "source_block_id": "3073",
            "destination_block_id": "530",
            "crane": "1",
            "start_time": "197.69999980926514",
            "end_time": "214.69999980926514"
        },
        {
            "id": "1510",
            "type": "input",
            "source_block_id": "3116",
            "destination_block_id": "812",
            "crane": "0",
            "start_time": "107.69999980926514",
            "end_time": "128.69999980926514"
        },
        {
            "id": "1511",
            "type": "input",
            "source_block_id": "3014",
            "destination_block_id": "2929",
            "crane": "0",
            "start_time": "277.69999980926514",
            "end_time": "297.69999980926514"
        },
        {
            "id": "1512",
            "type": "input",
            "source_block_id": "3077",
            "destination_block_id": "1436",
            "crane": "1",
            "start_time": "292.69999980926514",
            "end_time": "303.69999980926514"
        },
        {
            "id": "1513",
            "type": "input",
            "source_block_id": "3007",
            "destination_block_id": "1322",
            "crane": "0",
            "start_time": "197.69999980926514",
            "end_time": "235.69999980926514"
        },
        {
            "id": "1514",
            "type": "input",
            "source_block_id": "3102",
            "destination_block_id": "218",
            "crane": "0",
            "start_time": "557.69999980926514",
            "end_time": "585.69999980926514"
        },
        {
            "id": "1515",
            "type": "input",
            "source_block_id": "3132",
            "destination_block_id": "1829",
            "crane": "0",
            "start_time": "46.400001525878906",
            "end_time": "56.400001525878906"
        },
        {
            "id": "1516",
            "type": "input",
            "source_block_id": "3136",
            "destination_block_id": "11",
            "crane": "0",
            "start_time": "66.400001525878906",
            "end_time": "82.400001525878906"
        },
        {
            "id": "953",
            "type": "output",
            "source_block_id": "1528",
            "destination_block_id": "3065",
            "crane": "1",
            "start_time": "107.69999980926514",
            "end_time": "129.69999980926514"
        },
        {
            "id": "1517",
            "type": "input",
            "source_block_id": "3032",
            "destination_block_id": "53",
            "crane": "1",
            "start_time": "270.69999980926514",
            "end_time": "272.69999980926514"
        },
        {
            "id": "1518",
            "type": "input",
            "source_block_id": "3049",
            "destination_block_id": "2900",
            "crane": "0",
            "start_time": "176.69999980926514",
            "end_time": "183.69999980926514"
        },
        {
            "id": "1519",
            "type": "input",
            "source_block_id": "3016",
            "destination_block_id": "1717",
            "crane": "0",
            "start_time": "317.69999980926514",
            "end_time": "332.69999980926514"
        },
        {
            "id": "1520",
            "type": "input",
            "source_block_id": "3125",
            "destination_block_id": "2210",
            "crane": "1",
            "start_time": "526.69999980926514",
            "end_time": "540.69999980926514"
        },
        {
            "id": "1521",
            "type": "input",
            "source_block_id": "3062",
            "destination_block_id": "1136",
            "crane": "1",
            "start_time": "313.69999980926514",
            "end_time": "321.69999980926514"
        },
        {
            "id": "1522",
            "type": "input",
            "source_block_id": "3133",
            "destination_block_id": "2017",
            "crane": "0",
            "start_time": "462.69999980926514",
            "end_time": "490.69999980926514"
        },
        {
            "id": "1523",
            "type": "input",
            "source_block_id": "3066",
            "destination_block_id": "2018",
            "crane": "0",
            "start_time": "504.69999980926514",
            "end_time": "518.69999980926514"
        },
        {
            "id": "1524",
            "type": "input",
            "source_block_id": "3078",
            "destination_block_id": "1242",
            "crane": "0",
            "start_time": "244.69999980926514",
            "end_time": "268.69999980926514"
        },
        {
            "id": "1525",
            "type": "input",
            "source_block_id": "3035",
            "destination_block_id": "2279",
            "crane": "0",
            "start_time": "377.69999980926514",
            "end_time": "384.69999980926514"
        },
        {
            "id": "1526",
            "type": "input",
            "source_block_id": "3133",
            "destination_block_id": "1496",
            "crane": "1",
            "start_time": "148.69999980926514",
            "end_time": "153.69999980926514"
        },
        {
            "id": "926",
            "type": "yard_movement",
            "source_block_id": "2803",
            "destination_block_id": "374",
            "crane": "1",
            "start_time": "406.69999980926514",
            "end_time": "422.69999980926514"
        },
        {
            "id": "912",
            "type": "output",
            "source_block_id": "1069",
            "destination_block_id": "3111",
            "crane": "0",
            "start_time": "407.69999980926514",
            "end_time": "451.69999980926514"
        },
        {
            "id": "817",
            "type": "output",
            "source_block_id": "2802",
            "destination_block_id": "3115",
            "crane": "1",
            "start_time": "505.69999980926514",
            "end_time": "521.69999980926514"
        }
    ]
}
