{
    "objective": "2388.0848151040655",
    "BAP cost": "528",
    "CSP cost": "4248.1696302081309",
    "products": [
        {
            "id": "432",
            "type": "yard_movement",
            "source_block_id": "1823",
            "destination_block_id": "2036",
            "crane": "1",
            "start_time": "0",
            "end_time": "8"
        },
        {
            "id": "798",
            "type": "yard_movement",
            "source_block_id": "2164",
            "destination_block_id": "2149",
            "crane": "0",
            "start_time": "1",
            "end_time": "4"
        },
        {
            "id": "1718",
            "type": "yard_movement",
            "source_block_id": "844",
            "destination_block_id": "119",
            "crane": "1",
            "start_time": "15",
            "end_time": "20"
        },
        {
            "id": "1837",
            "type": "input",
            "source_block_id": "2630",
            "destination_block_id": "1122",
            "crane": "0",
            "start_time": "12",
            "end_time": "25"
        },
        {
            "id": "1838",
            "type": "input",
            "source_block_id": "2659",
            "destination_block_id": "1224",
            "crane": "1",
            "start_time": "27",
            "end_time": "45"
        },
        {
            "id": "1839",
            "type": "input",
            "source_block_id": "2637",
            "destination_block_id": "2037",
            "crane": "0",
            "start_time": "34",
            "end_time": "51"
        },
        {
            "id": "1840",
            "type": "input",
            "source_block_id": "2683",
            "destination_block_id": "2038",
            "crane": "1",
            "start_time": "52",
            "end_time": "64"
        },
        {
            "id": "1841",
            "type": "input",
            "source_block_id": "2659",
            "destination_block_id": "254",
            "crane": "0",
            "start_time": "63",
            "end_time": "67"
        },
        {
            "id": "1842",
            "type": "input",
            "source_block_id": "2662",
            "destination_block_id": "2443",
            "crane": "1",
            "start_time": "69",
            "end_time": "85"
        },
        {
            "id": "1843",
            "type": "input",
            "source_block_id": "2658",
            "destination_block_id": "1794",
            "crane": "0",
            "start_time": "81",
            "end_time": "88"
        },
        {
            "id": "1844",
            "type": "input",
            "source_block_id": "2683",
            "destination_block_id": "2039",
            "crane": "0",
            "start_time": "108",
            "end_time": "120"
        },
        {
            "id": "1845",
            "type": "input",
            "source_block_id": "2728",
            "destination_block_id": "264",
            "crane": "1",
            "start_time": "108",
            "end_time": "126"
        },
        {
            "id": "1846",
            "type": "input",
            "source_block_id": "2654",
            "destination_block_id": "1664",
            "crane": "1",
            "start_time": "140",
            "end_time": "146"
        },
        {
            "id": "1847",
            "type": "input",
            "source_block_id": "2715",
            "destination_block_id": "758",
            "crane": "0",
            "start_time": "143",
            "end_time": "155"
        },
        {
            "id": "1848",
            "type": "input",
            "source_block_id": "2707",
            "destination_block_id": "879",
            "crane": "0",
            "start_time": "167",
            "end_time": "171"
        },
        {
            "id": "1849",
            "type": "input",
            "source_block_id": "2713",
            "destination_block_id": "878",
            "crane": "0",
            "start_time": "175",
            "end_time": "178"
        },
        {
            "id": "1850",
            "type": "input",
            "source_block_id": "2631",
            "destination_block_id": "2109",
            "crane": "0",
            "start_time": "184",
            "end_time": "197"
        },
        {
            "id": "1851",
            "type": "input",
            "source_block_id": "2687",
            "destination_block_id": "1484",
            "crane": "1",
            "start_time": "159",
            "end_time": "173"
        },
        {
            "id": "1852",
            "type": "input",
            "source_block_id": "2655",
            "destination_block_id": "1638",
            "crane": "1",
            "start_time": "182",
            "end_time": "192"
        },
        {
            "id": "1853",
            "type": "input",
            "source_block_id": "2719",
            "destination_block_id": "1639",
            "crane": "1",
            "start_time": "205",
            "end_time": "218"
        },
        {
            "id": "1854",
            "type": "input",
            "source_block_id": "2715",
            "destination_block_id": "2129",
            "crane": "0",
            "start_time": "208",
            "end_time": "214"
        },
        {
            "id": "1855",
            "type": "input",
            "source_block_id": "2657",
            "destination_block_id": "1859",
            "crane": "1",
            "start_time": "228",
            "end_time": "239"
        },
        {
            "id": "1856",
            "type": "input",
            "source_block_id": "2707",
            "destination_block_id": "1793",
            "crane": "0",
            "start_time": "222",
            "end_time": "231"
        },
        {
            "id": "1857",
            "type": "input",
            "source_block_id": "2660",
            "destination_block_id": "1858",
            "crane": "1",
            "start_time": "244",
            "end_time": "249"
        },
        {
            "id": "1858",
            "type": "input",
            "source_block_id": "2643",
            "destination_block_id": "2318",
            "crane": "0",
            "start_time": "242",
            "end_time": "256"
        },
        {
            "id": "1859",
            "type": "input",
            "source_block_id": "2662",
            "destination_block_id": "2319",
            "crane": "1",
            "start_time": "254",
            "end_time": "263"
        },
        {
            "id": "1860",
            "type": "input",
            "source_block_id": "2667",
            "destination_block_id": "94",
            "crane": "0",
            "start_time": "278",
            "end_time": "282"
        },
        {
            "id": "1861",
            "type": "input",
            "source_block_id": "2667",
            "destination_block_id": "939",
            "crane": "0",
            "start_time": "286",
            "end_time": "294"
        },
        {
            "id": "1862",
            "type": "input",
            "source_block_id": "2724",
            "destination_block_id": "1349",
            "crane": "1",
            "start_time": "290",
            "end_time": "301"
        },
        {
            "id": "1863",
            "type": "input",
            "source_block_id": "2641",
            "destination_block_id": "1183",
            "crane": "0",
            "start_time": "300",
            "end_time": "319"
        },
        {
            "id": "309",
            "type": "yard_movement",
            "source_block_id": "1822",
            "destination_block_id": "904",
            "crane": "0",
            "start_time": "331",
            "end_time": "340"
        },
        {
            "id": "680",
            "type": "yard_movement",
            "source_block_id": "2163",
            "destination_block_id": "2248",
            "crane": "1",
            "start_time": "336",
            "end_time": "353"
        },
        {
            "id": "1237",
            "type": "yard_movement",
            "source_block_id": "843",
            "destination_block_id": "1134",
            "crane": "1",
            "start_time": "361",
            "end_time": "373"
        },
        {
            "id": "293",
            "type": "output",
            "source_block_id": "1821",
            "destination_block_id": "2644",
            "crane": "0",
            "start_time": "374",
            "end_time": "380"
        },
        {
            "id": "587",
            "type": "output",
            "source_block_id": "2162",
            "destination_block_id": "2688",
            "crane": "1",
            "start_time": "379",
            "end_time": "397"
        },
        {
            "id": "825",
            "type": "yard_movement",
            "source_block_id": "842",
            "destination_block_id": "923",
            "crane": "0",
            "start_time": "400",
            "end_time": "419"
        },
        {
            "id": "278",
            "type": "output",
            "source_block_id": "841",
            "destination_block_id": "2666",
            "crane": "1",
            "start_time": "408",
            "end_time": "419"
        }
    ]
}
