{
    "objective": "2621.5848151040655",
    "BAP cost": "164",
    "CSP cost": "5079.1696302081309",
    "products": [
        {
            "id": "1255",
            "type": "yard_movement",
            "source_block_id": "2534",
            "destination_block_id": "1624",
            "crane": "0",
            "start_time": "0",
            "end_time": "7"
        },
        {
            "id": "1312",
            "type": "input",
            "source_block_id": "2683",
            "destination_block_id": "1638",
            "crane": "0",
            "start_time": "26",
            "end_time": "42"
        },
        {
            "id": "1313",
            "type": "input",
            "source_block_id": "2714",
            "destination_block_id": "1123",
            "crane": "1",
            "start_time": "26",
            "end_time": "47"
        },
        {
            "id": "1314",
            "type": "input",
            "source_block_id": "2713",
            "destination_block_id": "1122",
            "crane": "0",
            "start_time": "55",
            "end_time": "70"
        },
        {
            "id": "1315",
            "type": "input",
            "source_block_id": "2714",
            "destination_block_id": "298",
            "crane": "1",
            "start_time": "68",
            "end_time": "79"
        },
        {
            "id": "1316",
            "type": "input",
            "source_block_id": "2675",
            "destination_block_id": "1448",
            "crane": "0",
            "start_time": "82",
            "end_time": "97"
        },
        {
            "id": "1317",
            "type": "input",
            "source_block_id": "2662",
            "destination_block_id": "2509",
            "crane": "1",
            "start_time": "93",
            "end_time": "99"
        },
        {
            "id": "1318",
            "type": "input",
            "source_block_id": "2658",
            "destination_block_id": "1124",
            "crane": "1",
            "start_time": "103",
            "end_time": "112"
        },
        {
            "id": "1319",
            "type": "input",
            "source_block_id": "2632",
            "destination_block_id": "2316",
            "crane": "0",
            "start_time": "104",
            "end_time": "110"
        },
        {
            "id": "1320",
            "type": "input",
            "source_block_id": "2660",
            "destination_block_id": "2507",
            "crane": "1",
            "start_time": "121",
            "end_time": "126"
        },
        {
            "id": "1321",
            "type": "input",
            "source_block_id": "2713",
            "destination_block_id": "594",
            "crane": "0",
            "start_time": "121",
            "end_time": "135"
        },
        {
            "id": "1322",
            "type": "input",
            "source_block_id": "2653",
            "destination_block_id": "968",
            "crane": "1",
            "start_time": "141",
            "end_time": "147"
        },
        {
            "id": "1323",
            "type": "input",
            "source_block_id": "2715",
            "destination_block_id": "1348",
            "crane": "0",
            "start_time": "149",
            "end_time": "174"
        },
        {
            "id": "1324",
            "type": "input",
            "source_block_id": "2722",
            "destination_block_id": "849",
            "crane": "1",
            "start_time": "164",
            "end_time": "171"
        },
        {
            "id": "1325",
            "type": "input",
            "source_block_id": "2724",
            "destination_block_id": "1858",
            "crane": "1",
            "start_time": "179",
            "end_time": "193"
        },
        {
            "id": "1326",
            "type": "input",
            "source_block_id": "2653",
            "destination_block_id": "2479",
            "crane": "0",
            "start_time": "185",
            "end_time": "200"
        },
        {
            "id": "1327",
            "type": "input",
            "source_block_id": "2670",
            "destination_block_id": "2496",
            "crane": "1",
            "start_time": "198",
            "end_time": "210"
        },
        {
            "id": "1328",
            "type": "input",
            "source_block_id": "2655",
            "destination_block_id": "2148",
            "crane": "0",
            "start_time": "218",
            "end_time": "231"
        },
        {
            "id": "1039",
            "type": "output",
            "source_block_id": "834",
            "destination_block_id": "2709",
            "crane": "0",
            "start_time": "248",
            "end_time": "275"
        },
        {
            "id": "1329",
            "type": "input",
            "source_block_id": "2660",
            "destination_block_id": "2036",
            "crane": "1",
            "start_time": "261",
            "end_time": "267"
        },
        {
            "id": "1330",
            "type": "input",
            "source_block_id": "2685",
            "destination_block_id": "1104",
            "crane": "1",
            "start_time": "279",
            "end_time": "298"
        },
        {
            "id": "1331",
            "type": "input",
            "source_block_id": "2643",
            "destination_block_id": "2079",
            "crane": "1",
            "start_time": "305",
            "end_time": "327"
        },
        {
            "id": "1332",
            "type": "input",
            "source_block_id": "2698",
            "destination_block_id": "673",
            "crane": "1",
            "start_time": "332",
            "end_time": "344"
        },
        {
            "id": "1333",
            "type": "input",
            "source_block_id": "2632",
            "destination_block_id": "2544",
            "crane": "0",
            "start_time": "305",
            "end_time": "321"
        },
        {
            "id": "1334",
            "type": "input",
            "source_block_id": "2685",
            "destination_block_id": "274",
            "crane": "1",
            "start_time": "348",
            "end_time": "358"
        },
        {
            "id": "1335",
            "type": "input",
            "source_block_id": "2636",
            "destination_block_id": "724",
            "crane": "0",
            "start_time": "335",
            "end_time": "346"
        },
        {
            "id": "1336",
            "type": "input",
            "source_block_id": "2685",
            "destination_block_id": "347",
            "crane": "1",
            "start_time": "368",
            "end_time": "373"
        },
        {
            "id": "1337",
            "type": "input",
            "source_block_id": "2664",
            "destination_block_id": "237",
            "crane": "0",
            "start_time": "360",
            "end_time": "374"
        },
        {
            "id": "1276",
            "type": "output",
            "source_block_id": "646",
            "destination_block_id": "2668",
            "crane": "1",
            "start_time": "383",
            "end_time": "395"
        },
        {
            "id": "1338",
            "type": "input",
            "source_block_id": "2658",
            "destination_block_id": "2248",
            "crane": "0",
            "start_time": "393",
            "end_time": "407"
        },
        {
            "id": "1151",
            "type": "yard_movement",
            "source_block_id": "2533",
            "destination_block_id": "2149",
            "crane": "0",
            "start_time": "420",
            "end_time": "427"
        },
        {
            "id": "105",
            "type": "yard_movement",
            "source_block_id": "2532",
            "destination_block_id": "2508",
            "crane": "1",
            "start_time": "423",
            "end_time": "428"
        },
        {
            "id": "94",
            "type": "output",
            "source_block_id": "2531",
            "destination_block_id": "2665",
            "crane": "1",
            "start_time": "433",
            "end_time": "448"
        }
    ]
}
