{
    "objective": "2403.6179391957107",
    "BAP cost": "340",
    "CSP cost": "4467.2358783914215",
    "products": [
        {
            "id": "564",
            "type": "yard_movement",
            "source_block_id": "569",
            "destination_block_id": "14",
            "crane": "0",
            "start_time": "0",
            "end_time": "11"
        },
        {
            "id": "596",
            "type": "yard_movement",
            "source_block_id": "887",
            "destination_block_id": "1182",
            "crane": "1",
            "start_time": "14",
            "end_time": "23"
        },
        {
            "id": "625",
            "type": "input",
            "source_block_id": "1266",
            "destination_block_id": "174",
            "crane": "0",
            "start_time": "22",
            "end_time": "26"
        },
        {
            "id": "626",
            "type": "input",
            "source_block_id": "1323",
            "destination_block_id": "121",
            "crane": "1",
            "start_time": "37",
            "end_time": "46"
        },
        {
            "id": "627",
            "type": "input",
            "source_block_id": "1259",
            "destination_block_id": "248",
            "crane": "0",
            "start_time": "37",
            "end_time": "58"
        },
        {
            "id": "628",
            "type": "input",
            "source_block_id": "1307",
            "destination_block_id": "278",
            "crane": "0",
            "start_time": "61",
            "end_time": "81"
        },
        {
            "id": "629",
            "type": "input",
            "source_block_id": "1262",
            "destination_block_id": "204",
            "crane": "0",
            "start_time": "84",
            "end_time": "94"
        },
        {
            "id": "630",
            "type": "input",
            "source_block_id": "1259",
            "destination_block_id": "1014",
            "crane": "0",
            "start_time": "106",
            "end_time": "110"
        },
        {
            "id": "631",
            "type": "input",
            "source_block_id": "1300",
            "destination_block_id": "183",
            "crane": "1",
            "start_time": "88",
            "end_time": "101"
        },
        {
            "id": "632",
            "type": "input",
            "source_block_id": "1292",
            "destination_block_id": "573",
            "crane": "1",
            "start_time": "110",
            "end_time": "116"
        },
        {
            "id": "633",
            "type": "input",
            "source_block_id": "1316",
            "destination_block_id": "638",
            "crane": "0",
            "start_time": "114",
            "end_time": "117"
        },
        {
            "id": "634",
            "type": "input",
            "source_block_id": "1270",
            "destination_block_id": "1049",
            "crane": "1",
            "start_time": "121",
            "end_time": "130"
        },
        {
            "id": "635",
            "type": "input",
            "source_block_id": "1258",
            "destination_block_id": "709",
            "crane": "0",
            "start_time": "123",
            "end_time": "136"
        },
        {
            "id": "636",
            "type": "input",
            "source_block_id": "1312",
            "destination_block_id": "424",
            "crane": "0",
            "start_time": "153",
            "end_time": "163"
        },
        {
            "id": "637",
            "type": "input",
            "source_block_id": "1278",
            "destination_block_id": "483",
            "crane": "1",
            "start_time": "142",
            "end_time": "150"
        },
        {
            "id": "638",
            "type": "input",
            "source_block_id": "1289",
            "destination_block_id": "109",
            "crane": "1",
            "start_time": "157",
            "end_time": "167"
        },
        {
            "id": "639",
            "type": "input",
            "source_block_id": "1296",
            "destination_block_id": "484",
            "crane": "1",
            "start_time": "171",
            "end_time": "175"
        },
        {
            "id": "640",
            "type": "input",
            "source_block_id": "1316",
            "destination_block_id": "482",
            "crane": "0",
            "start_time": "173",
            "end_time": "195"
        },
        {
            "id": "641",
            "type": "input",
            "source_block_id": "1268",
            "destination_block_id": "98",
            "crane": "1",
            "start_time": "211",
            "end_time": "222"
        },
        {
            "id": "518",
            "type": "output",
            "source_block_id": "632",
            "destination_block_id": "1304",
            "crane": "0",
            "start_time": "215",
            "end_time": "220"
        },
        {
            "id": "642",
            "type": "input",
            "source_block_id": "1287",
            "destination_block_id": "623",
            "crane": "1",
            "start_time": "232",
            "end_time": "239"
        },
        {
            "id": "643",
            "type": "input",
            "source_block_id": "1308",
            "destination_block_id": "1083",
            "crane": "0",
            "start_time": "232",
            "end_time": "249"
        },
        {
            "id": "644",
            "type": "input",
            "source_block_id": "1283",
            "destination_block_id": "108",
            "crane": "1",
            "start_time": "253",
            "end_time": "263"
        },
        {
            "id": "645",
            "type": "input",
            "source_block_id": "1285",
            "destination_block_id": "1082",
            "crane": "1",
            "start_time": "273",
            "end_time": "275"
        },
        {
            "id": "646",
            "type": "input",
            "source_block_id": "1312",
            "destination_block_id": "1084",
            "crane": "0",
            "start_time": "273",
            "end_time": "290"
        },
        {
            "id": "647",
            "type": "input",
            "source_block_id": "1258",
            "destination_block_id": "509",
            "crane": "0",
            "start_time": "303",
            "end_time": "308"
        },
        {
            "id": "648",
            "type": "input",
            "source_block_id": "1322",
            "destination_block_id": "3",
            "crane": "0",
            "start_time": "313",
            "end_time": "322"
        },
        {
            "id": "649",
            "type": "input",
            "source_block_id": "1257",
            "destination_block_id": "263",
            "crane": "0",
            "start_time": "332",
            "end_time": "340"
        },
        {
            "id": "650",
            "type": "input",
            "source_block_id": "1282",
            "destination_block_id": "1081",
            "crane": "1",
            "start_time": "284",
            "end_time": "293"
        },
        {
            "id": "651",
            "type": "input",
            "source_block_id": "1299",
            "destination_block_id": "953",
            "crane": "1",
            "start_time": "300",
            "end_time": "308"
        },
        {
            "id": "368",
            "type": "output",
            "source_block_id": "568",
            "destination_block_id": "1303",
            "crane": "1",
            "start_time": "311",
            "end_time": "323"
        },
        {
            "id": "138",
            "type": "yard_movement",
            "source_block_id": "886",
            "destination_block_id": "264",
            "crane": "0",
            "start_time": "345",
            "end_time": "350"
        },
        {
            "id": "69",
            "type": "output",
            "source_block_id": "885",
            "destination_block_id": "1311",
            "crane": "1",
            "start_time": "348",
            "end_time": "371"
        }
    ]
}
