{
    "objective": "10548.074954236108",
    "BAP cost": "1175",
    "CSP cost": "19921.149908472216",
    "products": [
        {
            "id": "1983",
            "type": "yard_movement",
            "source_block_id": "2417",
            "destination_block_id": "1247",
            "crane": "1",
            "start_time": "97.200000762939453",
            "end_time": "107.20000076293945"
        },
        {
            "id": "2062",
            "type": "yard_movement",
            "source_block_id": "1592",
            "destination_block_id": "1153",
            "crane": "1",
            "start_time": "508.20000076293945",
            "end_time": "512.20000076293945"
        },
        {
            "id": "1818",
            "type": "yard_movement",
            "source_block_id": "1489",
            "destination_block_id": "1804",
            "crane": "1",
            "start_time": "254.20000076293945",
            "end_time": "299.20000076293945"
        },
        {
            "id": "1788",
            "type": "yard_movement",
            "source_block_id": "2879",
            "destination_block_id": "2041",
            "crane": "0",
            "start_time": "0",
            "end_time": "21"
        },
        {
            "id": "1068",
            "type": "yard_movement",
            "source_block_id": "2032",
            "destination_block_id": "342",
            "crane": "0",
            "start_time": "890.20000076293945",
            "end_time": "903.20000076293945"
        },
        {
            "id": "2083",
            "type": "yard_movement",
            "source_block_id": "497",
            "destination_block_id": "343",
            "crane": "0",
            "start_time": "617.20000076293945",
            "end_time": "618.20000076293945"
        },
        {
            "id": "1417",
            "type": "yard_movement",
            "source_block_id": "449",
            "destination_block_id": "1187",
            "crane": "1",
            "start_time": "603.20000076293945",
            "end_time": "608.20000076293945"
        },
        {
            "id": "1404",
            "type": "yard_movement",
            "source_block_id": "925",
            "destination_block_id": "2",
            "crane": "0",
            "start_time": "103.20000076293945",
            "end_time": "111.20000076293945"
        },
        {
            "id": "2100",
            "type": "input",
            "source_block_id": "3139",
            "destination_block_id": "2684",
            "crane": "1",
            "start_time": "1.5",
            "end_time": "7.5"
        },
        {
            "id": "2101",
            "type": "input",
            "source_block_id": "3134",
            "destination_block_id": "1574",
            "crane": "0",
            "start_time": "315.20000076293945",
            "end_time": "340.20000076293945"
        },
        {
            "id": "2102",
            "type": "input",
            "source_block_id": "3034",
            "destination_block_id": "2249",
            "crane": "0",
            "start_time": "1100.2000007629395",
            "end_time": "1133.2000007629395"
        },
        {
            "id": "2103",
            "type": "input",
            "source_block_id": "3134",
            "destination_block_id": "1358",
            "crane": "0",
            "start_time": "74",
            "end_time": "80"
        },
        {
            "id": "2104",
            "type": "input",
            "source_block_id": "3078",
            "destination_block_id": "2753",
            "crane": "1",
            "start_time": "947.20000076293945",
            "end_time": "968.20000076293945"
        },
        {
            "id": "2105",
            "type": "input",
            "source_block_id": "3099",
            "destination_block_id": "2720",
            "crane": "1",
            "start_time": "1010.2000007629395",
            "end_time": "1052.2000007629395"
        },
        {
            "id": "2106",
            "type": "input",
            "source_block_id": "3005",
            "destination_block_id": "278",
            "crane": "0",
            "start_time": "371.20000076293945",
            "end_time": "412.20000076293945"
        },
        {
            "id": "2107",
            "type": "input",
            "source_block_id": "3116",
            "destination_block_id": "64",
            "crane": "0",
            "start_time": "480.20000076293945",
            "end_time": "502.20000076293945"
        },
        {
            "id": "2108",
            "type": "input",
            "source_block_id": "3105",
            "destination_block_id": "1238",
            "crane": "1",
            "start_time": "426.20000076293945",
            "end_time": "464.20000076293945"
        },
        {
            "id": "2109",
            "type": "input",
            "source_block_id": "3016",
            "destination_block_id": "2449",
            "crane": "0",
            "start_time": "254.20000076293945",
            "end_time": "271.20000076293945"
        },
        {
            "id": "2110",
            "type": "input",
            "source_block_id": "3045",
            "destination_block_id": "2084",
            "crane": "1",
            "start_time": "384.20000076293945",
            "end_time": "407.20000076293945"
        },
        {
            "id": "2111",
            "type": "input",
            "source_block_id": "3140",
            "destination_block_id": "1709",
            "crane": "0",
            "start_time": "637.20000076293945",
            "end_time": "657.20000076293945"
        },
        {
            "id": "2112",
            "type": "input",
            "source_block_id": "3007",
            "destination_block_id": "1463",
            "crane": "1",
            "start_time": "836.20000076293945",
            "end_time": "871.20000076293945"
        },
        {
            "id": "2113",
            "type": "input",
            "source_block_id": "3139",
            "destination_block_id": "1091",
            "crane": "1",
            "start_time": "161.20000076293945",
            "end_time": "198.20000076293945"
        },
        {
            "id": "2114",
            "type": "input",
            "source_block_id": "3066",
            "destination_block_id": "1465",
            "crane": "1",
            "start_time": "43.200000762939453",
            "end_time": "53.200000762939453"
        },
        {
            "id": "2115",
            "type": "input",
            "source_block_id": "3039",
            "destination_block_id": "1400",
            "crane": "1",
            "start_time": "349.20000076293945",
            "end_time": "360.20000076293945"
        },
        {
            "id": "2116",
            "type": "input",
            "source_block_id": "3095",
            "destination_block_id": "2549",
            "crane": "1",
            "start_time": "231.20000076293945",
            "end_time": "235.20000076293945"
        },
        {
            "id": "2117",
            "type": "input",
            "source_block_id": "3128",
            "destination_block_id": "1862",
            "crane": "0",
            "start_time": "918.20000076293945",
            "end_time": "939.20000076293945"
        },
        {
            "id": "2118",
            "type": "input",
            "source_block_id": "3129",
            "destination_block_id": "2600",
            "crane": "0",
            "start_time": "423.20000076293945",
            "end_time": "457.20000076293945"
        },
        {
            "id": "2119",
            "type": "input",
            "source_block_id": "3062",
            "destination_block_id": "344",
            "crane": "1",
            "start_time": "623.20000076293945",
            "end_time": "639.20000076293945"
        },
        {
            "id": "2120",
            "type": "input",
            "source_block_id": "3045",
            "destination_block_id": "2237",
            "crane": "1",
            "start_time": "567.20000076293945",
            "end_time": "591.20000076293945"
        },
        {
            "id": "2121",
            "type": "input",
            "source_block_id": "3128",
            "destination_block_id": "1343",
            "crane": "0",
            "start_time": "960.20000076293945",
            "end_time": "1008.2000007629395"
        },
        {
            "id": "2122",
            "type": "input",
            "source_block_id": "3042",
            "destination_block_id": "473",
            "crane": "1",
            "start_time": "71.200000762939453",
            "end_time": "84.200000762939453"
        },
        {
            "id": "2123",
            "type": "input",
            "source_block_id": "3128",
            "destination_block_id": "11",
            "crane": "0",
            "start_time": "83",
            "end_time": "95"
        },
        {
            "id": "2124",
            "type": "input",
            "source_block_id": "3045",
            "destination_block_id": "452",
            "crane": "0",
            "start_time": "723.20000076293945",
            "end_time": "744.20000076293945"
        },
        {
            "id": "2125",
            "type": "input",
            "source_block_id": "3036",
            "destination_block_id": "794",
            "crane": "0",
            "start_time": "538.20000076293945",
            "end_time": "544.20000076293945"
        },
        {
            "id": "2126",
            "type": "input",
            "source_block_id": "3039",
            "destination_block_id": "1925",
            "crane": "1",
            "start_time": "661.20000076293945",
            "end_time": "684.20000076293945"
        },
        {
            "id": "1087",
            "type": "output",
            "source_block_id": "1387",
            "destination_block_id": "3092",
            "crane": "1",
            "start_time": "110.20000076293945",
            "end_time": "143.20000076293945"
        },
        {
            "id": "2127",
            "type": "input",
            "source_block_id": "3090",
            "destination_block_id": "2959",
            "crane": "1",
            "start_time": "713.20000076293945",
            "end_time": "733.20000076293945"
        },
        {
            "id": "2128",
            "type": "input",
            "source_block_id": "3132",
            "destination_block_id": "1354",
            "crane": "0",
            "start_time": "300.20000076293945",
            "end_time": "305.20000076293945"
        },
        {
            "id": "2129",
            "type": "input",
            "source_block_id": "3074",
            "destination_block_id": "1874",
            "crane": "0",
            "start_time": "224.20000076293945",
            "end_time": "237.20000076293945"
        },
        {
            "id": "2130",
            "type": "input",
            "source_block_id": "3066",
            "destination_block_id": "638",
            "crane": "0",
            "start_time": "513.20000076293945",
            "end_time": "533.20000076293945"
        },
        {
            "id": "2131",
            "type": "input",
            "source_block_id": "3112",
            "destination_block_id": "53",
            "crane": "1",
            "start_time": "477.20000076293945",
            "end_time": "495.20000076293945"
        },
        {
            "id": "2132",
            "type": "input",
            "source_block_id": "3011",
            "destination_block_id": "1976",
            "crane": "0",
            "start_time": "131.20000076293945",
            "end_time": "138.20000076293945"
        },
        {
            "id": "2133",
            "type": "input",
            "source_block_id": "3039",
            "destination_block_id": "2930",
            "crane": "1",
            "start_time": "371.20000076293945",
            "end_time": "379.20000076293945"
        },
        {
            "id": "1414",
            "type": "output",
            "source_block_id": "2191",
            "destination_block_id": "3084",
            "crane": "1",
            "start_time": "695.20000076293945",
            "end_time": "710.20000076293945"
        },
        {
            "id": "2134",
            "type": "input",
            "source_block_id": "3134",
            "destination_block_id": "921",
            "crane": "0",
            "start_time": "147.20000076293945",
            "end_time": "156.20000076293945"
        },
        {
            "id": "2135",
            "type": "input",
            "source_block_id": "3090",
            "destination_block_id": "643",
            "crane": "1",
            "start_time": "756.20000076293945",
            "end_time": "786.20000076293945"
        },
        {
            "id": "2136",
            "type": "input",
            "source_block_id": "3039",
            "destination_block_id": "2420",
            "crane": "1",
            "start_time": "540.20000076293945",
            "end_time": "552.20000076293945"
        },
        {
            "id": "2137",
            "type": "input",
            "source_block_id": "3138",
            "destination_block_id": "2555",
            "crane": "0",
            "start_time": "633.20000076293945",
            "end_time": "635.20000076293945"
        },
        {
            "id": "2138",
            "type": "input",
            "source_block_id": "3009",
            "destination_block_id": "956",
            "crane": "1",
            "start_time": "315.20000076293945",
            "end_time": "330.20000076293945"
        },
        {
            "id": "2139",
            "type": "input",
            "source_block_id": "3034",
            "destination_block_id": "1322",
            "crane": "0",
            "start_time": "853.20000076293945",
            "end_time": "877.20000076293945"
        },
        {
            "id": "272",
            "type": "yard_movement",
            "source_block_id": "2416",
            "destination_block_id": "1502",
            "crane": "0",
            "start_time": "166.20000076293945",
            "end_time": "172.20000076293945"
        },
        {
            "id": "1876",
            "type": "output",
            "source_block_id": "1591",
            "destination_block_id": "3106",
            "crane": "0",
            "start_time": "805.20000076293945",
            "end_time": "836.20000076293945"
        },
        {
            "id": "650",
            "type": "output",
            "source_block_id": "1488",
            "destination_block_id": "3121",
            "crane": "1",
            "start_time": "743.20000076293945",
            "end_time": "747.20000076293945"
        },
        {
            "id": "1092",
            "type": "yard_movement",
            "source_block_id": "2878",
            "destination_block_id": "2310",
            "crane": "0",
            "start_time": "42",
            "end_time": "53"
        },
        {
            "id": "79",
            "type": "output",
            "source_block_id": "2031",
            "destination_block_id": "3106",
            "crane": "0",
            "start_time": "673.20000076293945",
            "end_time": "701.20000076293945"
        },
        {
            "id": "1718",
            "type": "output",
            "source_block_id": "496",
            "destination_block_id": "3083",
            "crane": "0",
            "start_time": "567.20000076293945",
            "end_time": "592.20000076293945"
        },
        {
            "id": "555",
            "type": "yard_movement",
            "source_block_id": "448",
            "destination_block_id": "2296",
            "crane": "1",
            "start_time": "890.20000076293945",
            "end_time": "924.20000076293945"
        },
        {
            "id": "1089",
            "type": "output",
            "source_block_id": "924",
            "destination_block_id": "3025",
            "crane": "0",
            "start_time": "752.20000076293945",
            "end_time": "766.20000076293945"
        },
        {
            "id": "57",
            "type": "output",
            "source_block_id": "2415",
            "destination_block_id": "3080",
            "crane": "1",
            "start_time": "1054.2000007629395",
            "end_time": "1088.2000007629395"
        },
        {
            "id": "315",
            "type": "output",
            "source_block_id": "2877",
            "destination_block_id": "3023",
            "crane": "1",
            "start_time": "307.20000076293945",
            "end_time": "308.20000076293945"
        },
        {
            "id": "101",
            "type": "output",
            "source_block_id": "447",
            "destination_block_id": "3068",
            "crane": "1",
            "start_time": "1098.2000007629395",
            "end_time": "1114.2000007629395"
        }
    ]
}
