{
    "objective": "9684.6690110490999",
    "BAP cost": "343",
    "CSP cost": "19026.3380220982",
    "products": [
        {
            "id": "2472",
            "type": "yard_movement",
            "source_block_id": "1413",
            "destination_block_id": "4958",
            "crane": "1",
            "start_time": "0",
            "end_time": "14"
        },
        {
            "id": "2334",
            "type": "yard_movement",
            "source_block_id": "4061",
            "destination_block_id": "2343",
            "crane": "0",
            "start_time": "0",
            "end_time": "7"
        },
        {
            "id": "1976",
            "type": "yard_movement",
            "source_block_id": "1824",
            "destination_block_id": "4028",
            "crane": "0",
            "start_time": "828.69999694824219",
            "end_time": "837.69999694824219"
        },
        {
            "id": "1292",
            "type": "yard_movement",
            "source_block_id": "1261",
            "destination_block_id": "4168",
            "crane": "0",
            "start_time": "23",
            "end_time": "54"
        },
        {
            "id": "2500",
            "type": "input",
            "source_block_id": "5016",
            "destination_block_id": "1553",
            "crane": "0",
            "start_time": "513.69999694824219",
            "end_time": "520.69999694824219"
        },
        {
            "id": "2501",
            "type": "input",
            "source_block_id": "5094",
            "destination_block_id": "1554",
            "crane": "0",
            "start_time": "593.69999694824219",
            "end_time": "629.69999694824219"
        },
        {
            "id": "2502",
            "type": "input",
            "source_block_id": "5014",
            "destination_block_id": "2403",
            "crane": "1",
            "start_time": "990.69999694824219",
            "end_time": "1014.6999969482422"
        },
        {
            "id": "2503",
            "type": "input",
            "source_block_id": "5046",
            "destination_block_id": "1983",
            "crane": "1",
            "start_time": "331.69999694824219",
            "end_time": "355.69999694824219"
        },
        {
            "id": "2504",
            "type": "input",
            "source_block_id": "5016",
            "destination_block_id": "3763",
            "crane": "0",
            "start_time": "657.69999694824219",
            "end_time": "673.69999694824219"
        },
        {
            "id": "2505",
            "type": "input",
            "source_block_id": "5143",
            "destination_block_id": "3664",
            "crane": "1",
            "start_time": "751.69999694824219",
            "end_time": "769.69999694824219"
        },
        {
            "id": "2506",
            "type": "input",
            "source_block_id": "5132",
            "destination_block_id": "157",
            "crane": "0",
            "start_time": "546.69999694824219",
            "end_time": "578.69999694824219"
        },
        {
            "id": "2227",
            "type": "output",
            "source_block_id": "4786",
            "destination_block_id": "5065",
            "crane": "1",
            "start_time": "688.69999694824219",
            "end_time": "712.69999694824219"
        },
        {
            "id": "2507",
            "type": "input",
            "source_block_id": "5139",
            "destination_block_id": "3514",
            "crane": "1",
            "start_time": "594.69999694824219",
            "end_time": "642.69999694824219"
        },
        {
            "id": "2508",
            "type": "input",
            "source_block_id": "5034",
            "destination_block_id": "1313",
            "crane": "0",
            "start_time": "140.69999694824219",
            "end_time": "146.69999694824219"
        },
        {
            "id": "2509",
            "type": "input",
            "source_block_id": "5062",
            "destination_block_id": "808",
            "crane": "0",
            "start_time": "305.69999694824219",
            "end_time": "324.69999694824219"
        },
        {
            "id": "2510",
            "type": "input",
            "source_block_id": "5066",
            "destination_block_id": "2523",
            "crane": "0",
            "start_time": "384.69999694824219",
            "end_time": "412.69999694824219"
        },
        {
            "id": "2511",
            "type": "input",
            "source_block_id": "5140",
            "destination_block_id": "873",
            "crane": "1",
            "start_time": "646.69999694824219",
            "end_time": "671.69999694824219"
        },
        {
            "id": "2512",
            "type": "input",
            "source_block_id": "5030",
            "destination_block_id": "557",
            "crane": "0",
            "start_time": "152.69999694824219",
            "end_time": "155.69999694824219"
        },
        {
            "id": "2513",
            "type": "input",
            "source_block_id": "5060",
            "destination_block_id": "333",
            "crane": "0",
            "start_time": "173.69999694824219",
            "end_time": "186.69999694824219"
        },
        {
            "id": "2514",
            "type": "input",
            "source_block_id": "5138",
            "destination_block_id": "3839",
            "crane": "0",
            "start_time": "226.69999694824219",
            "end_time": "244.69999694824219"
        },
        {
            "id": "2515",
            "type": "input",
            "source_block_id": "5037",
            "destination_block_id": "3998",
            "crane": "0",
            "start_time": "254.69999694824219",
            "end_time": "286.69999694824219"
        },
        {
            "id": "2516",
            "type": "input",
            "source_block_id": "5095",
            "destination_block_id": "3599",
            "crane": "1",
            "start_time": "783.69999694824219",
            "end_time": "810.69999694824219"
        },
        {
            "id": "2517",
            "type": "input",
            "source_block_id": "5066",
            "destination_block_id": "3343",
            "crane": "1",
            "start_time": "959.69999694824219",
            "end_time": "973.69999694824219"
        },
        {
            "id": "2518",
            "type": "input",
            "source_block_id": "5042",
            "destination_block_id": "3943",
            "crane": "0",
            "start_time": "428.69999694824219",
            "end_time": "446.69999694824219"
        },
        {
            "id": "2519",
            "type": "input",
            "source_block_id": "5105",
            "destination_block_id": "3223",
            "crane": "1",
            "start_time": "380.69999694824219",
            "end_time": "392.69999694824219"
        },
        {
            "id": "2520",
            "type": "input",
            "source_block_id": "5033",
            "destination_block_id": "4728",
            "crane": "1",
            "start_time": "249.69999694824219",
            "end_time": "279.69999694824219"
        },
        {
            "id": "2521",
            "type": "input",
            "source_block_id": "5072",
            "destination_block_id": "2553",
            "crane": "1",
            "start_time": "529.69999694824219",
            "end_time": "554.69999694824219"
        },
        {
            "id": "2522",
            "type": "input",
            "source_block_id": "5136",
            "destination_block_id": "2054",
            "crane": "0",
            "start_time": "799.69999694824219",
            "end_time": "810.69999694824219"
        },
        {
            "id": "2523",
            "type": "input",
            "source_block_id": "5074",
            "destination_block_id": "3903",
            "crane": "0",
            "start_time": "352.69999694824219",
            "end_time": "368.69999694824219"
        },
        {
            "id": "2524",
            "type": "input",
            "source_block_id": "5122",
            "destination_block_id": "4169",
            "crane": "0",
            "start_time": "921.69999694824219",
            "end_time": "955.69999694824219"
        },
        {
            "id": "2525",
            "type": "input",
            "source_block_id": "5089",
            "destination_block_id": "4564",
            "crane": "0",
            "start_time": "75.699996948242188",
            "end_time": "106.69999694824219"
        },
        {
            "id": "2526",
            "type": "input",
            "source_block_id": "5138",
            "destination_block_id": "2491",
            "crane": "0",
            "start_time": "688.69999694824219",
            "end_time": "737.69999694824219"
        },
        {
            "id": "1436",
            "type": "output",
            "source_block_id": "174",
            "destination_block_id": "5101",
            "crane": "1",
            "start_time": "162.19999694824219",
            "end_time": "182.19999694824219"
        },
        {
            "id": "2527",
            "type": "input",
            "source_block_id": "5039",
            "destination_block_id": "3564",
            "crane": "1",
            "start_time": "106",
            "end_time": "112"
        },
        {
            "id": "2528",
            "type": "input",
            "source_block_id": "5008",
            "destination_block_id": "574",
            "crane": "0",
            "start_time": "125.69999694824219",
            "end_time": "136.69999694824219"
        },
        {
            "id": "1828",
            "type": "output",
            "source_block_id": "1609",
            "destination_block_id": "5052",
            "crane": "0",
            "start_time": "334.69999694824219",
            "end_time": "341.69999694824219"
        },
        {
            "id": "2529",
            "type": "input",
            "source_block_id": "5075",
            "destination_block_id": "4228",
            "crane": "1",
            "start_time": "195.19999694824219",
            "end_time": "204.19999694824219"
        },
        {
            "id": "2530",
            "type": "input",
            "source_block_id": "5088",
            "destination_block_id": "188",
            "crane": "1",
            "start_time": "298.69999694824219",
            "end_time": "304.69999694824219"
        },
        {
            "id": "2531",
            "type": "input",
            "source_block_id": "5143",
            "destination_block_id": "314",
            "crane": "1",
            "start_time": "1038.6999969482422",
            "end_time": "1076.6999969482422"
        },
        {
            "id": "2532",
            "type": "input",
            "source_block_id": "5077",
            "destination_block_id": "954",
            "crane": "1",
            "start_time": "718.69999694824219",
            "end_time": "735.69999694824219"
        },
        {
            "id": "2533",
            "type": "input",
            "source_block_id": "5133",
            "destination_block_id": "3158",
            "crane": "0",
            "start_time": "748.69999694824219",
            "end_time": "767.69999694824219"
        },
        {
            "id": "2456",
            "type": "output",
            "source_block_id": "1828",
            "destination_block_id": "5100",
            "crane": "0",
            "start_time": "1002.6999969482422",
            "end_time": "1036.6999969482422"
        },
        {
            "id": "2534",
            "type": "input",
            "source_block_id": "5129",
            "destination_block_id": "4544",
            "crane": "1",
            "start_time": "437.69999694824219",
            "end_time": "479.69999694824219"
        },
        {
            "id": "2535",
            "type": "input",
            "source_block_id": "5011",
            "destination_block_id": "1043",
            "crane": "0",
            "start_time": "492.69999694824219",
            "end_time": "508.69999694824219"
        },
        {
            "id": "2459",
            "type": "output",
            "source_block_id": "2737",
            "destination_block_id": "5080",
            "crane": "1",
            "start_time": "358.69999694824219",
            "end_time": "369.69999694824219"
        },
        {
            "id": "2536",
            "type": "input",
            "source_block_id": "5037",
            "destination_block_id": "2704",
            "crane": "1",
            "start_time": "129.19999694824219",
            "end_time": "152.19999694824219"
        },
        {
            "id": "2537",
            "type": "input",
            "source_block_id": "5072",
            "destination_block_id": "1189",
            "crane": "1",
            "start_time": "307.69999694824219",
            "end_time": "312.69999694824219"
        },
        {
            "id": "2538",
            "type": "input",
            "source_block_id": "5090",
            "destination_block_id": "1057",
            "crane": "1",
            "start_time": "897.69999694824219",
            "end_time": "930.69999694824219"
        },
        {
            "id": "2539",
            "type": "input",
            "source_block_id": "5005",
            "destination_block_id": "1289",
            "crane": "1",
            "start_time": "486.69999694824219",
            "end_time": "501.69999694824219"
        },
        {
            "id": "1849",
            "type": "yard_movement",
            "source_block_id": "1412",
            "destination_block_id": "4498",
            "crane": "1",
            "start_time": "58",
            "end_time": "75"
        },
        {
            "id": "1420",
            "type": "output",
            "source_block_id": "4060",
            "destination_block_id": "5085",
            "crane": "1",
            "start_time": "847.69999694824219",
            "end_time": "876.69999694824219"
        },
        {
            "id": "1972",
            "type": "yard_movement",
            "source_block_id": "1823",
            "destination_block_id": "143",
            "crane": "1",
            "start_time": "817.69999694824219",
            "end_time": "831.69999694824219"
        },
        {
            "id": "222",
            "type": "output",
            "source_block_id": "1260",
            "destination_block_id": "5022",
            "crane": "0",
            "start_time": "200.69999694824219",
            "end_time": "208.69999694824219"
        },
        {
            "id": "1346",
            "type": "yard_movement",
            "source_block_id": "1411",
            "destination_block_id": "1419",
            "crane": "1",
            "start_time": "317.69999694824219",
            "end_time": "320.69999694824219"
        },
        {
            "id": "1946",
            "type": "yard_movement",
            "source_block_id": "1822",
            "destination_block_id": "843",
            "crane": "0",
            "start_time": "820.69999694824219",
            "end_time": "824.69999694824219"
        },
        {
            "id": "1297",
            "type": "output",
            "source_block_id": "1410",
            "destination_block_id": "5087",
            "crane": "1",
            "start_time": "404.69999694824219",
            "end_time": "419.69999694824219"
        },
        {
            "id": "1403",
            "type": "output",
            "source_block_id": "1821",
            "destination_block_id": "5053",
            "crane": "0",
            "start_time": "852.69999694824219",
            "end_time": "865.69999694824219"
        },
        {
            "id": "44",
            "type": "output",
            "source_block_id": "1820",
            "destination_block_id": "5024",
            "crane": "0",
            "start_time": "974.69999694824219",
            "end_time": "982.69999694824219"
        }
    ]
}
