{
    "objective": "940.61158309892858",
    "BAP cost": "0",
    "CSP cost": "1881.2231661978576",
    "products": [
        {
            "id": "300",
            "type": "input",
            "source_block_id": "1141",
            "destination_block_id": "899",
            "crane": "1",
            "start_time": "1.5",
            "end_time": "2.5"
        },
        {
            "id": "301",
            "type": "input",
            "source_block_id": "1138",
            "destination_block_id": "851",
            "crane": "0",
            "start_time": "33.699999809265137",
            "end_time": "35.699999809265137"
        },
        {
            "id": "302",
            "type": "input",
            "source_block_id": "1094",
            "destination_block_id": "94",
            "crane": "1",
            "start_time": "20.5",
            "end_time": "22.5"
        },
        {
            "id": "303",
            "type": "input",
            "source_block_id": "1050",
            "destination_block_id": "123",
            "crane": "1",
            "start_time": "161.19999694824219",
            "end_time": "164.19999694824219"
        },
        {
            "id": "304",
            "type": "input",
            "source_block_id": "1012",
            "destination_block_id": "108",
            "crane": "0",
            "start_time": "421.69999980926514",
            "end_time": "424.69999980926514"
        },
        {
            "id": "305",
            "type": "input",
            "source_block_id": "1030",
            "destination_block_id": "13",
            "crane": "0",
            "start_time": "15.699999809265137",
            "end_time": "16.699999809265137"
        },
        {
            "id": "306",
            "type": "input",
            "source_block_id": "1114",
            "destination_block_id": "250",
            "crane": "0",
            "start_time": "53.699999809265137",
            "end_time": "54.699999809265137"
        },
        {
            "id": "141",
            "type": "output",
            "source_block_id": "507",
            "destination_block_id": "1109",
            "crane": "0",
            "start_time": "333.69999980926514",
            "end_time": "376.69999980926514"
        },
        {
            "id": "307",
            "type": "input",
            "source_block_id": "1125",
            "destination_block_id": "499",
            "crane": "1",
            "start_time": "31.5",
            "end_time": "32.5"
        },
        {
            "id": "308",
            "type": "input",
            "source_block_id": "1134",
            "destination_block_id": "600",
            "crane": "0",
            "start_time": "43.699999809265137",
            "end_time": "46.699999809265137"
        },
        {
            "id": "309",
            "type": "input",
            "source_block_id": "1123",
            "destination_block_id": "399",
            "crane": "1",
            "start_time": "33.5",
            "end_time": "35.5"
        },
        {
            "id": "310",
            "type": "input",
            "source_block_id": "1011",
            "destination_block_id": "902",
            "crane": "0",
            "start_time": "38.699999809265137",
            "end_time": "40.699999809265137"
        },
        {
            "id": "311",
            "type": "input",
            "source_block_id": "1039",
            "destination_block_id": "968",
            "crane": "0",
            "start_time": "77.699999809265137",
            "end_time": "78.699999809265137"
        },
        {
            "id": "312",
            "type": "input",
            "source_block_id": "1105",
            "destination_block_id": "98",
            "crane": "1",
            "start_time": "42.5",
            "end_time": "44.5"
        },
        {
            "id": "313",
            "type": "input",
            "source_block_id": "1112",
            "destination_block_id": "150",
            "crane": "0",
            "start_time": "55.699999809265137",
            "end_time": "56.699999809265137"
        },
        {
            "id": "314",
            "type": "input",
            "source_block_id": "1112",
            "destination_block_id": "101",
            "crane": "0",
            "start_time": "57.699999809265137",
            "end_time": "59.699999809265137"
        },
        {
            "id": "315",
            "type": "input",
            "source_block_id": "1103",
            "destination_block_id": "948",
            "crane": "1",
            "start_time": "70.799999237060547",
            "end_time": "72.799999237060547"
        },
        {
            "id": "316",
            "type": "input",
            "source_block_id": "1088",
            "destination_block_id": "43",
            "crane": "1",
            "start_time": "49.799999237060547",
            "end_time": "50.799999237060547"
        },
        {
            "id": "63",
            "type": "output",
            "source_block_id": "924",
            "destination_block_id": "1131",
            "crane": "1",
            "start_time": "247.69999980926514",
            "end_time": "273.69999980926514"
        },
        {
            "id": "317",
            "type": "input",
            "source_block_id": "1143",
            "destination_block_id": "799",
            "crane": "1",
            "start_time": "379.69999980926514",
            "end_time": "383.69999980926514"
        },
        {
            "id": "318",
            "type": "input",
            "source_block_id": "1008",
            "destination_block_id": "1",
            "crane": "0",
            "start_time": "105.69999980926514",
            "end_time": "107.69999980926514"
        },
        {
            "id": "319",
            "type": "input",
            "source_block_id": "1042",
            "destination_block_id": "19",
            "crane": "0",
            "start_time": "272.69999980926514",
            "end_time": "273.69999980926514"
        },
        {
            "id": "320",
            "type": "input",
            "source_block_id": "1018",
            "destination_block_id": "60",
            "crane": "0",
            "start_time": "284.69999980926514",
            "end_time": "286.69999980926514"
        },
        {
            "id": "321",
            "type": "input",
            "source_block_id": "1012",
            "destination_block_id": "152",
            "crane": "0",
            "start_time": "118.69999980926514",
            "end_time": "122.69999980926514"
        },
        {
            "id": "322",
            "type": "input",
            "source_block_id": "1029",
            "destination_block_id": "964",
            "crane": "0",
            "start_time": "83.699999809265137",
            "end_time": "84.699999809265137"
        },
        {
            "id": "323",
            "type": "input",
            "source_block_id": "1116",
            "destination_block_id": "252",
            "crane": "0",
            "start_time": "433.69999980926514",
            "end_time": "436.69999980926514"
        },
        {
            "id": "324",
            "type": "input",
            "source_block_id": "1089",
            "destination_block_id": "992",
            "crane": "1",
            "start_time": "77.799999237060547",
            "end_time": "78.799999237060547"
        },
        {
            "id": "325",
            "type": "input",
            "source_block_id": "1097",
            "destination_block_id": "894",
            "crane": "1",
            "start_time": "83.799999237060547",
            "end_time": "86.799999237060547"
        },
        {
            "id": "256",
            "type": "output",
            "source_block_id": "278",
            "destination_block_id": "1038",
            "crane": "1",
            "start_time": "137.19999694824219",
            "end_time": "147.19999694824219"
        },
        {
            "id": "326",
            "type": "input",
            "source_block_id": "1078",
            "destination_block_id": "38",
            "crane": "1",
            "start_time": "120.19999694824219",
            "end_time": "121.19999694824219"
        },
        {
            "id": "269",
            "type": "output",
            "source_block_id": "302",
            "destination_block_id": "1135",
            "crane": "1",
            "start_time": "325.69999980926514",
            "end_time": "373.69999980926514"
        },
        {
            "id": "327",
            "type": "input",
            "source_block_id": "1112",
            "destination_block_id": "50",
            "crane": "0",
            "start_time": "99.699999809265137",
            "end_time": "102.69999980926514"
        },
        {
            "id": "159",
            "type": "output",
            "source_block_id": "183",
            "destination_block_id": "1010",
            "crane": "0",
            "start_time": "227.69999980926514",
            "end_time": "256.69999980926514"
        },
        {
            "id": "169",
            "type": "output",
            "source_block_id": "123",
            "destination_block_id": "1111",
            "crane": "1",
            "start_time": "164.19999694824219",
            "end_time": "191.19999694824219"
        },
        {
            "id": "328",
            "type": "input",
            "source_block_id": "1046",
            "destination_block_id": "221",
            "crane": "1",
            "start_time": "151.19999694824219",
            "end_time": "156.19999694824219"
        },
        {
            "id": "228",
            "type": "output",
            "source_block_id": "393",
            "destination_block_id": "1119",
            "crane": "1",
            "start_time": "100.19999694824219",
            "end_time": "107.19999694824219"
        },
        {
            "id": "254",
            "type": "output",
            "source_block_id": "550",
            "destination_block_id": "1085",
            "crane": "0",
            "start_time": "167.69999980926514",
            "end_time": "208.69999980926514"
        },
        {
            "id": "329",
            "type": "input",
            "source_block_id": "1006",
            "destination_block_id": "203",
            "crane": "0",
            "start_time": "108.69999980926514",
            "end_time": "113.69999980926514"
        },
        {
            "id": "330",
            "type": "input",
            "source_block_id": "1012",
            "destination_block_id": "208",
            "crane": "0",
            "start_time": "126.69999980926514",
            "end_time": "131.69999980926514"
        },
        {
            "id": "331",
            "type": "input",
            "source_block_id": "1088",
            "destination_block_id": "41",
            "crane": "1",
            "start_time": "115.19999694824219",
            "end_time": "117.19999694824219"
        },
        {
            "id": "332",
            "type": "input",
            "source_block_id": "1074",
            "destination_block_id": "89",
            "crane": "1",
            "start_time": "123.19999694824219",
            "end_time": "126.19999694824219"
        },
        {
            "id": "333",
            "type": "input",
            "source_block_id": "1030",
            "destination_block_id": "11",
            "crane": "0",
            "start_time": "137.69999980926514",
            "end_time": "140.69999980926514"
        },
        {
            "id": "0",
            "type": "output",
            "source_block_id": "930",
            "destination_block_id": "1071",
            "crane": "1",
            "start_time": "233.69999980926514",
            "end_time": "237.69999980926514"
        },
        {
            "id": "334",
            "type": "input",
            "source_block_id": "1128",
            "destination_block_id": "354",
            "crane": "0",
            "start_time": "325.69999980926514",
            "end_time": "330.69999980926514"
        },
        {
            "id": "335",
            "type": "input",
            "source_block_id": "1143",
            "destination_block_id": "748",
            "crane": "1",
            "start_time": "208.19999694824219",
            "end_time": "213.19999694824219"
        },
        {
            "id": "275",
            "type": "output",
            "source_block_id": "194",
            "destination_block_id": "1047",
            "crane": "1",
            "start_time": "283.69999980926514",
            "end_time": "305.69999980926514"
        },
        {
            "id": "336",
            "type": "input",
            "source_block_id": "1089",
            "destination_block_id": "943",
            "crane": "0",
            "start_time": "210.69999980926514",
            "end_time": "212.69999980926514"
        },
        {
            "id": "337",
            "type": "input",
            "source_block_id": "1016",
            "destination_block_id": "212",
            "crane": "0",
            "start_time": "144.69999980926514",
            "end_time": "149.69999980926514"
        },
        {
            "id": "338",
            "type": "input",
            "source_block_id": "1014",
            "destination_block_id": "254",
            "crane": "0",
            "start_time": "155.69999980926514",
            "end_time": "161.69999980926514"
        },
        {
            "id": "339",
            "type": "input",
            "source_block_id": "1129",
            "destination_block_id": "649",
            "crane": "1",
            "start_time": "200.19999694824219",
            "end_time": "201.19999694824219"
        }
    ]
}
