{
    "objective": "8831.301675128394",
    "BAP cost": "265",
    "CSP cost": "17397.603350256781",
    "products": [
        {
            "id": "635",
            "type": "yard_movement",
            "source_block_id": "601",
            "destination_block_id": "1362",
            "crane": "1",
            "start_time": "117.5",
            "end_time": "129.5"
        },
        {
            "id": "592",
            "type": "yard_movement",
            "source_block_id": "2428",
            "destination_block_id": "2597",
            "crane": "1",
            "start_time": "40.099999904632568",
            "end_time": "41.099999904632568"
        },
        {
            "id": "567",
            "type": "yard_movement",
            "source_block_id": "634",
            "destination_block_id": "1122",
            "crane": "0",
            "start_time": "61.099999904632568",
            "end_time": "68.099999904632568"
        },
        {
            "id": "398",
            "type": "yard_movement",
            "source_block_id": "1751",
            "destination_block_id": "1348",
            "crane": "0",
            "start_time": "229.5",
            "end_time": "253.5"
        },
        {
            "id": "557",
            "type": "yard_movement",
            "source_block_id": "1592",
            "destination_block_id": "1518",
            "crane": "0",
            "start_time": "863.5",
            "end_time": "883.5"
        },
        {
            "id": "787",
            "type": "input",
            "source_block_id": "2719",
            "destination_block_id": "2079",
            "crane": "0",
            "start_time": "6.0999999046325684",
            "end_time": "37.099999904632568"
        },
        {
            "id": "788",
            "type": "input",
            "source_block_id": "2723",
            "destination_block_id": "2416",
            "crane": "1",
            "start_time": "3.0999999046325684",
            "end_time": "32.099999904632568"
        },
        {
            "id": "789",
            "type": "input",
            "source_block_id": "2727",
            "destination_block_id": "1",
            "crane": "0",
            "start_time": "311.5",
            "end_time": "325.5"
        },
        {
            "id": "790",
            "type": "input",
            "source_block_id": "2637",
            "destination_block_id": "353",
            "crane": "0",
            "start_time": "77.099999904632568",
            "end_time": "82.099999904632568"
        },
        {
            "id": "791",
            "type": "input",
            "source_block_id": "2720",
            "destination_block_id": "2412",
            "crane": "1",
            "start_time": "49.099999904632568",
            "end_time": "57.099999904632568"
        },
        {
            "id": "792",
            "type": "input",
            "source_block_id": "2728",
            "destination_block_id": "1003",
            "crane": "1",
            "start_time": "193.5",
            "end_time": "203.5"
        },
        {
            "id": "793",
            "type": "input",
            "source_block_id": "2728",
            "destination_block_id": "168",
            "crane": "1",
            "start_time": "85.5",
            "end_time": "99.5"
        },
        {
            "id": "499",
            "type": "output",
            "source_block_id": "1945",
            "destination_block_id": "2673",
            "crane": "1",
            "start_time": "378.5",
            "end_time": "397.5"
        },
        {
            "id": "794",
            "type": "input",
            "source_block_id": "2655",
            "destination_block_id": "1893",
            "crane": "0",
            "start_time": "119.5",
            "end_time": "133.5"
        },
        {
            "id": "795",
            "type": "input",
            "source_block_id": "2639",
            "destination_block_id": "2282",
            "crane": "0",
            "start_time": "88.099999904632568",
            "end_time": "102.09999990463257"
        },
        {
            "id": "796",
            "type": "input",
            "source_block_id": "2653",
            "destination_block_id": "977",
            "crane": "0",
            "start_time": "759.5",
            "end_time": "766.5"
        },
        {
            "id": "797",
            "type": "input",
            "source_block_id": "2702",
            "destination_block_id": "812",
            "crane": "1",
            "start_time": "888.5",
            "end_time": "901.5"
        },
        {
            "id": "798",
            "type": "input",
            "source_block_id": "2674",
            "destination_block_id": "1935",
            "crane": "0",
            "start_time": "138.5",
            "end_time": "159.5"
        },
        {
            "id": "799",
            "type": "input",
            "source_block_id": "2691",
            "destination_block_id": "116",
            "crane": "0",
            "start_time": "49.099999904632568",
            "end_time": "58.099999904632568"
        },
        {
            "id": "800",
            "type": "input",
            "source_block_id": "2631",
            "destination_block_id": "2533",
            "crane": "0",
            "start_time": "171.5",
            "end_time": "186.5"
        },
        {
            "id": "801",
            "type": "input",
            "source_block_id": "2630",
            "destination_block_id": "504",
            "crane": "1",
            "start_time": "227.5",
            "end_time": "256.5"
        },
        {
            "id": "802",
            "type": "input",
            "source_block_id": "2698",
            "destination_block_id": "1131",
            "crane": "1",
            "start_time": "688.5",
            "end_time": "707.5"
        },
        {
            "id": "803",
            "type": "input",
            "source_block_id": "2667",
            "destination_block_id": "2316",
            "crane": "0",
            "start_time": "201.5",
            "end_time": "215.5"
        },
        {
            "id": "684",
            "type": "output",
            "source_block_id": "1550",
            "destination_block_id": "2640",
            "crane": "0",
            "start_time": "259.5",
            "end_time": "283.5"
        },
        {
            "id": "804",
            "type": "input",
            "source_block_id": "2670",
            "destination_block_id": "2328",
            "crane": "1",
            "start_time": "271.5",
            "end_time": "282.5"
        },
        {
            "id": "805",
            "type": "input",
            "source_block_id": "2654",
            "destination_block_id": "217",
            "crane": "1",
            "start_time": "285.5",
            "end_time": "299.5"
        },
        {
            "id": "806",
            "type": "input",
            "source_block_id": "2682",
            "destination_block_id": "888",
            "crane": "1",
            "start_time": "347.5",
            "end_time": "372.5"
        },
        {
            "id": "807",
            "type": "input",
            "source_block_id": "2703",
            "destination_block_id": "237",
            "crane": "1",
            "start_time": "308.5",
            "end_time": "321.5"
        },
        {
            "id": "808",
            "type": "input",
            "source_block_id": "2670",
            "destination_block_id": "2544",
            "crane": "1",
            "start_time": "64.5",
            "end_time": "68.5"
        },
        {
            "id": "809",
            "type": "input",
            "source_block_id": "2636",
            "destination_block_id": "2439",
            "crane": "0",
            "start_time": "782.5",
            "end_time": "810.5"
        },
        {
            "id": "810",
            "type": "input",
            "source_block_id": "2671",
            "destination_block_id": "1712",
            "crane": "1",
            "start_time": "331.5",
            "end_time": "341.5"
        },
        {
            "id": "811",
            "type": "input",
            "source_block_id": "2661",
            "destination_block_id": "876",
            "crane": "0",
            "start_time": "342.5",
            "end_time": "359.5"
        },
        {
            "id": "812",
            "type": "input",
            "source_block_id": "2641",
            "destination_block_id": "143",
            "crane": "1",
            "start_time": "451.5",
            "end_time": "472.5"
        },
        {
            "id": "813",
            "type": "input",
            "source_block_id": "2630",
            "destination_block_id": "2291",
            "crane": "0",
            "start_time": "288.5",
            "end_time": "290.5"
        },
        {
            "id": "416",
            "type": "output",
            "source_block_id": "1481",
            "destination_block_id": "2695",
            "crane": "1",
            "start_time": "484.5",
            "end_time": "502.5"
        },
        {
            "id": "814",
            "type": "input",
            "source_block_id": "2728",
            "destination_block_id": "1248",
            "crane": "1",
            "start_time": "412.5",
            "end_time": "443.5"
        },
        {
            "id": "154",
            "type": "output",
            "source_block_id": "1915",
            "destination_block_id": "2680",
            "crane": "1",
            "start_time": "912.5",
            "end_time": "919.5"
        },
        {
            "id": "815",
            "type": "input",
            "source_block_id": "2719",
            "destination_block_id": "1547",
            "crane": "0",
            "start_time": "378.5",
            "end_time": "408.5"
        },
        {
            "id": "816",
            "type": "input",
            "source_block_id": "2662",
            "destination_block_id": "1132",
            "crane": "0",
            "start_time": "743.5",
            "end_time": "752.5"
        },
        {
            "id": "817",
            "type": "input",
            "source_block_id": "2724",
            "destination_block_id": "687",
            "crane": "1",
            "start_time": "515.5",
            "end_time": "524.5"
        },
        {
            "id": "818",
            "type": "input",
            "source_block_id": "2698",
            "destination_block_id": "1548",
            "crane": "1",
            "start_time": "536.5",
            "end_time": "543.5"
        },
        {
            "id": "819",
            "type": "input",
            "source_block_id": "2641",
            "destination_block_id": "2492",
            "crane": "0",
            "start_time": "536.5",
            "end_time": "551.5"
        },
        {
            "id": "820",
            "type": "input",
            "source_block_id": "2667",
            "destination_block_id": "751",
            "crane": "0",
            "start_time": "521.5",
            "end_time": "531.5"
        },
        {
            "id": "821",
            "type": "input",
            "source_block_id": "2661",
            "destination_block_id": "2206",
            "crane": "0",
            "start_time": "488.5",
            "end_time": "501.5"
        },
        {
            "id": "822",
            "type": "input",
            "source_block_id": "2645",
            "destination_block_id": "2451",
            "crane": "0",
            "start_time": "621.5",
            "end_time": "636.5"
        },
        {
            "id": "47",
            "type": "output",
            "source_block_id": "950",
            "destination_block_id": "2690",
            "crane": "1",
            "start_time": "557.5",
            "end_time": "573.5"
        },
        {
            "id": "823",
            "type": "input",
            "source_block_id": "2675",
            "destination_block_id": "272",
            "crane": "0",
            "start_time": "514.5",
            "end_time": "519.5"
        },
        {
            "id": "824",
            "type": "input",
            "source_block_id": "2707",
            "destination_block_id": "2507",
            "crane": "0",
            "start_time": "843.5",
            "end_time": "855.5"
        },
        {
            "id": "825",
            "type": "input",
            "source_block_id": "2702",
            "destination_block_id": "2446",
            "crane": "1",
            "start_time": "598.5",
            "end_time": "610.5"
        },
        {
            "id": "826",
            "type": "input",
            "source_block_id": "2631",
            "destination_block_id": "1744",
            "crane": "0",
            "start_time": "566.5",
            "end_time": "597.5"
        },
        {
            "id": "456",
            "type": "output",
            "source_block_id": "600",
            "destination_block_id": "2704",
            "crane": "1",
            "start_time": "830.5",
            "end_time": "850.5"
        },
        {
            "id": "440",
            "type": "output",
            "source_block_id": "2427",
            "destination_block_id": "2626",
            "crane": "1",
            "start_time": "621.5",
            "end_time": "652.5"
        },
        {
            "id": "558",
            "type": "yard_movement",
            "source_block_id": "633",
            "destination_block_id": "769",
            "crane": "0",
            "start_time": "677.5",
            "end_time": "685.5"
        },
        {
            "id": "45",
            "type": "output",
            "source_block_id": "1750",
            "destination_block_id": "2726",
            "crane": "1",
            "start_time": "723.5",
            "end_time": "758.5"
        },
        {
            "id": "371",
            "type": "output",
            "source_block_id": "1591",
            "destination_block_id": "2694",
            "crane": "1",
            "start_time": "161.5",
            "end_time": "191.5"
        },
        {
            "id": "359",
            "type": "yard_movement",
            "source_block_id": "632",
            "destination_block_id": "1837",
            "crane": "0",
            "start_time": "888.5",
            "end_time": "895.5"
        },
        {
            "id": "340",
            "type": "yard_movement",
            "source_block_id": "631",
            "destination_block_id": "1578",
            "crane": "0",
            "start_time": "903.5",
            "end_time": "924.5"
        },
        {
            "id": "34",
            "type": "output",
            "source_block_id": "630",
            "destination_block_id": "2696",
            "crane": "1",
            "start_time": "931.5",
            "end_time": "944.5"
        }
    ]
}
