{
    "objective": "7092.0795808876583",
    "BAP cost": "1702",
    "CSP cost": "12482.159161775317",
    "products": [
        {
            "id": "419",
            "type": "yard_movement",
            "source_block_id": "349",
            "destination_block_id": "124",
            "crane": "0",
            "start_time": "0",
            "end_time": "3"
        },
        {
            "id": "417",
            "type": "yard_movement",
            "source_block_id": "440",
            "destination_block_id": "733",
            "crane": "1",
            "start_time": "0",
            "end_time": "4"
        },
        {
            "id": "226",
            "type": "yard_movement",
            "source_block_id": "74",
            "destination_block_id": "44",
            "crane": "0",
            "start_time": "12",
            "end_time": "22"
        },
        {
            "id": "258",
            "type": "yard_movement",
            "source_block_id": "53",
            "destination_block_id": "40",
            "crane": "0",
            "start_time": "25",
            "end_time": "29"
        },
        {
            "id": "273",
            "type": "yard_movement",
            "source_block_id": "443",
            "destination_block_id": "17",
            "crane": "0",
            "start_time": "38",
            "end_time": "55"
        },
        {
            "id": "491",
            "type": "yard_movement",
            "source_block_id": "542",
            "destination_block_id": "80",
            "crane": "0",
            "start_time": "62",
            "end_time": "68"
        },
        {
            "id": "525",
            "type": "input",
            "source_block_id": "823",
            "destination_block_id": "74",
            "crane": "1",
            "start_time": "38",
            "end_time": "47"
        },
        {
            "id": "526",
            "type": "input",
            "source_block_id": "795",
            "destination_block_id": "49",
            "crane": "1",
            "start_time": "57",
            "end_time": "67"
        },
        {
            "id": "527",
            "type": "input",
            "source_block_id": "807",
            "destination_block_id": "73",
            "crane": "1",
            "start_time": "76",
            "end_time": "77"
        },
        {
            "id": "528",
            "type": "input",
            "source_block_id": "759",
            "destination_block_id": "467",
            "crane": "0",
            "start_time": "77",
            "end_time": "81"
        },
        {
            "id": "529",
            "type": "input",
            "source_block_id": "795",
            "destination_block_id": "536",
            "crane": "1",
            "start_time": "87",
            "end_time": "105"
        },
        {
            "id": "530",
            "type": "input",
            "source_block_id": "785",
            "destination_block_id": "301",
            "crane": "0",
            "start_time": "121",
            "end_time": "137"
        },
        {
            "id": "531",
            "type": "input",
            "source_block_id": "799",
            "destination_block_id": "50",
            "crane": "1",
            "start_time": "125",
            "end_time": "135"
        },
        {
            "id": "532",
            "type": "input",
            "source_block_id": "800",
            "destination_block_id": "719",
            "crane": "1",
            "start_time": "143",
            "end_time": "153"
        },
        {
            "id": "533",
            "type": "input",
            "source_block_id": "770",
            "destination_block_id": "51",
            "crane": "0",
            "start_time": "151",
            "end_time": "159"
        },
        {
            "id": "534",
            "type": "input",
            "source_block_id": "783",
            "destination_block_id": "718",
            "crane": "0",
            "start_time": "169",
            "end_time": "170"
        },
        {
            "id": "535",
            "type": "input",
            "source_block_id": "807",
            "destination_block_id": "300",
            "crane": "1",
            "start_time": "169",
            "end_time": "194"
        },
        {
            "id": "536",
            "type": "input",
            "source_block_id": "812",
            "destination_block_id": "377",
            "crane": "0",
            "start_time": "196",
            "end_time": "198"
        },
        {
            "id": "537",
            "type": "input",
            "source_block_id": "766",
            "destination_block_id": "52",
            "crane": "1",
            "start_time": "201",
            "end_time": "211"
        },
        {
            "id": "538",
            "type": "input",
            "source_block_id": "756",
            "destination_block_id": "48",
            "crane": "0",
            "start_time": "204",
            "end_time": "218"
        },
        {
            "id": "539",
            "type": "input",
            "source_block_id": "778",
            "destination_block_id": "749",
            "crane": "1",
            "start_time": "224",
            "end_time": "235"
        },
        {
            "id": "540",
            "type": "input",
            "source_block_id": "784",
            "destination_block_id": "306",
            "crane": "0",
            "start_time": "230",
            "end_time": "244"
        },
        {
            "id": "541",
            "type": "input",
            "source_block_id": "768",
            "destination_block_id": "379",
            "crane": "0",
            "start_time": "250",
            "end_time": "257"
        },
        {
            "id": "542",
            "type": "input",
            "source_block_id": "808",
            "destination_block_id": "380",
            "crane": "0",
            "start_time": "260",
            "end_time": "263"
        },
        {
            "id": "543",
            "type": "input",
            "source_block_id": "810",
            "destination_block_id": "1",
            "crane": "0",
            "start_time": "265",
            "end_time": "268"
        },
        {
            "id": "544",
            "type": "input",
            "source_block_id": "800",
            "destination_block_id": "54",
            "crane": "1",
            "start_time": "245",
            "end_time": "251"
        },
        {
            "id": "545",
            "type": "input",
            "source_block_id": "789",
            "destination_block_id": "368",
            "crane": "1",
            "start_time": "261",
            "end_time": "267"
        },
        {
            "id": "546",
            "type": "input",
            "source_block_id": "823",
            "destination_block_id": "648",
            "crane": "1",
            "start_time": "272",
            "end_time": "281"
        },
        {
            "id": "547",
            "type": "input",
            "source_block_id": "789",
            "destination_block_id": "599",
            "crane": "1",
            "start_time": "283",
            "end_time": "289"
        },
        {
            "id": "548",
            "type": "input",
            "source_block_id": "766",
            "destination_block_id": "598",
            "crane": "0",
            "start_time": "283",
            "end_time": "300"
        },
        {
            "id": "549",
            "type": "input",
            "source_block_id": "807",
            "destination_block_id": "374",
            "crane": "1",
            "start_time": "302",
            "end_time": "305"
        },
        {
            "id": "550",
            "type": "input",
            "source_block_id": "785",
            "destination_block_id": "710",
            "crane": "1",
            "start_time": "313",
            "end_time": "318"
        },
        {
            "id": "551",
            "type": "input",
            "source_block_id": "764",
            "destination_block_id": "378",
            "crane": "0",
            "start_time": "318",
            "end_time": "324"
        },
        {
            "id": "552",
            "type": "input",
            "source_block_id": "758",
            "destination_block_id": "359",
            "crane": "1",
            "start_time": "328",
            "end_time": "344"
        },
        {
            "id": "390",
            "type": "output",
            "source_block_id": "363",
            "destination_block_id": "777",
            "crane": "1",
            "start_time": "346",
            "end_time": "355"
        },
        {
            "id": "439",
            "type": "output",
            "source_block_id": "24",
            "destination_block_id": "753",
            "crane": "0",
            "start_time": "336",
            "end_time": "346"
        },
        {
            "id": "553",
            "type": "input",
            "source_block_id": "789",
            "destination_block_id": "671",
            "crane": "1",
            "start_time": "361",
            "end_time": "366"
        },
        {
            "id": "412",
            "type": "output",
            "source_block_id": "353",
            "destination_block_id": "809",
            "crane": "0",
            "start_time": "363",
            "end_time": "371"
        },
        {
            "id": "554",
            "type": "input",
            "source_block_id": "800",
            "destination_block_id": "3",
            "crane": "0",
            "start_time": "374",
            "end_time": "397"
        },
        {
            "id": "555",
            "type": "input",
            "source_block_id": "768",
            "destination_block_id": "302",
            "crane": "0",
            "start_time": "404",
            "end_time": "412"
        },
        {
            "id": "556",
            "type": "input",
            "source_block_id": "784",
            "destination_block_id": "218",
            "crane": "1",
            "start_time": "385",
            "end_time": "391"
        },
        {
            "id": "557",
            "type": "input",
            "source_block_id": "816",
            "destination_block_id": "541",
            "crane": "0",
            "start_time": "414",
            "end_time": "420"
        },
        {
            "id": "558",
            "type": "input",
            "source_block_id": "761",
            "destination_block_id": "578",
            "crane": "0",
            "start_time": "423",
            "end_time": "436"
        },
        {
            "id": "559",
            "type": "input",
            "source_block_id": "823",
            "destination_block_id": "68",
            "crane": "1",
            "start_time": "398",
            "end_time": "407"
        },
        {
            "id": "560",
            "type": "input",
            "source_block_id": "782",
            "destination_block_id": "296",
            "crane": "1",
            "start_time": "441",
            "end_time": "449"
        },
        {
            "id": "320",
            "type": "output",
            "source_block_id": "355",
            "destination_block_id": "793",
            "crane": "0",
            "start_time": "447",
            "end_time": "453"
        },
        {
            "id": "561",
            "type": "input",
            "source_block_id": "810",
            "destination_block_id": "653",
            "crane": "1",
            "start_time": "477",
            "end_time": "495"
        },
        {
            "id": "562",
            "type": "input",
            "source_block_id": "816",
            "destination_block_id": "506",
            "crane": "0",
            "start_time": "480",
            "end_time": "499"
        },
        {
            "id": "563",
            "type": "input",
            "source_block_id": "787",
            "destination_block_id": "164",
            "crane": "0",
            "start_time": "503",
            "end_time": "516"
        },
        {
            "id": "564",
            "type": "input",
            "source_block_id": "816",
            "destination_block_id": "709",
            "crane": "0",
            "start_time": "521",
            "end_time": "533"
        },
        {
            "id": "170",
            "type": "output",
            "source_block_id": "348",
            "destination_block_id": "776",
            "crane": "0",
            "start_time": "538",
            "end_time": "543"
        },
        {
            "id": "278",
            "type": "output",
            "source_block_id": "439",
            "destination_block_id": "769",
            "crane": "0",
            "start_time": "552",
            "end_time": "565"
        },
        {
            "id": "131",
            "type": "output",
            "source_block_id": "73",
            "destination_block_id": "802",
            "crane": "1",
            "start_time": "503",
            "end_time": "504"
        },
        {
            "id": "151",
            "type": "yard_movement",
            "source_block_id": "52",
            "destination_block_id": "2",
            "crane": "0",
            "start_time": "575",
            "end_time": "592"
        },
        {
            "id": "174",
            "type": "yard_movement",
            "source_block_id": "442",
            "destination_block_id": "248",
            "crane": "1",
            "start_time": "575",
            "end_time": "590"
        },
        {
            "id": "397",
            "type": "output",
            "source_block_id": "541",
            "destination_block_id": "760",
            "crane": "0",
            "start_time": "599",
            "end_time": "607"
        },
        {
            "id": "128",
            "type": "output",
            "source_block_id": "51",
            "destination_block_id": "775",
            "crane": "1",
            "start_time": "600",
            "end_time": "610"
        },
        {
            "id": "58",
            "type": "output",
            "source_block_id": "441",
            "destination_block_id": "775",
            "crane": "1",
            "start_time": "621",
            "end_time": "632"
        }
    ]
}
