{
    "objective": "5599.0795785034734",
    "BAP cost": "1821",
    "CSP cost": "9377.1591570069431",
    "products": [
        {
            "id": "175",
            "type": "input",
            "source_block_id": "322",
            "destination_block_id": "8",
            "crane": "0",
            "start_time": "7.0999999046325684",
            "end_time": "16.099999904632568"
        },
        {
            "id": "176",
            "type": "input",
            "source_block_id": "289",
            "destination_block_id": "208",
            "crane": "1",
            "start_time": "3.0999999046325684",
            "end_time": "13.099999904632568"
        },
        {
            "id": "177",
            "type": "input",
            "source_block_id": "268",
            "destination_block_id": "7",
            "crane": "0",
            "start_time": "357.09999990463257",
            "end_time": "358.09999990463257"
        },
        {
            "id": "178",
            "type": "input",
            "source_block_id": "308",
            "destination_block_id": "89",
            "crane": "0",
            "start_time": "57.099999904632568",
            "end_time": "72.099999904632568"
        },
        {
            "id": "179",
            "type": "input",
            "source_block_id": "282",
            "destination_block_id": "229",
            "crane": "1",
            "start_time": "22.099999904632568",
            "end_time": "33.099999904632568"
        },
        {
            "id": "180",
            "type": "input",
            "source_block_id": "255",
            "destination_block_id": "22",
            "crane": "1",
            "start_time": "36.099999904632568",
            "end_time": "57.099999904632568"
        },
        {
            "id": "181",
            "type": "input",
            "source_block_id": "264",
            "destination_block_id": "51",
            "crane": "0",
            "start_time": "172.09999990463257",
            "end_time": "177.09999990463257"
        },
        {
            "id": "16",
            "type": "output",
            "source_block_id": "69",
            "destination_block_id": "298",
            "crane": "1",
            "start_time": "341.09999990463257",
            "end_time": "345.09999990463257"
        },
        {
            "id": "182",
            "type": "input",
            "source_block_id": "307",
            "destination_block_id": "52",
            "crane": "1",
            "start_time": "424.09999990463257",
            "end_time": "447.09999990463257"
        },
        {
            "id": "183",
            "type": "input",
            "source_block_id": "323",
            "destination_block_id": "56",
            "crane": "1",
            "start_time": "190.09999990463257",
            "end_time": "209.09999990463257"
        },
        {
            "id": "184",
            "type": "input",
            "source_block_id": "258",
            "destination_block_id": "9",
            "crane": "0",
            "start_time": "41.099999904632568",
            "end_time": "47.099999904632568"
        },
        {
            "id": "185",
            "type": "input",
            "source_block_id": "256",
            "destination_block_id": "165",
            "crane": "0",
            "start_time": "106.09999990463257",
            "end_time": "119.09999990463257"
        },
        {
            "id": "186",
            "type": "input",
            "source_block_id": "323",
            "destination_block_id": "198",
            "crane": "1",
            "start_time": "66.099999904632568",
            "end_time": "68.099999904632568"
        },
        {
            "id": "187",
            "type": "input",
            "source_block_id": "299",
            "destination_block_id": "1",
            "crane": "0",
            "start_time": "81.099999904632568",
            "end_time": "103.09999990463257"
        },
        {
            "id": "188",
            "type": "input",
            "source_block_id": "292",
            "destination_block_id": "244",
            "crane": "1",
            "start_time": "142.09999990463257",
            "end_time": "152.09999990463257"
        },
        {
            "id": "189",
            "type": "input",
            "source_block_id": "284",
            "destination_block_id": "152",
            "crane": "0",
            "start_time": "259.09999990463257",
            "end_time": "273.09999990463257"
        },
        {
            "id": "190",
            "type": "input",
            "source_block_id": "259",
            "destination_block_id": "249",
            "crane": "1",
            "start_time": "104.09999990463257",
            "end_time": "125.09999990463257"
        },
        {
            "id": "191",
            "type": "input",
            "source_block_id": "312",
            "destination_block_id": "191",
            "crane": "0",
            "start_time": "179.09999990463257",
            "end_time": "196.09999990463257"
        },
        {
            "id": "141",
            "type": "output",
            "source_block_id": "194",
            "destination_block_id": "267",
            "crane": "1",
            "start_time": "88.099999904632568",
            "end_time": "100.09999990463257"
        },
        {
            "id": "192",
            "type": "input",
            "source_block_id": "289",
            "destination_block_id": "0",
            "crane": "0",
            "start_time": "369.09999990463257",
            "end_time": "387.09999990463257"
        },
        {
            "id": "193",
            "type": "input",
            "source_block_id": "257",
            "destination_block_id": "182",
            "crane": "0",
            "start_time": "210.09999990463257",
            "end_time": "215.09999990463257"
        },
        {
            "id": "194",
            "type": "input",
            "source_block_id": "284",
            "destination_block_id": "19",
            "crane": "1",
            "start_time": "138.09999990463257",
            "end_time": "141.09999990463257"
        },
        {
            "id": "195",
            "type": "input",
            "source_block_id": "307",
            "destination_block_id": "81",
            "crane": "1",
            "start_time": "305.09999990463257",
            "end_time": "324.09999990463257"
        },
        {
            "id": "196",
            "type": "input",
            "source_block_id": "270",
            "destination_block_id": "234",
            "crane": "1",
            "start_time": "273.09999990463257",
            "end_time": "283.09999990463257"
        },
        {
            "id": "197",
            "type": "input",
            "source_block_id": "292",
            "destination_block_id": "135",
            "crane": "0",
            "start_time": "243.09999990463257",
            "end_time": "253.09999990463257"
        },
        {
            "id": "198",
            "type": "input",
            "source_block_id": "300",
            "destination_block_id": "70",
            "crane": "1",
            "start_time": "236.09999990463257",
            "end_time": "240.09999990463257"
        },
        {
            "id": "199",
            "type": "input",
            "source_block_id": "286",
            "destination_block_id": "111",
            "crane": "0",
            "start_time": "227.09999990463257",
            "end_time": "233.09999990463257"
        },
        {
            "id": "200",
            "type": "input",
            "source_block_id": "286",
            "destination_block_id": "227",
            "crane": "0",
            "start_time": "304.09999990463257",
            "end_time": "319.09999990463257"
        },
        {
            "id": "82",
            "type": "output",
            "source_block_id": "162",
            "destination_block_id": "297",
            "crane": "1",
            "start_time": "286.09999990463257",
            "end_time": "296.09999990463257"
        },
        {
            "id": "201",
            "type": "input",
            "source_block_id": "258",
            "destination_block_id": "202",
            "crane": "0",
            "start_time": "390.09999990463257",
            "end_time": "399.09999990463257"
        },
        {
            "id": "125",
            "type": "output",
            "source_block_id": "221",
            "destination_block_id": "267",
            "crane": "0",
            "start_time": "130.09999990463257",
            "end_time": "144.09999990463257"
        },
        {
            "id": "202",
            "type": "input",
            "source_block_id": "279",
            "destination_block_id": "247",
            "crane": "1",
            "start_time": "377.09999990463257",
            "end_time": "386.09999990463257"
        },
        {
            "id": "161",
            "type": "output",
            "source_block_id": "183",
            "destination_block_id": "252",
            "crane": "0",
            "start_time": "279.09999990463257",
            "end_time": "287.09999990463257"
        },
        {
            "id": "25",
            "type": "output",
            "source_block_id": "188",
            "destination_block_id": "250",
            "crane": "0",
            "start_time": "424.09999990463257",
            "end_time": "438.09999990463257"
        },
        {
            "id": "203",
            "type": "input",
            "source_block_id": "280",
            "destination_block_id": "185",
            "crane": "1",
            "start_time": "396.09999990463257",
            "end_time": "404.09999990463257"
        },
        {
            "id": "10",
            "type": "output",
            "source_block_id": "97",
            "destination_block_id": "288",
            "crane": "1",
            "start_time": "132.09999990463257",
            "end_time": "136.09999990463257"
        },
        {
            "id": "129",
            "type": "output",
            "source_block_id": "138",
            "destination_block_id": "318",
            "crane": "0",
            "start_time": "334.09999990463257",
            "end_time": "348.09999990463257"
        },
        {
            "id": "204",
            "type": "input",
            "source_block_id": "283",
            "destination_block_id": "42",
            "crane": "0",
            "start_time": "152.09999990463257",
            "end_time": "161.09999990463257"
        },
        {
            "id": "205",
            "type": "input",
            "source_block_id": "280",
            "destination_block_id": "183",
            "crane": "0",
            "start_time": "411.09999990463257",
            "end_time": "419.09999990463257"
        },
        {
            "id": "206",
            "type": "input",
            "source_block_id": "259",
            "destination_block_id": "142",
            "crane": "1",
            "start_time": "491.09999990463257",
            "end_time": "505.09999990463257"
        },
        {
            "id": "207",
            "type": "input",
            "source_block_id": "285",
            "destination_block_id": "24",
            "crane": "0",
            "start_time": "508.09999990463257",
            "end_time": "518.09999990463257"
        },
        {
            "id": "208",
            "type": "input",
            "source_block_id": "316",
            "destination_block_id": "61",
            "crane": "1",
            "start_time": "451.09999990463257",
            "end_time": "463.09999990463257"
        },
        {
            "id": "67",
            "type": "output",
            "source_block_id": "165",
            "destination_block_id": "281",
            "crane": "0",
            "start_time": "119.09999990463257",
            "end_time": "123.09999990463257"
        },
        {
            "id": "209",
            "type": "input",
            "source_block_id": "278",
            "destination_block_id": "88",
            "crane": "1",
            "start_time": "331.09999990463257",
            "end_time": "335.09999990463257"
        },
        {
            "id": "210",
            "type": "input",
            "source_block_id": "287",
            "destination_block_id": "59",
            "crane": "1",
            "start_time": "475.09999990463257",
            "end_time": "483.09999990463257"
        },
        {
            "id": "174",
            "type": "output",
            "source_block_id": "184",
            "destination_block_id": "311",
            "crane": "1",
            "start_time": "216.09999990463257",
            "end_time": "232.09999990463257"
        },
        {
            "id": "211",
            "type": "input",
            "source_block_id": "261",
            "destination_block_id": "139",
            "crane": "0",
            "start_time": "459.09999990463257",
            "end_time": "469.09999990463257"
        },
        {
            "id": "212",
            "type": "input",
            "source_block_id": "278",
            "destination_block_id": "156",
            "crane": "0",
            "start_time": "475.09999990463257",
            "end_time": "482.09999990463257"
        },
        {
            "id": "213",
            "type": "input",
            "source_block_id": "312",
            "destination_block_id": "162",
            "crane": "0",
            "start_time": "491.09999990463257",
            "end_time": "504.09999990463257"
        },
        {
            "id": "214",
            "type": "input",
            "source_block_id": "285",
            "destination_block_id": "149",
            "crane": "1",
            "start_time": "250.09999990463257",
            "end_time": "258.09999990463257"
        }
    ]
}
