{
    "objective": "2453.1613407326067",
    "BAP cost": "394",
    "CSP cost": "4512.3226814652144",
    "products": [
        {
            "id": "125",
            "type": "input",
            "source_block_id": "256",
            "destination_block_id": "0",
            "crane": "0",
            "start_time": "1.5",
            "end_time": "3.5"
        },
        {
            "id": "126",
            "type": "input",
            "source_block_id": "323",
            "destination_block_id": "192",
            "crane": "1",
            "start_time": "3.0999999046325684",
            "end_time": "11.099999904632568"
        },
        {
            "id": "127",
            "type": "input",
            "source_block_id": "285",
            "destination_block_id": "59",
            "crane": "0",
            "start_time": "136.5",
            "end_time": "144.5"
        },
        {
            "id": "128",
            "type": "input",
            "source_block_id": "299",
            "destination_block_id": "90",
            "crane": "1",
            "start_time": "17.099999904632568",
            "end_time": "25.099999904632568"
        },
        {
            "id": "129",
            "type": "input",
            "source_block_id": "255",
            "destination_block_id": "8",
            "crane": "0",
            "start_time": "13.5",
            "end_time": "23.5"
        },
        {
            "id": "130",
            "type": "input",
            "source_block_id": "264",
            "destination_block_id": "1",
            "crane": "0",
            "start_time": "25.5",
            "end_time": "30.5"
        },
        {
            "id": "131",
            "type": "input",
            "source_block_id": "307",
            "destination_block_id": "44",
            "crane": "1",
            "start_time": "35.099999904632568",
            "end_time": "41.099999904632568"
        },
        {
            "id": "73",
            "type": "output",
            "source_block_id": "187",
            "destination_block_id": "260",
            "crane": "0",
            "start_time": "44.5",
            "end_time": "52.5"
        },
        {
            "id": "132",
            "type": "input",
            "source_block_id": "258",
            "destination_block_id": "238",
            "crane": "0",
            "start_time": "32.5",
            "end_time": "42.5"
        },
        {
            "id": "133",
            "type": "input",
            "source_block_id": "292",
            "destination_block_id": "232",
            "crane": "0",
            "start_time": "203.5",
            "end_time": "216.5"
        },
        {
            "id": "134",
            "type": "input",
            "source_block_id": "278",
            "destination_block_id": "33",
            "crane": "0",
            "start_time": "63.5",
            "end_time": "68.5"
        },
        {
            "id": "135",
            "type": "input",
            "source_block_id": "284",
            "destination_block_id": "198",
            "crane": "1",
            "start_time": "44.099999904632568",
            "end_time": "52.099999904632568"
        },
        {
            "id": "136",
            "type": "input",
            "source_block_id": "312",
            "destination_block_id": "52",
            "crane": "0",
            "start_time": "113.5",
            "end_time": "116.5"
        },
        {
            "id": "137",
            "type": "input",
            "source_block_id": "286",
            "destination_block_id": "244",
            "crane": "1",
            "start_time": "68.099999904632568",
            "end_time": "78.099999904632568"
        },
        {
            "id": "138",
            "type": "input",
            "source_block_id": "310",
            "destination_block_id": "88",
            "crane": "0",
            "start_time": "334.5",
            "end_time": "348.5"
        },
        {
            "id": "139",
            "type": "input",
            "source_block_id": "266",
            "destination_block_id": "62",
            "crane": "0",
            "start_time": "55.5",
            "end_time": "60.5"
        },
        {
            "id": "140",
            "type": "input",
            "source_block_id": "307",
            "destination_block_id": "42",
            "crane": "1",
            "start_time": "58.099999904632568",
            "end_time": "66.099999904632568"
        },
        {
            "id": "141",
            "type": "input",
            "source_block_id": "312",
            "destination_block_id": "186",
            "crane": "0",
            "start_time": "119.5",
            "end_time": "131.5"
        },
        {
            "id": "5",
            "type": "output",
            "source_block_id": "67",
            "destination_block_id": "301",
            "crane": "1",
            "start_time": "250.5",
            "end_time": "258.5"
        },
        {
            "id": "142",
            "type": "input",
            "source_block_id": "261",
            "destination_block_id": "139",
            "crane": "0",
            "start_time": "187.5",
            "end_time": "197.5"
        },
        {
            "id": "143",
            "type": "input",
            "source_block_id": "278",
            "destination_block_id": "22",
            "crane": "0",
            "start_time": "73.5",
            "end_time": "82.5"
        },
        {
            "id": "144",
            "type": "input",
            "source_block_id": "266",
            "destination_block_id": "9",
            "crane": "0",
            "start_time": "147.5",
            "end_time": "149.5"
        },
        {
            "id": "145",
            "type": "input",
            "source_block_id": "322",
            "destination_block_id": "92",
            "crane": "0",
            "start_time": "285.5",
            "end_time": "303.5"
        },
        {
            "id": "146",
            "type": "input",
            "source_block_id": "256",
            "destination_block_id": "210",
            "crane": "0",
            "start_time": "172.5",
            "end_time": "181.5"
        },
        {
            "id": "147",
            "type": "input",
            "source_block_id": "270",
            "destination_block_id": "136",
            "crane": "1",
            "start_time": "164.5",
            "end_time": "170.5"
        },
        {
            "id": "148",
            "type": "input",
            "source_block_id": "266",
            "destination_block_id": "73",
            "crane": "1",
            "start_time": "225.5",
            "end_time": "241.5"
        },
        {
            "id": "149",
            "type": "input",
            "source_block_id": "307",
            "destination_block_id": "208",
            "crane": "1",
            "start_time": "308.5",
            "end_time": "325.5"
        },
        {
            "id": "150",
            "type": "input",
            "source_block_id": "292",
            "destination_block_id": "234",
            "crane": "0",
            "start_time": "84.5",
            "end_time": "95.5"
        },
        {
            "id": "112",
            "type": "output",
            "source_block_id": "16",
            "destination_block_id": "263",
            "crane": "0",
            "start_time": "351.5",
            "end_time": "362.5"
        },
        {
            "id": "151",
            "type": "input",
            "source_block_id": "289",
            "destination_block_id": "182",
            "crane": "1",
            "start_time": "89.5",
            "end_time": "100.5"
        },
        {
            "id": "24",
            "type": "output",
            "source_block_id": "210",
            "destination_block_id": "311",
            "crane": "1",
            "start_time": "103.5",
            "end_time": "118.5"
        },
        {
            "id": "152",
            "type": "input",
            "source_block_id": "299",
            "destination_block_id": "227",
            "crane": "0",
            "start_time": "261.5",
            "end_time": "282.5"
        },
        {
            "id": "84",
            "type": "output",
            "source_block_id": "178",
            "destination_block_id": "298",
            "crane": "1",
            "start_time": "284.5",
            "end_time": "304.5"
        },
        {
            "id": "55",
            "type": "output",
            "source_block_id": "136",
            "destination_block_id": "309",
            "crane": "1",
            "start_time": "170.5",
            "end_time": "184.5"
        },
        {
            "id": "153",
            "type": "input",
            "source_block_id": "259",
            "destination_block_id": "175",
            "crane": "0",
            "start_time": "101.5",
            "end_time": "104.5"
        },
        {
            "id": "51",
            "type": "output",
            "source_block_id": "93",
            "destination_block_id": "272",
            "crane": "1",
            "start_time": "155.5",
            "end_time": "163.5"
        },
        {
            "id": "96",
            "type": "output",
            "source_block_id": "72",
            "destination_block_id": "314",
            "crane": "1",
            "start_time": "351.5",
            "end_time": "374.5"
        },
        {
            "id": "154",
            "type": "input",
            "source_block_id": "259",
            "destination_block_id": "150",
            "crane": "0",
            "start_time": "107.5",
            "end_time": "111.5"
        },
        {
            "id": "155",
            "type": "input",
            "source_block_id": "299",
            "destination_block_id": "54",
            "crane": "1",
            "start_time": "203.5",
            "end_time": "222.5"
        },
        {
            "id": "156",
            "type": "input",
            "source_block_id": "299",
            "destination_block_id": "184",
            "crane": "1",
            "start_time": "264.5",
            "end_time": "278.5"
        },
        {
            "id": "157",
            "type": "input",
            "source_block_id": "296",
            "destination_block_id": "149",
            "crane": "1",
            "start_time": "130.5",
            "end_time": "136.5"
        },
        {
            "id": "158",
            "type": "input",
            "source_block_id": "312",
            "destination_block_id": "119",
            "crane": "0",
            "start_time": "225.5",
            "end_time": "245.5"
        },
        {
            "id": "4",
            "type": "output",
            "source_block_id": "147",
            "destination_block_id": "290",
            "crane": "1",
            "start_time": "121.5",
            "end_time": "127.5"
        },
        {
            "id": "159",
            "type": "input",
            "source_block_id": "268",
            "destination_block_id": "57",
            "crane": "0",
            "start_time": "150.5",
            "end_time": "153.5"
        },
        {
            "id": "160",
            "type": "input",
            "source_block_id": "308",
            "destination_block_id": "81",
            "crane": "0",
            "start_time": "161.5",
            "end_time": "168.5"
        },
        {
            "id": "117",
            "type": "output",
            "source_block_id": "99",
            "destination_block_id": "281",
            "crane": "1",
            "start_time": "138.5",
            "end_time": "148.5"
        },
        {
            "id": "161",
            "type": "input",
            "source_block_id": "264",
            "destination_block_id": "20",
            "crane": "1",
            "start_time": "334.5",
            "end_time": "348.5"
        },
        {
            "id": "162",
            "type": "input",
            "source_block_id": "280",
            "destination_block_id": "247",
            "crane": "0",
            "start_time": "250.5",
            "end_time": "260.5"
        },
        {
            "id": "163",
            "type": "input",
            "source_block_id": "296",
            "destination_block_id": "233",
            "crane": "0",
            "start_time": "308.5",
            "end_time": "322.5"
        },
        {
            "id": "164",
            "type": "input",
            "source_block_id": "307",
            "destination_block_id": "248",
            "crane": "1",
            "start_time": "185.5",
            "end_time": "193.5"
        }
    ]
}
