{
    "objective": "8237.5795808876592",
    "BAP cost": "1107",
    "CSP cost": "15368.159161775318",
    "products": [
        {
            "id": "549",
            "type": "yard_movement",
            "source_block_id": "649",
            "destination_block_id": "953",
            "crane": "1",
            "start_time": "0",
            "end_time": "11"
        },
        {
            "id": "564",
            "type": "yard_movement",
            "source_block_id": "569",
            "destination_block_id": "703",
            "crane": "1",
            "start_time": "14",
            "end_time": "16"
        },
        {
            "id": "524",
            "type": "yard_movement",
            "source_block_id": "134",
            "destination_block_id": "554",
            "crane": "0",
            "start_time": "0",
            "end_time": "9"
        },
        {
            "id": "596",
            "type": "yard_movement",
            "source_block_id": "887",
            "destination_block_id": "747",
            "crane": "1",
            "start_time": "29",
            "end_time": "51"
        },
        {
            "id": "476",
            "type": "yard_movement",
            "source_block_id": "1124",
            "destination_block_id": "98",
            "crane": "1",
            "start_time": "54",
            "end_time": "62"
        },
        {
            "id": "468",
            "type": "yard_movement",
            "source_block_id": "1074",
            "destination_block_id": "183",
            "crane": "0",
            "start_time": "44",
            "end_time": "51"
        },
        {
            "id": "420",
            "type": "yard_movement",
            "source_block_id": "909",
            "destination_block_id": "1014",
            "crane": "0",
            "start_time": "57",
            "end_time": "61"
        },
        {
            "id": "625",
            "type": "input",
            "source_block_id": "1266",
            "destination_block_id": "573",
            "crane": "0",
            "start_time": "70",
            "end_time": "77"
        },
        {
            "id": "626",
            "type": "input",
            "source_block_id": "1323",
            "destination_block_id": "709",
            "crane": "1",
            "start_time": "71",
            "end_time": "80"
        },
        {
            "id": "627",
            "type": "input",
            "source_block_id": "1259",
            "destination_block_id": "1182",
            "crane": "0",
            "start_time": "88",
            "end_time": "96"
        },
        {
            "id": "628",
            "type": "input",
            "source_block_id": "1307",
            "destination_block_id": "522",
            "crane": "1",
            "start_time": "89",
            "end_time": "110"
        },
        {
            "id": "629",
            "type": "input",
            "source_block_id": "1262",
            "destination_block_id": "278",
            "crane": "0",
            "start_time": "114",
            "end_time": "117"
        },
        {
            "id": "630",
            "type": "input",
            "source_block_id": "1259",
            "destination_block_id": "1081",
            "crane": "1",
            "start_time": "122",
            "end_time": "135"
        },
        {
            "id": "631",
            "type": "input",
            "source_block_id": "1300",
            "destination_block_id": "354",
            "crane": "1",
            "start_time": "144",
            "end_time": "148"
        },
        {
            "id": "632",
            "type": "input",
            "source_block_id": "1292",
            "destination_block_id": "108",
            "crane": "1",
            "start_time": "152",
            "end_time": "155"
        },
        {
            "id": "633",
            "type": "input",
            "source_block_id": "1316",
            "destination_block_id": "1083",
            "crane": "0",
            "start_time": "123",
            "end_time": "140"
        },
        {
            "id": "634",
            "type": "input",
            "source_block_id": "1270",
            "destination_block_id": "204",
            "crane": "0",
            "start_time": "149",
            "end_time": "155"
        },
        {
            "id": "635",
            "type": "input",
            "source_block_id": "1258",
            "destination_block_id": "1248",
            "crane": "1",
            "start_time": "173",
            "end_time": "194"
        },
        {
            "id": "636",
            "type": "input",
            "source_block_id": "1312",
            "destination_block_id": "482",
            "crane": "0",
            "start_time": "173",
            "end_time": "195"
        },
        {
            "id": "637",
            "type": "input",
            "source_block_id": "1278",
            "destination_block_id": "533",
            "crane": "0",
            "start_time": "203",
            "end_time": "210"
        },
        {
            "id": "638",
            "type": "input",
            "source_block_id": "1289",
            "destination_block_id": "8",
            "crane": "0",
            "start_time": "222",
            "end_time": "239"
        },
        {
            "id": "639",
            "type": "input",
            "source_block_id": "1296",
            "destination_block_id": "1082",
            "crane": "1",
            "start_time": "222",
            "end_time": "231"
        },
        {
            "id": "640",
            "type": "input",
            "source_block_id": "1316",
            "destination_block_id": "534",
            "crane": "0",
            "start_time": "245",
            "end_time": "252"
        },
        {
            "id": "641",
            "type": "input",
            "source_block_id": "1268",
            "destination_block_id": "1119",
            "crane": "1",
            "start_time": "253",
            "end_time": "268"
        },
        {
            "id": "518",
            "type": "output",
            "source_block_id": "632",
            "destination_block_id": "1304",
            "crane": "0",
            "start_time": "257",
            "end_time": "262"
        },
        {
            "id": "642",
            "type": "input",
            "source_block_id": "1287",
            "destination_block_id": "929",
            "crane": "1",
            "start_time": "274",
            "end_time": "281"
        },
        {
            "id": "643",
            "type": "input",
            "source_block_id": "1308",
            "destination_block_id": "99",
            "crane": "0",
            "start_time": "274",
            "end_time": "294"
        },
        {
            "id": "644",
            "type": "input",
            "source_block_id": "1283",
            "destination_block_id": "1201",
            "crane": "1",
            "start_time": "301",
            "end_time": "302"
        },
        {
            "id": "645",
            "type": "input",
            "source_block_id": "1285",
            "destination_block_id": "1200",
            "crane": "1",
            "start_time": "303",
            "end_time": "304"
        },
        {
            "id": "646",
            "type": "input",
            "source_block_id": "1312",
            "destination_block_id": "1084",
            "crane": "1",
            "start_time": "320",
            "end_time": "337"
        },
        {
            "id": "647",
            "type": "input",
            "source_block_id": "1258",
            "destination_block_id": "1142",
            "crane": "0",
            "start_time": "327",
            "end_time": "337"
        },
        {
            "id": "648",
            "type": "input",
            "source_block_id": "1322",
            "destination_block_id": "624",
            "crane": "1",
            "start_time": "354",
            "end_time": "379"
        },
        {
            "id": "649",
            "type": "input",
            "source_block_id": "1257",
            "destination_block_id": "1203",
            "crane": "0",
            "start_time": "360",
            "end_time": "373"
        },
        {
            "id": "650",
            "type": "input",
            "source_block_id": "1282",
            "destination_block_id": "729",
            "crane": "0",
            "start_time": "383",
            "end_time": "389"
        },
        {
            "id": "651",
            "type": "input",
            "source_block_id": "1299",
            "destination_block_id": "298",
            "crane": "0",
            "start_time": "394",
            "end_time": "408"
        },
        {
            "id": "377",
            "type": "output",
            "source_block_id": "342",
            "destination_block_id": "1267",
            "crane": "1",
            "start_time": "402",
            "end_time": "413"
        },
        {
            "id": "652",
            "type": "input",
            "source_block_id": "1279",
            "destination_block_id": "879",
            "crane": "0",
            "start_time": "422",
            "end_time": "435"
        },
        {
            "id": "653",
            "type": "input",
            "source_block_id": "1300",
            "destination_block_id": "4",
            "crane": "1",
            "start_time": "430",
            "end_time": "454"
        },
        {
            "id": "535",
            "type": "output",
            "source_block_id": "855",
            "destination_block_id": "1294",
            "crane": "1",
            "start_time": "475",
            "end_time": "482"
        },
        {
            "id": "654",
            "type": "input",
            "source_block_id": "1259",
            "destination_block_id": "424",
            "crane": "0",
            "start_time": "460",
            "end_time": "467"
        },
        {
            "id": "655",
            "type": "input",
            "source_block_id": "1289",
            "destination_block_id": "674",
            "crane": "0",
            "start_time": "476",
            "end_time": "485"
        },
        {
            "id": "656",
            "type": "input",
            "source_block_id": "1286",
            "destination_block_id": "1202",
            "crane": "0",
            "start_time": "493",
            "end_time": "503"
        },
        {
            "id": "657",
            "type": "input",
            "source_block_id": "1323",
            "destination_block_id": "312",
            "crane": "1",
            "start_time": "493",
            "end_time": "506"
        },
        {
            "id": "658",
            "type": "input",
            "source_block_id": "1287",
            "destination_block_id": "3",
            "crane": "0",
            "start_time": "514",
            "end_time": "531"
        },
        {
            "id": "659",
            "type": "input",
            "source_block_id": "1280",
            "destination_block_id": "264",
            "crane": "1",
            "start_time": "520",
            "end_time": "532"
        },
        {
            "id": "660",
            "type": "input",
            "source_block_id": "1287",
            "destination_block_id": "673",
            "crane": "0",
            "start_time": "550",
            "end_time": "558"
        },
        {
            "id": "661",
            "type": "input",
            "source_block_id": "1310",
            "destination_block_id": "263",
            "crane": "0",
            "start_time": "568",
            "end_time": "571"
        },
        {
            "id": "662",
            "type": "input",
            "source_block_id": "1310",
            "destination_block_id": "14",
            "crane": "0",
            "start_time": "574",
            "end_time": "578"
        },
        {
            "id": "663",
            "type": "input",
            "source_block_id": "1323",
            "destination_block_id": "817",
            "crane": "1",
            "start_time": "555",
            "end_time": "567"
        },
        {
            "id": "664",
            "type": "input",
            "source_block_id": "1286",
            "destination_block_id": "121",
            "crane": "1",
            "start_time": "574",
            "end_time": "581"
        },
        {
            "id": "543",
            "type": "yard_movement",
            "source_block_id": "648",
            "destination_block_id": "672",
            "crane": "0",
            "start_time": "583",
            "end_time": "588"
        },
        {
            "id": "368",
            "type": "output",
            "source_block_id": "568",
            "destination_block_id": "1303",
            "crane": "1",
            "start_time": "592",
            "end_time": "604"
        },
        {
            "id": "400",
            "type": "yard_movement",
            "source_block_id": "133",
            "destination_block_id": "24",
            "crane": "0",
            "start_time": "596",
            "end_time": "599"
        },
        {
            "id": "138",
            "type": "yard_movement",
            "source_block_id": "886",
            "destination_block_id": "1204",
            "crane": "0",
            "start_time": "606",
            "end_time": "619"
        },
        {
            "id": "375",
            "type": "yard_movement",
            "source_block_id": "1123",
            "destination_block_id": "623",
            "crane": "1",
            "start_time": "607",
            "end_time": "611"
        },
        {
            "id": "461",
            "type": "output",
            "source_block_id": "1073",
            "destination_block_id": "1250",
            "crane": "0",
            "start_time": "620",
            "end_time": "635"
        },
        {
            "id": "404",
            "type": "yard_movement",
            "source_block_id": "908",
            "destination_block_id": "838",
            "crane": "1",
            "start_time": "631",
            "end_time": "642"
        },
        {
            "id": "505",
            "type": "yard_movement",
            "source_block_id": "647",
            "destination_block_id": "174",
            "crane": "0",
            "start_time": "641",
            "end_time": "646"
        },
        {
            "id": "374",
            "type": "yard_movement",
            "source_block_id": "132",
            "destination_block_id": "654",
            "crane": "0",
            "start_time": "654",
            "end_time": "658"
        },
        {
            "id": "69",
            "type": "output",
            "source_block_id": "885",
            "destination_block_id": "1311",
            "crane": "1",
            "start_time": "664",
            "end_time": "687"
        },
        {
            "id": "317",
            "type": "yard_movement",
            "source_block_id": "1122",
            "destination_block_id": "509",
            "crane": "0",
            "start_time": "689",
            "end_time": "712"
        },
        {
            "id": "345",
            "type": "yard_movement",
            "source_block_id": "907",
            "destination_block_id": "653",
            "crane": "0",
            "start_time": "717",
            "end_time": "719"
        },
        {
            "id": "431",
            "type": "yard_movement",
            "source_block_id": "646",
            "destination_block_id": "652",
            "crane": "0",
            "start_time": "721",
            "end_time": "722"
        },
        {
            "id": "231",
            "type": "yard_movement",
            "source_block_id": "131",
            "destination_block_id": "638",
            "crane": "0",
            "start_time": "726",
            "end_time": "730"
        },
        {
            "id": "232",
            "type": "yard_movement",
            "source_block_id": "1121",
            "destination_block_id": "248",
            "crane": "1",
            "start_time": "692",
            "end_time": "699"
        },
        {
            "id": "316",
            "type": "yard_movement",
            "source_block_id": "906",
            "destination_block_id": "1174",
            "crane": "1",
            "start_time": "724",
            "end_time": "727"
        },
        {
            "id": "402",
            "type": "output",
            "source_block_id": "645",
            "destination_block_id": "1260",
            "crane": "1",
            "start_time": "732",
            "end_time": "738"
        },
        {
            "id": "156",
            "type": "output",
            "source_block_id": "130",
            "destination_block_id": "1294",
            "crane": "1",
            "start_time": "741",
            "end_time": "761"
        },
        {
            "id": "133",
            "type": "output",
            "source_block_id": "1120",
            "destination_block_id": "1290",
            "crane": "1",
            "start_time": "770",
            "end_time": "779"
        },
        {
            "id": "142",
            "type": "output",
            "source_block_id": "905",
            "destination_block_id": "1318",
            "crane": "0",
            "start_time": "749",
            "end_time": "756"
        }
    ]
}
