{
    "objective": "5776.5795808876592",
    "BAP cost": "375",
    "CSP cost": "11178.159161775318",
    "products": [
        {
            "id": "265",
            "type": "yard_movement",
            "source_block_id": "436",
            "destination_block_id": "244",
            "crane": "1",
            "start_time": "0",
            "end_time": "11"
        },
        {
            "id": "222",
            "type": "yard_movement",
            "source_block_id": "1133",
            "destination_block_id": "999",
            "crane": "0",
            "start_time": "0",
            "end_time": "23"
        },
        {
            "id": "197",
            "type": "yard_movement",
            "source_block_id": "831",
            "destination_block_id": "868",
            "crane": "1",
            "start_time": "34",
            "end_time": "41"
        },
        {
            "id": "375",
            "type": "input",
            "source_block_id": "1270",
            "destination_block_id": "533",
            "crane": "0",
            "start_time": "38",
            "end_time": "43"
        },
        {
            "id": "376",
            "type": "input",
            "source_block_id": "1287",
            "destination_block_id": "532",
            "crane": "1",
            "start_time": "47",
            "end_time": "58"
        },
        {
            "id": "377",
            "type": "input",
            "source_block_id": "1259",
            "destination_block_id": "637",
            "crane": "0",
            "start_time": "49",
            "end_time": "54"
        },
        {
            "id": "378",
            "type": "input",
            "source_block_id": "1261",
            "destination_block_id": "72",
            "crane": "0",
            "start_time": "59",
            "end_time": "69"
        },
        {
            "id": "379",
            "type": "input",
            "source_block_id": "1285",
            "destination_block_id": "1233",
            "crane": "1",
            "start_time": "70",
            "end_time": "75"
        },
        {
            "id": "380",
            "type": "input",
            "source_block_id": "1299",
            "destination_block_id": "1232",
            "crane": "1",
            "start_time": "78",
            "end_time": "80"
        },
        {
            "id": "381",
            "type": "input",
            "source_block_id": "1307",
            "destination_block_id": "1234",
            "crane": "1",
            "start_time": "88",
            "end_time": "96"
        },
        {
            "id": "382",
            "type": "input",
            "source_block_id": "1261",
            "destination_block_id": "123",
            "crane": "0",
            "start_time": "88",
            "end_time": "108"
        },
        {
            "id": "383",
            "type": "input",
            "source_block_id": "1295",
            "destination_block_id": "673",
            "crane": "0",
            "start_time": "118",
            "end_time": "130"
        },
        {
            "id": "384",
            "type": "input",
            "source_block_id": "1280",
            "destination_block_id": "672",
            "crane": "1",
            "start_time": "128",
            "end_time": "134"
        },
        {
            "id": "385",
            "type": "input",
            "source_block_id": "1284",
            "destination_block_id": "674",
            "crane": "1",
            "start_time": "141",
            "end_time": "148"
        },
        {
            "id": "386",
            "type": "input",
            "source_block_id": "1284",
            "destination_block_id": "124",
            "crane": "1",
            "start_time": "155",
            "end_time": "163"
        },
        {
            "id": "387",
            "type": "input",
            "source_block_id": "1259",
            "destination_block_id": "909",
            "crane": "0",
            "start_time": "136",
            "end_time": "140"
        },
        {
            "id": "388",
            "type": "input",
            "source_block_id": "1287",
            "destination_block_id": "243",
            "crane": "1",
            "start_time": "173",
            "end_time": "182"
        },
        {
            "id": "389",
            "type": "input",
            "source_block_id": "1257",
            "destination_block_id": "908",
            "crane": "0",
            "start_time": "144",
            "end_time": "148"
        },
        {
            "id": "390",
            "type": "input",
            "source_block_id": "1280",
            "destination_block_id": "377",
            "crane": "0",
            "start_time": "156",
            "end_time": "170"
        },
        {
            "id": "391",
            "type": "input",
            "source_block_id": "1287",
            "destination_block_id": "362",
            "crane": "1",
            "start_time": "191",
            "end_time": "199"
        },
        {
            "id": "368",
            "type": "output",
            "source_block_id": "568",
            "destination_block_id": "1251",
            "crane": "0",
            "start_time": "183",
            "end_time": "197"
        },
        {
            "id": "392",
            "type": "input",
            "source_block_id": "1262",
            "destination_block_id": "311",
            "crane": "0",
            "start_time": "208",
            "end_time": "215"
        },
        {
            "id": "393",
            "type": "input",
            "source_block_id": "1296",
            "destination_block_id": "241",
            "crane": "1",
            "start_time": "202",
            "end_time": "204"
        },
        {
            "id": "394",
            "type": "input",
            "source_block_id": "1284",
            "destination_block_id": "671",
            "crane": "1",
            "start_time": "214",
            "end_time": "221"
        },
        {
            "id": "395",
            "type": "input",
            "source_block_id": "1287",
            "destination_block_id": "1225",
            "crane": "1",
            "start_time": "229",
            "end_time": "232"
        },
        {
            "id": "396",
            "type": "input",
            "source_block_id": "1312",
            "destination_block_id": "600",
            "crane": "0",
            "start_time": "229",
            "end_time": "250"
        },
        {
            "id": "397",
            "type": "input",
            "source_block_id": "1307",
            "destination_block_id": "285",
            "crane": "1",
            "start_time": "248",
            "end_time": "266"
        },
        {
            "id": "398",
            "type": "input",
            "source_block_id": "1322",
            "destination_block_id": "17",
            "crane": "0",
            "start_time": "271",
            "end_time": "280"
        },
        {
            "id": "399",
            "type": "input",
            "source_block_id": "1284",
            "destination_block_id": "1075",
            "crane": "1",
            "start_time": "275",
            "end_time": "284"
        },
        {
            "id": "400",
            "type": "input",
            "source_block_id": "1312",
            "destination_block_id": "1093",
            "crane": "0",
            "start_time": "284",
            "end_time": "303"
        },
        {
            "id": "342",
            "type": "output",
            "source_block_id": "1023",
            "destination_block_id": "1297",
            "crane": "1",
            "start_time": "320",
            "end_time": "338"
        },
        {
            "id": "401",
            "type": "input",
            "source_block_id": "1261",
            "destination_block_id": "951",
            "crane": "0",
            "start_time": "323",
            "end_time": "334"
        },
        {
            "id": "339",
            "type": "output",
            "source_block_id": "445",
            "destination_block_id": "1318",
            "crane": "0",
            "start_time": "338",
            "end_time": "353"
        },
        {
            "id": "402",
            "type": "input",
            "source_block_id": "1270",
            "destination_block_id": "332",
            "crane": "1",
            "start_time": "351",
            "end_time": "358"
        },
        {
            "id": "310",
            "type": "output",
            "source_block_id": "508",
            "destination_block_id": "1319",
            "crane": "0",
            "start_time": "356",
            "end_time": "380"
        },
        {
            "id": "403",
            "type": "input",
            "source_block_id": "1270",
            "destination_block_id": "508",
            "crane": "0",
            "start_time": "396",
            "end_time": "404"
        },
        {
            "id": "334",
            "type": "output",
            "source_block_id": "261",
            "destination_block_id": "1260",
            "crane": "0",
            "start_time": "406",
            "end_time": "409"
        },
        {
            "id": "90",
            "type": "output",
            "source_block_id": "1205",
            "destination_block_id": "1293",
            "crane": "1",
            "start_time": "392",
            "end_time": "396"
        },
        {
            "id": "404",
            "type": "input",
            "source_block_id": "1278",
            "destination_block_id": "712",
            "crane": "1",
            "start_time": "407",
            "end_time": "413"
        },
        {
            "id": "405",
            "type": "input",
            "source_block_id": "1280",
            "destination_block_id": "267",
            "crane": "0",
            "start_time": "419",
            "end_time": "430"
        },
        {
            "id": "406",
            "type": "input",
            "source_block_id": "1292",
            "destination_block_id": "121",
            "crane": "1",
            "start_time": "419",
            "end_time": "423"
        },
        {
            "id": "407",
            "type": "input",
            "source_block_id": "1258",
            "destination_block_id": "242",
            "crane": "1",
            "start_time": "444",
            "end_time": "464"
        },
        {
            "id": "408",
            "type": "input",
            "source_block_id": "1262",
            "destination_block_id": "534",
            "crane": "0",
            "start_time": "449",
            "end_time": "454"
        },
        {
            "id": "409",
            "type": "input",
            "source_block_id": "1279",
            "destination_block_id": "739",
            "crane": "1",
            "start_time": "474",
            "end_time": "483"
        },
        {
            "id": "410",
            "type": "input",
            "source_block_id": "1279",
            "destination_block_id": "817",
            "crane": "0",
            "start_time": "477",
            "end_time": "481"
        },
        {
            "id": "13",
            "type": "output",
            "source_block_id": "1195",
            "destination_block_id": "1253",
            "crane": "0",
            "start_time": "484",
            "end_time": "498"
        },
        {
            "id": "411",
            "type": "input",
            "source_block_id": "1255",
            "destination_block_id": "1058",
            "crane": "0",
            "start_time": "499",
            "end_time": "509"
        },
        {
            "id": "412",
            "type": "input",
            "source_block_id": "1282",
            "destination_block_id": "720",
            "crane": "1",
            "start_time": "490",
            "end_time": "496"
        },
        {
            "id": "413",
            "type": "input",
            "source_block_id": "1264",
            "destination_block_id": "1195",
            "crane": "1",
            "start_time": "517",
            "end_time": "527"
        },
        {
            "id": "414",
            "type": "input",
            "source_block_id": "1310",
            "destination_block_id": "573",
            "crane": "0",
            "start_time": "521",
            "end_time": "536"
        },
        {
            "id": "82",
            "type": "output",
            "source_block_id": "435",
            "destination_block_id": "1304",
            "crane": "0",
            "start_time": "539",
            "end_time": "552"
        },
        {
            "id": "181",
            "type": "yard_movement",
            "source_block_id": "1132",
            "destination_block_id": "122",
            "crane": "1",
            "start_time": "553",
            "end_time": "576"
        },
        {
            "id": "169",
            "type": "output",
            "source_block_id": "830",
            "destination_block_id": "1304",
            "crane": "0",
            "start_time": "571",
            "end_time": "588"
        },
        {
            "id": "152",
            "type": "yard_movement",
            "source_block_id": "1131",
            "destination_block_id": "945",
            "crane": "1",
            "start_time": "599",
            "end_time": "612"
        },
        {
            "id": "42",
            "type": "output",
            "source_block_id": "1130",
            "destination_block_id": "1317",
            "crane": "0",
            "start_time": "602",
            "end_time": "626"
        }
    ]
}
