{
    "objective": "19649.208081594941",
    "BAP cost": "626",
    "CSP cost": "38672.416163189882",
    "products": [
        {
            "id": "1292",
            "type": "yard_movement",
            "source_block_id": "1261",
            "destination_block_id": "834",
            "crane": "0",
            "start_time": "0",
            "end_time": "14"
        },
        {
            "id": "2472",
            "type": "yard_movement",
            "source_block_id": "1413",
            "destination_block_id": "1914",
            "crane": "1",
            "start_time": "0",
            "end_time": "2"
        },
        {
            "id": "2334",
            "type": "yard_movement",
            "source_block_id": "4061",
            "destination_block_id": "4008",
            "crane": "0",
            "start_time": "27",
            "end_time": "38"
        },
        {
            "id": "1942",
            "type": "yard_movement",
            "source_block_id": "3557",
            "destination_block_id": "3343",
            "crane": "1",
            "start_time": "31",
            "end_time": "38"
        },
        {
            "id": "1976",
            "type": "yard_movement",
            "source_block_id": "1824",
            "destination_block_id": "708",
            "crane": "1",
            "start_time": "44",
            "end_time": "71"
        },
        {
            "id": "2500",
            "type": "input",
            "source_block_id": "5016",
            "destination_block_id": "3159",
            "crane": "0",
            "start_time": "55",
            "end_time": "79"
        },
        {
            "id": "2501",
            "type": "input",
            "source_block_id": "5094",
            "destination_block_id": "3158",
            "crane": "1",
            "start_time": "76",
            "end_time": "91"
        },
        {
            "id": "2502",
            "type": "input",
            "source_block_id": "5014",
            "destination_block_id": "1419",
            "crane": "1",
            "start_time": "116",
            "end_time": "143"
        },
        {
            "id": "2503",
            "type": "input",
            "source_block_id": "5046",
            "destination_block_id": "4228",
            "crane": "1",
            "start_time": "154",
            "end_time": "177"
        },
        {
            "id": "2504",
            "type": "input",
            "source_block_id": "5016",
            "destination_block_id": "4498",
            "crane": "0",
            "start_time": "154",
            "end_time": "196"
        },
        {
            "id": "2505",
            "type": "input",
            "source_block_id": "5143",
            "destination_block_id": "2054",
            "crane": "1",
            "start_time": "198",
            "end_time": "238"
        },
        {
            "id": "2506",
            "type": "input",
            "source_block_id": "5132",
            "destination_block_id": "2553",
            "crane": "0",
            "start_time": "246",
            "end_time": "257"
        },
        {
            "id": "2227",
            "type": "output",
            "source_block_id": "4786",
            "destination_block_id": "5065",
            "crane": "1",
            "start_time": "263",
            "end_time": "287"
        },
        {
            "id": "2507",
            "type": "input",
            "source_block_id": "5139",
            "destination_block_id": "4229",
            "crane": "1",
            "start_time": "306",
            "end_time": "311"
        },
        {
            "id": "2508",
            "type": "input",
            "source_block_id": "5034",
            "destination_block_id": "2523",
            "crane": "0",
            "start_time": "275",
            "end_time": "287"
        },
        {
            "id": "2509",
            "type": "input",
            "source_block_id": "5062",
            "destination_block_id": "4544",
            "crane": "0",
            "start_time": "313",
            "end_time": "335"
        },
        {
            "id": "2510",
            "type": "input",
            "source_block_id": "5066",
            "destination_block_id": "2344",
            "crane": "1",
            "start_time": "328",
            "end_time": "342"
        },
        {
            "id": "2511",
            "type": "input",
            "source_block_id": "5140",
            "destination_block_id": "2343",
            "crane": "0",
            "start_time": "344",
            "end_time": "363"
        },
        {
            "id": "2512",
            "type": "input",
            "source_block_id": "5030",
            "destination_block_id": "2034",
            "crane": "0",
            "start_time": "373",
            "end_time": "382"
        },
        {
            "id": "2513",
            "type": "input",
            "source_block_id": "5060",
            "destination_block_id": "557",
            "crane": "0",
            "start_time": "405",
            "end_time": "423"
        },
        {
            "id": "2514",
            "type": "input",
            "source_block_id": "5138",
            "destination_block_id": "1553",
            "crane": "0",
            "start_time": "438",
            "end_time": "449"
        },
        {
            "id": "2515",
            "type": "input",
            "source_block_id": "5037",
            "destination_block_id": "2554",
            "crane": "0",
            "start_time": "463",
            "end_time": "473"
        },
        {
            "id": "2516",
            "type": "input",
            "source_block_id": "5095",
            "destination_block_id": "2404",
            "crane": "1",
            "start_time": "405",
            "end_time": "421"
        },
        {
            "id": "2517",
            "type": "input",
            "source_block_id": "5066",
            "destination_block_id": "1189",
            "crane": "1",
            "start_time": "431",
            "end_time": "436"
        },
        {
            "id": "2518",
            "type": "input",
            "source_block_id": "5042",
            "destination_block_id": "3998",
            "crane": "1",
            "start_time": "453",
            "end_time": "482"
        },
        {
            "id": "2519",
            "type": "input",
            "source_block_id": "5105",
            "destination_block_id": "3943",
            "crane": "1",
            "start_time": "497",
            "end_time": "512"
        },
        {
            "id": "2520",
            "type": "input",
            "source_block_id": "5033",
            "destination_block_id": "574",
            "crane": "0",
            "start_time": "483",
            "end_time": "501"
        },
        {
            "id": "2521",
            "type": "input",
            "source_block_id": "5072",
            "destination_block_id": "1983",
            "crane": "1",
            "start_time": "528",
            "end_time": "539"
        },
        {
            "id": "2522",
            "type": "input",
            "source_block_id": "5136",
            "destination_block_id": "954",
            "crane": "0",
            "start_time": "528",
            "end_time": "569"
        },
        {
            "id": "2523",
            "type": "input",
            "source_block_id": "5074",
            "destination_block_id": "843",
            "crane": "0",
            "start_time": "573",
            "end_time": "591"
        },
        {
            "id": "2524",
            "type": "input",
            "source_block_id": "5122",
            "destination_block_id": "4009",
            "crane": "0",
            "start_time": "610",
            "end_time": "617"
        },
        {
            "id": "2525",
            "type": "input",
            "source_block_id": "5089",
            "destination_block_id": "1893",
            "crane": "1",
            "start_time": "573",
            "end_time": "588"
        },
        {
            "id": "2526",
            "type": "input",
            "source_block_id": "5138",
            "destination_block_id": "833",
            "crane": "0",
            "start_time": "621",
            "end_time": "638"
        },
        {
            "id": "1436",
            "type": "output",
            "source_block_id": "174",
            "destination_block_id": "5101",
            "crane": "1",
            "start_time": "595",
            "end_time": "615"
        },
        {
            "id": "2527",
            "type": "input",
            "source_block_id": "5039",
            "destination_block_id": "2403",
            "crane": "1",
            "start_time": "646",
            "end_time": "658"
        },
        {
            "id": "2528",
            "type": "input",
            "source_block_id": "5008",
            "destination_block_id": "144",
            "crane": "0",
            "start_time": "651",
            "end_time": "676"
        },
        {
            "id": "1828",
            "type": "output",
            "source_block_id": "1609",
            "destination_block_id": "5052",
            "crane": "0",
            "start_time": "683",
            "end_time": "690"
        },
        {
            "id": "2529",
            "type": "input",
            "source_block_id": "5075",
            "destination_block_id": "4168",
            "crane": "0",
            "start_time": "711",
            "end_time": "715"
        },
        {
            "id": "2530",
            "type": "input",
            "source_block_id": "5088",
            "destination_block_id": "2704",
            "crane": "1",
            "start_time": "671",
            "end_time": "682"
        },
        {
            "id": "2531",
            "type": "input",
            "source_block_id": "5143",
            "destination_block_id": "3223",
            "crane": "1",
            "start_time": "692",
            "end_time": "699"
        },
        {
            "id": "2532",
            "type": "input",
            "source_block_id": "5077",
            "destination_block_id": "3514",
            "crane": "0",
            "start_time": "719",
            "end_time": "754"
        },
        {
            "id": "2533",
            "type": "input",
            "source_block_id": "5133",
            "destination_block_id": "3903",
            "crane": "1",
            "start_time": "719",
            "end_time": "739"
        },
        {
            "id": "2456",
            "type": "output",
            "source_block_id": "1828",
            "destination_block_id": "5100",
            "crane": "1",
            "start_time": "754",
            "end_time": "788"
        },
        {
            "id": "2534",
            "type": "input",
            "source_block_id": "5129",
            "destination_block_id": "334",
            "crane": "1",
            "start_time": "801",
            "end_time": "835"
        },
        {
            "id": "2535",
            "type": "input",
            "source_block_id": "5011",
            "destination_block_id": "3763",
            "crane": "0",
            "start_time": "760",
            "end_time": "765"
        },
        {
            "id": "2459",
            "type": "output",
            "source_block_id": "2737",
            "destination_block_id": "5080",
            "crane": "1",
            "start_time": "866",
            "end_time": "877"
        },
        {
            "id": "2536",
            "type": "input",
            "source_block_id": "5037",
            "destination_block_id": "4564",
            "crane": "0",
            "start_time": "780",
            "end_time": "785"
        },
        {
            "id": "2537",
            "type": "input",
            "source_block_id": "5072",
            "destination_block_id": "3839",
            "crane": "0",
            "start_time": "857",
            "end_time": "875"
        },
        {
            "id": "2538",
            "type": "input",
            "source_block_id": "5090",
            "destination_block_id": "3344",
            "crane": "1",
            "start_time": "882",
            "end_time": "908"
        },
        {
            "id": "2539",
            "type": "input",
            "source_block_id": "5005",
            "destination_block_id": "1759",
            "crane": "0",
            "start_time": "891",
            "end_time": "904"
        },
        {
            "id": "1502",
            "type": "output",
            "source_block_id": "1531",
            "destination_block_id": "5017",
            "crane": "0",
            "start_time": "909",
            "end_time": "923"
        },
        {
            "id": "2540",
            "type": "input",
            "source_block_id": "5143",
            "destination_block_id": "4728",
            "crane": "1",
            "start_time": "940",
            "end_time": "945"
        },
        {
            "id": "2541",
            "type": "input",
            "source_block_id": "5057",
            "destination_block_id": "314",
            "crane": "1",
            "start_time": "963",
            "end_time": "982"
        },
        {
            "id": "2542",
            "type": "input",
            "source_block_id": "5072",
            "destination_block_id": "249",
            "crane": "1",
            "start_time": "1005",
            "end_time": "1019"
        },
        {
            "id": "2543",
            "type": "input",
            "source_block_id": "5136",
            "destination_block_id": "143",
            "crane": "0",
            "start_time": "972",
            "end_time": "1001"
        },
        {
            "id": "2544",
            "type": "input",
            "source_block_id": "5035",
            "destination_block_id": "4007",
            "crane": "0",
            "start_time": "1021",
            "end_time": "1036"
        },
        {
            "id": "2545",
            "type": "input",
            "source_block_id": "5126",
            "destination_block_id": "1554",
            "crane": "0",
            "start_time": "1041",
            "end_time": "1052"
        },
        {
            "id": "2546",
            "type": "input",
            "source_block_id": "5036",
            "destination_block_id": "1289",
            "crane": "0",
            "start_time": "1059",
            "end_time": "1069"
        },
        {
            "id": "2547",
            "type": "input",
            "source_block_id": "5006",
            "destination_block_id": "561",
            "crane": "0",
            "start_time": "1075",
            "end_time": "1085"
        },
        {
            "id": "2548",
            "type": "input",
            "source_block_id": "5089",
            "destination_block_id": "1293",
            "crane": "1",
            "start_time": "1075",
            "end_time": "1110"
        },
        {
            "id": "2549",
            "type": "input",
            "source_block_id": "5116",
            "destination_block_id": "4028",
            "crane": "0",
            "start_time": "1098",
            "end_time": "1108"
        },
        {
            "id": "2550",
            "type": "input",
            "source_block_id": "5105",
            "destination_block_id": "4958",
            "crane": "1",
            "start_time": "1152",
            "end_time": "1171"
        },
        {
            "id": "2551",
            "type": "input",
            "source_block_id": "5057",
            "destination_block_id": "3664",
            "crane": "0",
            "start_time": "1132",
            "end_time": "1138"
        },
        {
            "id": "2552",
            "type": "input",
            "source_block_id": "5018",
            "destination_block_id": "1057",
            "crane": "0",
            "start_time": "1162",
            "end_time": "1167"
        },
        {
            "id": "2553",
            "type": "input",
            "source_block_id": "5114",
            "destination_block_id": "157",
            "crane": "0",
            "start_time": "1179",
            "end_time": "1211"
        },
        {
            "id": "2554",
            "type": "input",
            "source_block_id": "5125",
            "destination_block_id": "4644",
            "crane": "1",
            "start_time": "1195",
            "end_time": "1217"
        },
        {
            "id": "2555",
            "type": "input",
            "source_block_id": "5074",
            "destination_block_id": "707",
            "crane": "0",
            "start_time": "1228",
            "end_time": "1233"
        },
        {
            "id": "2556",
            "type": "input",
            "source_block_id": "5072",
            "destination_block_id": "333",
            "crane": "0",
            "start_time": "1239",
            "end_time": "1258"
        },
        {
            "id": "2557",
            "type": "input",
            "source_block_id": "5105",
            "destination_block_id": "873",
            "crane": "1",
            "start_time": "1239",
            "end_time": "1265"
        },
        {
            "id": "222",
            "type": "output",
            "source_block_id": "1260",
            "destination_block_id": "5022",
            "crane": "0",
            "start_time": "1272",
            "end_time": "1280"
        },
        {
            "id": "1849",
            "type": "yard_movement",
            "source_block_id": "1412",
            "destination_block_id": "3564",
            "crane": "1",
            "start_time": "1273",
            "end_time": "1293"
        },
        {
            "id": "1420",
            "type": "output",
            "source_block_id": "4060",
            "destination_block_id": "5085",
            "crane": "1",
            "start_time": "1297",
            "end_time": "1326"
        },
        {
            "id": "476",
            "type": "output",
            "source_block_id": "3556",
            "destination_block_id": "5048",
            "crane": "0",
            "start_time": "1299",
            "end_time": "1314"
        },
        {
            "id": "1972",
            "type": "yard_movement",
            "source_block_id": "1823",
            "destination_block_id": "3751",
            "crane": "0",
            "start_time": "1323",
            "end_time": "1337"
        },
        {
            "id": "1346",
            "type": "yard_movement",
            "source_block_id": "1411",
            "destination_block_id": "808",
            "crane": "1",
            "start_time": "1341",
            "end_time": "1362"
        },
        {
            "id": "1946",
            "type": "yard_movement",
            "source_block_id": "1822",
            "destination_block_id": "3069",
            "crane": "0",
            "start_time": "1368",
            "end_time": "1373"
        },
        {
            "id": "1297",
            "type": "output",
            "source_block_id": "1410",
            "destination_block_id": "5087",
            "crane": "1",
            "start_time": "1383",
            "end_time": "1398"
        },
        {
            "id": "1403",
            "type": "output",
            "source_block_id": "1821",
            "destination_block_id": "5053",
            "crane": "0",
            "start_time": "1378",
            "end_time": "1391"
        },
        {
            "id": "44",
            "type": "output",
            "source_block_id": "1820",
            "destination_block_id": "5024",
            "crane": "0",
            "start_time": "1404",
            "end_time": "1412"
        }
    ]
}
