{
    "objective": "2670.3343071484223",
    "BAP cost": "0",
    "CSP cost": "5340.6686142968438",
    "products": [
        {
            "id": "157",
            "type": "input",
            "source_block_id": "582",
            "destination_block_id": "518",
            "crane": "1",
            "start_time": "1.5",
            "end_time": "2.5"
        },
        {
            "id": "158",
            "type": "input",
            "source_block_id": "628",
            "destination_block_id": "349",
            "crane": "1",
            "start_time": "9.5",
            "end_time": "14.5"
        },
        {
            "id": "159",
            "type": "input",
            "source_block_id": "564",
            "destination_block_id": "472",
            "crane": "0",
            "start_time": "6.0999999046325684",
            "end_time": "8.0999999046325684"
        },
        {
            "id": "160",
            "type": "input",
            "source_block_id": "554",
            "destination_block_id": "502",
            "crane": "0",
            "start_time": "12.099999904632568",
            "end_time": "13.099999904632568"
        },
        {
            "id": "161",
            "type": "input",
            "source_block_id": "583",
            "destination_block_id": "63",
            "crane": "1",
            "start_time": "28.5",
            "end_time": "30.5"
        },
        {
            "id": "162",
            "type": "input",
            "source_block_id": "622",
            "destination_block_id": "313",
            "crane": "1",
            "start_time": "16.5",
            "end_time": "19.5"
        },
        {
            "id": "163",
            "type": "input",
            "source_block_id": "536",
            "destination_block_id": "497",
            "crane": "0",
            "start_time": "21.099999904632568",
            "end_time": "24.099999904632568"
        },
        {
            "id": "10",
            "type": "output",
            "source_block_id": "248",
            "destination_block_id": "577",
            "crane": "1",
            "start_time": "340.69999694824219",
            "end_time": "362.69999694824219"
        },
        {
            "id": "164",
            "type": "input",
            "source_block_id": "536",
            "destination_block_id": "386",
            "crane": "0",
            "start_time": "280.69999694824219",
            "end_time": "284.69999694824219"
        },
        {
            "id": "165",
            "type": "input",
            "source_block_id": "583",
            "destination_block_id": "66",
            "crane": "1",
            "start_time": "133.5",
            "end_time": "136.5"
        },
        {
            "id": "166",
            "type": "input",
            "source_block_id": "530",
            "destination_block_id": "390",
            "crane": "0",
            "start_time": "31.200000762939453",
            "end_time": "35.200000762939453"
        },
        {
            "id": "167",
            "type": "input",
            "source_block_id": "603",
            "destination_block_id": "107",
            "crane": "0",
            "start_time": "78.200000762939453",
            "end_time": "81.200000762939453"
        },
        {
            "id": "168",
            "type": "input",
            "source_block_id": "597",
            "destination_block_id": "34",
            "crane": "1",
            "start_time": "37.5",
            "end_time": "38.5"
        },
        {
            "id": "169",
            "type": "input",
            "source_block_id": "591",
            "destination_block_id": "99",
            "crane": "1",
            "start_time": "40.5",
            "end_time": "43.5"
        },
        {
            "id": "170",
            "type": "input",
            "source_block_id": "554",
            "destination_block_id": "466",
            "crane": "0",
            "start_time": "43.200000762939453",
            "end_time": "45.200000762939453"
        },
        {
            "id": "171",
            "type": "input",
            "source_block_id": "587",
            "destination_block_id": "95",
            "crane": "1",
            "start_time": "46.5",
            "end_time": "51.5"
        },
        {
            "id": "172",
            "type": "input",
            "source_block_id": "582",
            "destination_block_id": "480",
            "crane": "1",
            "start_time": "73.5",
            "end_time": "75.5"
        },
        {
            "id": "173",
            "type": "input",
            "source_block_id": "597",
            "destination_block_id": "244",
            "crane": "1",
            "start_time": "140.5",
            "end_time": "147.5"
        },
        {
            "id": "135",
            "type": "output",
            "source_block_id": "54",
            "destination_block_id": "535",
            "crane": "0",
            "start_time": "57.200000762939453",
            "end_time": "72.200000762939453"
        },
        {
            "id": "174",
            "type": "input",
            "source_block_id": "567",
            "destination_block_id": "54",
            "crane": "0",
            "start_time": "204.69999694824219",
            "end_time": "206.69999694824219"
        },
        {
            "id": "175",
            "type": "input",
            "source_block_id": "598",
            "destination_block_id": "415",
            "crane": "1",
            "start_time": "64.5",
            "end_time": "69.5"
        },
        {
            "id": "176",
            "type": "input",
            "source_block_id": "533",
            "destination_block_id": "3",
            "crane": "0",
            "start_time": "73.200000762939453",
            "end_time": "74.200000762939453"
        },
        {
            "id": "177",
            "type": "input",
            "source_block_id": "627",
            "destination_block_id": "283",
            "crane": "0",
            "start_time": "92.200000762939453",
            "end_time": "98.200000762939453"
        },
        {
            "id": "178",
            "type": "input",
            "source_block_id": "570",
            "destination_block_id": "511",
            "crane": "0",
            "start_time": "133.20000076293945",
            "end_time": "134.20000076293945"
        },
        {
            "id": "179",
            "type": "input",
            "source_block_id": "560",
            "destination_block_id": "436",
            "crane": "1",
            "start_time": "84.5",
            "end_time": "87.5"
        },
        {
            "id": "180",
            "type": "input",
            "source_block_id": "619",
            "destination_block_id": "211",
            "crane": "0",
            "start_time": "335.69999694824219",
            "end_time": "339.69999694824219"
        },
        {
            "id": "181",
            "type": "input",
            "source_block_id": "557",
            "destination_block_id": "14",
            "crane": "0",
            "start_time": "174.69999694824219",
            "end_time": "175.69999694824219"
        },
        {
            "id": "182",
            "type": "input",
            "source_block_id": "567",
            "destination_block_id": "92",
            "crane": "1",
            "start_time": "100.5",
            "end_time": "103.5"
        },
        {
            "id": "110",
            "type": "output",
            "source_block_id": "213",
            "destination_block_id": "594",
            "crane": "0",
            "start_time": "396.69999694824219",
            "end_time": "426.69999694824219"
        },
        {
            "id": "183",
            "type": "input",
            "source_block_id": "530",
            "destination_block_id": "321",
            "crane": "0",
            "start_time": "105.20000076293945",
            "end_time": "111.20000076293945"
        },
        {
            "id": "33",
            "type": "output",
            "source_block_id": "496",
            "destination_block_id": "576",
            "crane": "0",
            "start_time": "357.69999694824219",
            "end_time": "375.69999694824219"
        },
        {
            "id": "184",
            "type": "input",
            "source_block_id": "534",
            "destination_block_id": "323",
            "crane": "0",
            "start_time": "288.69999694824219",
            "end_time": "294.69999694824219"
        },
        {
            "id": "70",
            "type": "output",
            "source_block_id": "285",
            "destination_block_id": "552",
            "crane": "0",
            "start_time": "112.20000076293945",
            "end_time": "119.20000076293945"
        },
        {
            "id": "144",
            "type": "output",
            "source_block_id": "48",
            "destination_block_id": "547",
            "crane": "0",
            "start_time": "166.69999694824219",
            "end_time": "169.69999694824219"
        },
        {
            "id": "185",
            "type": "input",
            "source_block_id": "587",
            "destination_block_id": "200",
            "crane": "1",
            "start_time": "121.5",
            "end_time": "127.5"
        },
        {
            "id": "73",
            "type": "output",
            "source_block_id": "125",
            "destination_block_id": "593",
            "crane": "1",
            "start_time": "105.5",
            "end_time": "118.5"
        },
        {
            "id": "92",
            "type": "output",
            "source_block_id": "421",
            "destination_block_id": "608",
            "crane": "0",
            "start_time": "458.69999694824219",
            "end_time": "492.69999694824219"
        },
        {
            "id": "186",
            "type": "input",
            "source_block_id": "534",
            "destination_block_id": "394",
            "crane": "0",
            "start_time": "348.69999694824219",
            "end_time": "354.69999694824219"
        },
        {
            "id": "187",
            "type": "input",
            "source_block_id": "543",
            "destination_block_id": "8",
            "crane": "0",
            "start_time": "218.69999694824219",
            "end_time": "219.69999694824219"
        },
        {
            "id": "188",
            "type": "input",
            "source_block_id": "558",
            "destination_block_id": "399",
            "crane": "0",
            "start_time": "122.20000076293945",
            "end_time": "126.20000076293945"
        },
        {
            "id": "189",
            "type": "input",
            "source_block_id": "620",
            "destination_block_id": "274",
            "crane": "1",
            "start_time": "211.5",
            "end_time": "217.5"
        },
        {
            "id": "190",
            "type": "input",
            "source_block_id": "628",
            "destination_block_id": "308",
            "crane": "1",
            "start_time": "197.5",
            "end_time": "204.5"
        },
        {
            "id": "101",
            "type": "output",
            "source_block_id": "274",
            "destination_block_id": "626",
            "crane": "1",
            "start_time": "160.5",
            "end_time": "166.5"
        },
        {
            "id": "191",
            "type": "input",
            "source_block_id": "567",
            "destination_block_id": "16",
            "crane": "0",
            "start_time": "196.69999694824219",
            "end_time": "200.69999694824219"
        },
        {
            "id": "192",
            "type": "input",
            "source_block_id": "574",
            "destination_block_id": "446",
            "crane": "1",
            "start_time": "253.5",
            "end_time": "256.5"
        },
        {
            "id": "74",
            "type": "output",
            "source_block_id": "93",
            "destination_block_id": "563",
            "crane": "1",
            "start_time": "296.5",
            "end_time": "301.5"
        },
        {
            "id": "193",
            "type": "input",
            "source_block_id": "613",
            "destination_block_id": "177",
            "crane": "0",
            "start_time": "244.69999694824219",
            "end_time": "247.69999694824219"
        },
        {
            "id": "194",
            "type": "input",
            "source_block_id": "560",
            "destination_block_id": "405",
            "crane": "0",
            "start_time": "139.20000076293945",
            "end_time": "143.20000076293945"
        },
        {
            "id": "195",
            "type": "input",
            "source_block_id": "607",
            "destination_block_id": "73",
            "crane": "0",
            "start_time": "235.69999694824219",
            "end_time": "239.69999694824219"
        },
        {
            "id": "196",
            "type": "input",
            "source_block_id": "598",
            "destination_block_id": "448",
            "crane": "1",
            "start_time": "183.5",
            "end_time": "190.5"
        },
        {
            "id": "120",
            "type": "output",
            "source_block_id": "69",
            "destination_block_id": "548",
            "crane": "1",
            "start_time": "371.69999694824219",
            "end_time": "395.69999694824219"
        },
        {
            "id": "197",
            "type": "input",
            "source_block_id": "624",
            "destination_block_id": "482",
            "crane": "1",
            "start_time": "167.5",
            "end_time": "175.5"
        },
        {
            "id": "198",
            "type": "input",
            "source_block_id": "614",
            "destination_block_id": "376",
            "crane": "1",
            "start_time": "148.5",
            "end_time": "157.5"
        },
        {
            "id": "199",
            "type": "input",
            "source_block_id": "597",
            "destination_block_id": "303",
            "crane": "1",
            "start_time": "278.5",
            "end_time": "290.5"
        },
        {
            "id": "200",
            "type": "input",
            "source_block_id": "562",
            "destination_block_id": "365",
            "crane": "0",
            "start_time": "152.69999694824219",
            "end_time": "157.69999694824219"
        },
        {
            "id": "201",
            "type": "input",
            "source_block_id": "553",
            "destination_block_id": "47",
            "crane": "0",
            "start_time": "212.69999694824219",
            "end_time": "214.69999694824219"
        },
        {
            "id": "202",
            "type": "input",
            "source_block_id": "533",
            "destination_block_id": "39",
            "crane": "0",
            "start_time": "228.69999694824219",
            "end_time": "230.69999694824219"
        },
        {
            "id": "203",
            "type": "input",
            "source_block_id": "619",
            "destination_block_id": "180",
            "crane": "0",
            "start_time": "264.69999694824219",
            "end_time": "270.69999694824219"
        },
        {
            "id": "204",
            "type": "input",
            "source_block_id": "557",
            "destination_block_id": "50",
            "crane": "0",
            "start_time": "176.69999694824219",
            "end_time": "178.69999694824219"
        },
        {
            "id": "205",
            "type": "input",
            "source_block_id": "628",
            "destination_block_id": "232",
            "crane": "1",
            "start_time": "427.69999694824219",
            "end_time": "440.69999694824219"
        },
        {
            "id": "206",
            "type": "input",
            "source_block_id": "585",
            "destination_block_id": "266",
            "crane": "1",
            "start_time": "312.5",
            "end_time": "320.5"
        },
        {
            "id": "207",
            "type": "input",
            "source_block_id": "571",
            "destination_block_id": "157",
            "crane": "1",
            "start_time": "225.5",
            "end_time": "230.5"
        },
        {
            "id": "208",
            "type": "input",
            "source_block_id": "537",
            "destination_block_id": "75",
            "crane": "0",
            "start_time": "222.69999694824219",
            "end_time": "225.69999694824219"
        },
        {
            "id": "209",
            "type": "input",
            "source_block_id": "553",
            "destination_block_id": "81",
            "crane": "0",
            "start_time": "180.69999694824219",
            "end_time": "183.69999694824219"
        },
        {
            "id": "210",
            "type": "input",
            "source_block_id": "613",
            "destination_block_id": "111",
            "crane": "0",
            "start_time": "250.69999694824219",
            "end_time": "257.69999694824219"
        },
        {
            "id": "211",
            "type": "input",
            "source_block_id": "536",
            "destination_block_id": "289",
            "crane": "0",
            "start_time": "300.69999694824219",
            "end_time": "307.69999694824219"
        },
        {
            "id": "153",
            "type": "output",
            "source_block_id": "523",
            "destination_block_id": "610",
            "crane": "1",
            "start_time": "263.5",
            "end_time": "272.5"
        },
        {
            "id": "212",
            "type": "input",
            "source_block_id": "553",
            "destination_block_id": "83",
            "crane": "0",
            "start_time": "186.69999694824219",
            "end_time": "189.69999694824219"
        },
        {
            "id": "213",
            "type": "input",
            "source_block_id": "574",
            "destination_block_id": "334",
            "crane": "1",
            "start_time": "241.5",
            "end_time": "247.5"
        },
        {
            "id": "214",
            "type": "input",
            "source_block_id": "530",
            "destination_block_id": "220",
            "crane": "0",
            "start_time": "315.69999694824219",
            "end_time": "324.69999694824219"
        }
    ]
}
