{
    "objective": "21772.573762522432",
    "BAP cost": "2473",
    "CSP cost": "41072.147525044864",
    "products": [
        {
            "id": "1248",
            "type": "yard_movement",
            "source_block_id": "2238",
            "destination_block_id": "2022",
            "crane": "0",
            "start_time": "0",
            "end_time": "8"
        },
        {
            "id": "798",
            "type": "yard_movement",
            "source_block_id": "2164",
            "destination_block_id": "1638",
            "crane": "0",
            "start_time": "15",
            "end_time": "18"
        },
        {
            "id": "1798",
            "type": "yard_movement",
            "source_block_id": "849",
            "destination_block_id": "1899",
            "crane": "1",
            "start_time": "1",
            "end_time": "7"
        },
        {
            "id": "1208",
            "type": "yard_movement",
            "source_block_id": "1072",
            "destination_block_id": "956",
            "crane": "0",
            "start_time": "26",
            "end_time": "38"
        },
        {
            "id": "1783",
            "type": "yard_movement",
            "source_block_id": "618",
            "destination_block_id": "2114",
            "crane": "0",
            "start_time": "40",
            "end_time": "56"
        },
        {
            "id": "1513",
            "type": "yard_movement",
            "source_block_id": "688",
            "destination_block_id": "1353",
            "crane": "1",
            "start_time": "14",
            "end_time": "21"
        },
        {
            "id": "1560",
            "type": "yard_movement",
            "source_block_id": "1564",
            "destination_block_id": "1664",
            "crane": "1",
            "start_time": "40",
            "end_time": "55"
        },
        {
            "id": "1601",
            "type": "yard_movement",
            "source_block_id": "2337",
            "destination_block_id": "1748",
            "crane": "1",
            "start_time": "60",
            "end_time": "82"
        },
        {
            "id": "1718",
            "type": "yard_movement",
            "source_block_id": "844",
            "destination_block_id": "2037",
            "crane": "0",
            "start_time": "82",
            "end_time": "89"
        },
        {
            "id": "1720",
            "type": "yard_movement",
            "source_block_id": "209",
            "destination_block_id": "1924",
            "crane": "1",
            "start_time": "110",
            "end_time": "138"
        },
        {
            "id": "494",
            "type": "yard_movement",
            "source_block_id": "1993",
            "destination_block_id": "2443",
            "crane": "0",
            "start_time": "120",
            "end_time": "140"
        },
        {
            "id": "432",
            "type": "yard_movement",
            "source_block_id": "1823",
            "destination_block_id": "1639",
            "crane": "0",
            "start_time": "159",
            "end_time": "161"
        },
        {
            "id": "1837",
            "type": "input",
            "source_block_id": "2630",
            "destination_block_id": "1579",
            "crane": "0",
            "start_time": "172",
            "end_time": "178"
        },
        {
            "id": "1838",
            "type": "input",
            "source_block_id": "2659",
            "destination_block_id": "94",
            "crane": "1",
            "start_time": "160",
            "end_time": "164"
        },
        {
            "id": "1839",
            "type": "input",
            "source_block_id": "2637",
            "destination_block_id": "2243",
            "crane": "1",
            "start_time": "177",
            "end_time": "200"
        },
        {
            "id": "1840",
            "type": "input",
            "source_block_id": "2683",
            "destination_block_id": "2244",
            "crane": "1",
            "start_time": "213",
            "end_time": "226"
        },
        {
            "id": "1841",
            "type": "input",
            "source_block_id": "2659",
            "destination_block_id": "1304",
            "crane": "0",
            "start_time": "194",
            "end_time": "202"
        },
        {
            "id": "1842",
            "type": "input",
            "source_block_id": "2662",
            "destination_block_id": "2483",
            "crane": "0",
            "start_time": "210",
            "end_time": "221"
        },
        {
            "id": "1843",
            "type": "input",
            "source_block_id": "2658",
            "destination_block_id": "1124",
            "crane": "0",
            "start_time": "230",
            "end_time": "239"
        },
        {
            "id": "1844",
            "type": "input",
            "source_block_id": "2683",
            "destination_block_id": "2068",
            "crane": "1",
            "start_time": "239",
            "end_time": "251"
        },
        {
            "id": "1845",
            "type": "input",
            "source_block_id": "2728",
            "destination_block_id": "1523",
            "crane": "1",
            "start_time": "258",
            "end_time": "269"
        },
        {
            "id": "1846",
            "type": "input",
            "source_block_id": "2654",
            "destination_block_id": "2489",
            "crane": "0",
            "start_time": "248",
            "end_time": "254"
        },
        {
            "id": "1847",
            "type": "input",
            "source_block_id": "2715",
            "destination_block_id": "2496",
            "crane": "0",
            "start_time": "262",
            "end_time": "272"
        },
        {
            "id": "1848",
            "type": "input",
            "source_block_id": "2707",
            "destination_block_id": "2508",
            "crane": "0",
            "start_time": "282",
            "end_time": "294"
        },
        {
            "id": "1849",
            "type": "input",
            "source_block_id": "2713",
            "destination_block_id": "39",
            "crane": "0",
            "start_time": "306",
            "end_time": "314"
        },
        {
            "id": "1850",
            "type": "input",
            "source_block_id": "2631",
            "destination_block_id": "904",
            "crane": "0",
            "start_time": "319",
            "end_time": "325"
        },
        {
            "id": "1851",
            "type": "input",
            "source_block_id": "2687",
            "destination_block_id": "2152",
            "crane": "1",
            "start_time": "282",
            "end_time": "302"
        },
        {
            "id": "1852",
            "type": "input",
            "source_block_id": "2655",
            "destination_block_id": "1793",
            "crane": "1",
            "start_time": "315",
            "end_time": "326"
        },
        {
            "id": "1853",
            "type": "input",
            "source_block_id": "2719",
            "destination_block_id": "734",
            "crane": "0",
            "start_time": "331",
            "end_time": "338"
        },
        {
            "id": "1854",
            "type": "input",
            "source_block_id": "2715",
            "destination_block_id": "1183",
            "crane": "1",
            "start_time": "348",
            "end_time": "375"
        },
        {
            "id": "1855",
            "type": "input",
            "source_block_id": "2657",
            "destination_block_id": "911",
            "crane": "0",
            "start_time": "367",
            "end_time": "375"
        },
        {
            "id": "1856",
            "type": "input",
            "source_block_id": "2707",
            "destination_block_id": "1259",
            "crane": "0",
            "start_time": "383",
            "end_time": "390"
        },
        {
            "id": "1857",
            "type": "input",
            "source_block_id": "2660",
            "destination_block_id": "2509",
            "crane": "1",
            "start_time": "385",
            "end_time": "390"
        },
        {
            "id": "1858",
            "type": "input",
            "source_block_id": "2643",
            "destination_block_id": "2624",
            "crane": "1",
            "start_time": "405",
            "end_time": "431"
        },
        {
            "id": "1859",
            "type": "input",
            "source_block_id": "2662",
            "destination_block_id": "374",
            "crane": "0",
            "start_time": "417",
            "end_time": "430"
        },
        {
            "id": "1860",
            "type": "input",
            "source_block_id": "2667",
            "destination_block_id": "1802",
            "crane": "0",
            "start_time": "446",
            "end_time": "457"
        },
        {
            "id": "1861",
            "type": "input",
            "source_block_id": "2667",
            "destination_block_id": "1314",
            "crane": "0",
            "start_time": "468",
            "end_time": "476"
        },
        {
            "id": "1862",
            "type": "input",
            "source_block_id": "2724",
            "destination_block_id": "2129",
            "crane": "1",
            "start_time": "468",
            "end_time": "498"
        },
        {
            "id": "1863",
            "type": "input",
            "source_block_id": "2641",
            "destination_block_id": "1122",
            "crane": "0",
            "start_time": "503",
            "end_time": "510"
        },
        {
            "id": "1864",
            "type": "input",
            "source_block_id": "2636",
            "destination_block_id": "2318",
            "crane": "0",
            "start_time": "520",
            "end_time": "524"
        },
        {
            "id": "1865",
            "type": "input",
            "source_block_id": "2698",
            "destination_block_id": "2623",
            "crane": "1",
            "start_time": "528",
            "end_time": "531"
        },
        {
            "id": "1866",
            "type": "input",
            "source_block_id": "2720",
            "destination_block_id": "912",
            "crane": "1",
            "start_time": "535",
            "end_time": "563"
        },
        {
            "id": "1867",
            "type": "input",
            "source_block_id": "2643",
            "destination_block_id": "2158",
            "crane": "0",
            "start_time": "567",
            "end_time": "580"
        },
        {
            "id": "1868",
            "type": "input",
            "source_block_id": "2655",
            "destination_block_id": "264",
            "crane": "1",
            "start_time": "570",
            "end_time": "574"
        },
        {
            "id": "1869",
            "type": "input",
            "source_block_id": "2728",
            "destination_block_id": "1349",
            "crane": "1",
            "start_time": "592",
            "end_time": "603"
        },
        {
            "id": "1870",
            "type": "input",
            "source_block_id": "2702",
            "destination_block_id": "2249",
            "crane": "1",
            "start_time": "614",
            "end_time": "625"
        },
        {
            "id": "1871",
            "type": "input",
            "source_block_id": "2658",
            "destination_block_id": "1123",
            "crane": "0",
            "start_time": "584",
            "end_time": "593"
        },
        {
            "id": "1872",
            "type": "input",
            "source_block_id": "2683",
            "destination_block_id": "878",
            "crane": "0",
            "start_time": "627",
            "end_time": "655"
        },
        {
            "id": "1873",
            "type": "input",
            "source_block_id": "2719",
            "destination_block_id": "1134",
            "crane": "0",
            "start_time": "660",
            "end_time": "677"
        },
        {
            "id": "1874",
            "type": "input",
            "source_block_id": "2691",
            "destination_block_id": "923",
            "crane": "1",
            "start_time": "664",
            "end_time": "687"
        },
        {
            "id": "1875",
            "type": "input",
            "source_block_id": "2631",
            "destination_block_id": "1858",
            "crane": "1",
            "start_time": "694",
            "end_time": "713"
        },
        {
            "id": "1876",
            "type": "input",
            "source_block_id": "2703",
            "destination_block_id": "2038",
            "crane": "0",
            "start_time": "694",
            "end_time": "717"
        },
        {
            "id": "1877",
            "type": "input",
            "source_block_id": "2674",
            "destination_block_id": "1794",
            "crane": "1",
            "start_time": "719",
            "end_time": "734"
        },
        {
            "id": "1878",
            "type": "input",
            "source_block_id": "2707",
            "destination_block_id": "1224",
            "crane": "1",
            "start_time": "743",
            "end_time": "778"
        },
        {
            "id": "1879",
            "type": "input",
            "source_block_id": "2634",
            "destination_block_id": "2159",
            "crane": "0",
            "start_time": "750",
            "end_time": "758"
        },
        {
            "id": "1880",
            "type": "input",
            "source_block_id": "2722",
            "destination_block_id": "2169",
            "crane": "1",
            "start_time": "783",
            "end_time": "805"
        },
        {
            "id": "1881",
            "type": "input",
            "source_block_id": "2707",
            "destination_block_id": "879",
            "crane": "0",
            "start_time": "770",
            "end_time": "774"
        },
        {
            "id": "1882",
            "type": "input",
            "source_block_id": "2682",
            "destination_block_id": "2036",
            "crane": "1",
            "start_time": "819",
            "end_time": "824"
        },
        {
            "id": "1883",
            "type": "input",
            "source_block_id": "2661",
            "destination_block_id": "2319",
            "crane": "0",
            "start_time": "812",
            "end_time": "826"
        },
        {
            "id": "1884",
            "type": "input",
            "source_block_id": "2724",
            "destination_block_id": "758",
            "crane": "1",
            "start_time": "837",
            "end_time": "861"
        },
        {
            "id": "1885",
            "type": "input",
            "source_block_id": "2653",
            "destination_block_id": "124",
            "crane": "0",
            "start_time": "866",
            "end_time": "877"
        },
        {
            "id": "1886",
            "type": "input",
            "source_block_id": "2675",
            "destination_block_id": "604",
            "crane": "1",
            "start_time": "880",
            "end_time": "889"
        },
        {
            "id": "1887",
            "type": "input",
            "source_block_id": "2658",
            "destination_block_id": "1312",
            "crane": "0",
            "start_time": "892",
            "end_time": "900"
        },
        {
            "id": "1888",
            "type": "input",
            "source_block_id": "2670",
            "destination_block_id": "1313",
            "crane": "0",
            "start_time": "908",
            "end_time": "916"
        },
        {
            "id": "1889",
            "type": "input",
            "source_block_id": "2702",
            "destination_block_id": "2248",
            "crane": "1",
            "start_time": "909",
            "end_time": "920"
        },
        {
            "id": "1890",
            "type": "input",
            "source_block_id": "2645",
            "destination_block_id": "349",
            "crane": "1",
            "start_time": "940",
            "end_time": "965"
        },
        {
            "id": "1891",
            "type": "input",
            "source_block_id": "2723",
            "destination_block_id": "2194",
            "crane": "0",
            "start_time": "940",
            "end_time": "959"
        },
        {
            "id": "1892",
            "type": "input",
            "source_block_id": "2657",
            "destination_block_id": "294",
            "crane": "1",
            "start_time": "984",
            "end_time": "992"
        },
        {
            "id": "1893",
            "type": "input",
            "source_block_id": "2707",
            "destination_block_id": "2511",
            "crane": "0",
            "start_time": "978",
            "end_time": "991"
        },
        {
            "id": "1894",
            "type": "input",
            "source_block_id": "2645",
            "destination_block_id": "2039",
            "crane": "0",
            "start_time": "1006",
            "end_time": "1019"
        },
        {
            "id": "1244",
            "type": "yard_movement",
            "source_block_id": "2237",
            "destination_block_id": "9",
            "crane": "0",
            "start_time": "1024",
            "end_time": "1050"
        },
        {
            "id": "680",
            "type": "yard_movement",
            "source_block_id": "2163",
            "destination_block_id": "1069",
            "crane": "1",
            "start_time": "1042",
            "end_time": "1051"
        },
        {
            "id": "900",
            "type": "yard_movement",
            "source_block_id": "848",
            "destination_block_id": "913",
            "crane": "0",
            "start_time": "1080",
            "end_time": "1102"
        },
        {
            "id": "677",
            "type": "yard_movement",
            "source_block_id": "1071",
            "destination_block_id": "1999",
            "crane": "0",
            "start_time": "1105",
            "end_time": "1115"
        },
        {
            "id": "1318",
            "type": "output",
            "source_block_id": "617",
            "destination_block_id": "2678",
            "crane": "1",
            "start_time": "1094",
            "end_time": "1106"
        },
        {
            "id": "1375",
            "type": "yard_movement",
            "source_block_id": "687",
            "destination_block_id": "254",
            "crane": "1",
            "start_time": "1118",
            "end_time": "1135"
        },
        {
            "id": "981",
            "type": "yard_movement",
            "source_block_id": "1563",
            "destination_block_id": "700",
            "crane": "1",
            "start_time": "1152",
            "end_time": "1184"
        },
        {
            "id": "374",
            "type": "yard_movement",
            "source_block_id": "2336",
            "destination_block_id": "914",
            "crane": "0",
            "start_time": "1118",
            "end_time": "1126"
        },
        {
            "id": "1237",
            "type": "yard_movement",
            "source_block_id": "843",
            "destination_block_id": "968",
            "crane": "1",
            "start_time": "1212",
            "end_time": "1222"
        },
        {
            "id": "1569",
            "type": "yard_movement",
            "source_block_id": "208",
            "destination_block_id": "2284",
            "crane": "0",
            "start_time": "1130",
            "end_time": "1142"
        },
        {
            "id": "453",
            "type": "yard_movement",
            "source_block_id": "1992",
            "destination_block_id": "1929",
            "crane": "0",
            "start_time": "1200",
            "end_time": "1213"
        },
        {
            "id": "309",
            "type": "yard_movement",
            "source_block_id": "1822",
            "destination_block_id": "939",
            "crane": "0",
            "start_time": "1227",
            "end_time": "1232"
        },
        {
            "id": "909",
            "type": "output",
            "source_block_id": "2236",
            "destination_block_id": "2625",
            "crane": "0",
            "start_time": "1247",
            "end_time": "1275"
        },
        {
            "id": "587",
            "type": "output",
            "source_block_id": "2162",
            "destination_block_id": "2688",
            "crane": "1",
            "start_time": "1265",
            "end_time": "1283"
        },
        {
            "id": "787",
            "type": "yard_movement",
            "source_block_id": "847",
            "destination_block_id": "284",
            "crane": "1",
            "start_time": "1294",
            "end_time": "1302"
        },
        {
            "id": "537",
            "type": "output",
            "source_block_id": "1070",
            "destination_block_id": "2680",
            "crane": "0",
            "start_time": "1294",
            "end_time": "1316"
        },
        {
            "id": "703",
            "type": "output",
            "source_block_id": "686",
            "destination_block_id": "2704",
            "crane": "1",
            "start_time": "1313",
            "end_time": "1316"
        },
        {
            "id": "395",
            "type": "yard_movement",
            "source_block_id": "1562",
            "destination_block_id": "674",
            "crane": "1",
            "start_time": "1322",
            "end_time": "1327"
        },
        {
            "id": "262",
            "type": "output",
            "source_block_id": "2335",
            "destination_block_id": "2695",
            "crane": "0",
            "start_time": "1330",
            "end_time": "1352"
        },
        {
            "id": "825",
            "type": "yard_movement",
            "source_block_id": "842",
            "destination_block_id": "2149",
            "crane": "0",
            "start_time": "1358",
            "end_time": "1377"
        },
        {
            "id": "1061",
            "type": "output",
            "source_block_id": "207",
            "destination_block_id": "2668",
            "crane": "1",
            "start_time": "1383",
            "end_time": "1397"
        },
        {
            "id": "219",
            "type": "yard_movement",
            "source_block_id": "1991",
            "destination_block_id": "1484",
            "crane": "0",
            "start_time": "1393",
            "end_time": "1396"
        },
        {
            "id": "293",
            "type": "output",
            "source_block_id": "1821",
            "destination_block_id": "2644",
            "crane": "0",
            "start_time": "1399",
            "end_time": "1405"
        },
        {
            "id": "266",
            "type": "yard_movement",
            "source_block_id": "846",
            "destination_block_id": "1859",
            "crane": "1",
            "start_time": "1408",
            "end_time": "1416"
        },
        {
            "id": "98",
            "type": "output",
            "source_block_id": "1561",
            "destination_block_id": "2629",
            "crane": "0",
            "start_time": "1430",
            "end_time": "1461"
        },
        {
            "id": "278",
            "type": "output",
            "source_block_id": "841",
            "destination_block_id": "2666",
            "crane": "1",
            "start_time": "1437",
            "end_time": "1448"
        },
        {
            "id": "120",
            "type": "output",
            "source_block_id": "1990",
            "destination_block_id": "2676",
            "crane": "1",
            "start_time": "1454",
            "end_time": "1465"
        },
        {
            "id": "24",
            "type": "output",
            "source_block_id": "845",
            "destination_block_id": "2712",
            "crane": "1",
            "start_time": "1476",
            "end_time": "1482"
        }
    ]
}
