{
    "objective": "17121.573762522425",
    "BAP cost": "1570",
    "CSP cost": "32673.147525044849",
    "products": [
        {
            "id": "943",
            "type": "yard_movement",
            "source_block_id": "1376",
            "destination_block_id": "251",
            "crane": "0",
            "start_time": "0",
            "end_time": "11"
        },
        {
            "id": "899",
            "type": "yard_movement",
            "source_block_id": "497",
            "destination_block_id": "1252",
            "crane": "1",
            "start_time": "0",
            "end_time": "7"
        },
        {
            "id": "858",
            "type": "yard_movement",
            "source_block_id": "725",
            "destination_block_id": "1028",
            "crane": "1",
            "start_time": "12",
            "end_time": "16"
        },
        {
            "id": "620",
            "type": "yard_movement",
            "source_block_id": "1250",
            "destination_block_id": "1197",
            "crane": "0",
            "start_time": "29",
            "end_time": "46"
        },
        {
            "id": "756",
            "type": "yard_movement",
            "source_block_id": "1534",
            "destination_block_id": "262",
            "crane": "1",
            "start_time": "42",
            "end_time": "54"
        },
        {
            "id": "754",
            "type": "yard_movement",
            "source_block_id": "557",
            "destination_block_id": "1310",
            "crane": "1",
            "start_time": "61",
            "end_time": "68"
        },
        {
            "id": "1102",
            "type": "input",
            "source_block_id": "1604",
            "destination_block_id": "269",
            "crane": "1",
            "start_time": "71",
            "end_time": "84"
        },
        {
            "id": "1103",
            "type": "input",
            "source_block_id": "1587",
            "destination_block_id": "539",
            "crane": "0",
            "start_time": "58",
            "end_time": "64"
        },
        {
            "id": "1104",
            "type": "input",
            "source_block_id": "1610",
            "destination_block_id": "1229",
            "crane": "0",
            "start_time": "77",
            "end_time": "85"
        },
        {
            "id": "1105",
            "type": "input",
            "source_block_id": "1586",
            "destination_block_id": "1175",
            "crane": "0",
            "start_time": "105",
            "end_time": "109"
        },
        {
            "id": "1106",
            "type": "input",
            "source_block_id": "1607",
            "destination_block_id": "926",
            "crane": "1",
            "start_time": "97",
            "end_time": "110"
        },
        {
            "id": "1107",
            "type": "input",
            "source_block_id": "1657",
            "destination_block_id": "661",
            "crane": "0",
            "start_time": "116",
            "end_time": "127"
        },
        {
            "id": "1108",
            "type": "input",
            "source_block_id": "1582",
            "destination_block_id": "311",
            "crane": "1",
            "start_time": "138",
            "end_time": "169"
        },
        {
            "id": "204",
            "type": "output",
            "source_block_id": "532",
            "destination_block_id": "1630",
            "crane": "0",
            "start_time": "141",
            "end_time": "165"
        },
        {
            "id": "1109",
            "type": "input",
            "source_block_id": "1635",
            "destination_block_id": "160",
            "crane": "1",
            "start_time": "173",
            "end_time": "184"
        },
        {
            "id": "1110",
            "type": "input",
            "source_block_id": "1595",
            "destination_block_id": "215",
            "crane": "0",
            "start_time": "182",
            "end_time": "190"
        },
        {
            "id": "1111",
            "type": "input",
            "source_block_id": "1625",
            "destination_block_id": "143",
            "crane": "1",
            "start_time": "190",
            "end_time": "202"
        },
        {
            "id": "1112",
            "type": "input",
            "source_block_id": "1620",
            "destination_block_id": "851",
            "crane": "0",
            "start_time": "214",
            "end_time": "232"
        },
        {
            "id": "1113",
            "type": "input",
            "source_block_id": "1614",
            "destination_block_id": "641",
            "crane": "1",
            "start_time": "220",
            "end_time": "235"
        },
        {
            "id": "1114",
            "type": "input",
            "source_block_id": "1665",
            "destination_block_id": "650",
            "crane": "0",
            "start_time": "236",
            "end_time": "243"
        },
        {
            "id": "1115",
            "type": "input",
            "source_block_id": "1589",
            "destination_block_id": "1021",
            "crane": "1",
            "start_time": "246",
            "end_time": "265"
        },
        {
            "id": "1116",
            "type": "input",
            "source_block_id": "1621",
            "destination_block_id": "1532",
            "crane": "0",
            "start_time": "265",
            "end_time": "280"
        },
        {
            "id": "1117",
            "type": "input",
            "source_block_id": "1650",
            "destination_block_id": "161",
            "crane": "0",
            "start_time": "295",
            "end_time": "312"
        },
        {
            "id": "1118",
            "type": "input",
            "source_block_id": "1652",
            "destination_block_id": "359",
            "crane": "1",
            "start_time": "298",
            "end_time": "319"
        },
        {
            "id": "298",
            "type": "output",
            "source_block_id": "216",
            "destination_block_id": "1615",
            "crane": "0",
            "start_time": "328",
            "end_time": "345"
        },
        {
            "id": "1119",
            "type": "input",
            "source_block_id": "1678",
            "destination_block_id": "677",
            "crane": "1",
            "start_time": "340",
            "end_time": "360"
        },
        {
            "id": "1120",
            "type": "input",
            "source_block_id": "1591",
            "destination_block_id": "1571",
            "crane": "1",
            "start_time": "368",
            "end_time": "394"
        },
        {
            "id": "1121",
            "type": "input",
            "source_block_id": "1589",
            "destination_block_id": "1530",
            "crane": "0",
            "start_time": "370",
            "end_time": "385"
        },
        {
            "id": "1122",
            "type": "input",
            "source_block_id": "1611",
            "destination_block_id": "554",
            "crane": "0",
            "start_time": "400",
            "end_time": "408"
        },
        {
            "id": "1123",
            "type": "input",
            "source_block_id": "1614",
            "destination_block_id": "443",
            "crane": "0",
            "start_time": "418",
            "end_time": "429"
        },
        {
            "id": "1124",
            "type": "input",
            "source_block_id": "1632",
            "destination_block_id": "84",
            "crane": "1",
            "start_time": "400",
            "end_time": "415"
        },
        {
            "id": "1125",
            "type": "input",
            "source_block_id": "1652",
            "destination_block_id": "1019",
            "crane": "1",
            "start_time": "422",
            "end_time": "433"
        },
        {
            "id": "1126",
            "type": "input",
            "source_block_id": "1664",
            "destination_block_id": "592",
            "crane": "1",
            "start_time": "444",
            "end_time": "457"
        },
        {
            "id": "1127",
            "type": "input",
            "source_block_id": "1635",
            "destination_block_id": "1018",
            "crane": "1",
            "start_time": "464",
            "end_time": "474"
        },
        {
            "id": "1128",
            "type": "input",
            "source_block_id": "1609",
            "destination_block_id": "1487",
            "crane": "0",
            "start_time": "438",
            "end_time": "453"
        },
        {
            "id": "1129",
            "type": "input",
            "source_block_id": "1608",
            "destination_block_id": "490",
            "crane": "0",
            "start_time": "468",
            "end_time": "479"
        },
        {
            "id": "715",
            "type": "output",
            "source_block_id": "1405",
            "destination_block_id": "1618",
            "crane": "1",
            "start_time": "492",
            "end_time": "499"
        },
        {
            "id": "1130",
            "type": "input",
            "source_block_id": "1653",
            "destination_block_id": "593",
            "crane": "0",
            "start_time": "503",
            "end_time": "526"
        },
        {
            "id": "1131",
            "type": "input",
            "source_block_id": "1604",
            "destination_block_id": "37",
            "crane": "0",
            "start_time": "536",
            "end_time": "551"
        },
        {
            "id": "1132",
            "type": "input",
            "source_block_id": "1678",
            "destination_block_id": "496",
            "crane": "1",
            "start_time": "514",
            "end_time": "524"
        },
        {
            "id": "1133",
            "type": "input",
            "source_block_id": "1620",
            "destination_block_id": "261",
            "crane": "1",
            "start_time": "535",
            "end_time": "548"
        },
        {
            "id": "1134",
            "type": "input",
            "source_block_id": "1650",
            "destination_block_id": "998",
            "crane": "1",
            "start_time": "566",
            "end_time": "584"
        },
        {
            "id": "1135",
            "type": "input",
            "source_block_id": "1625",
            "destination_block_id": "413",
            "crane": "1",
            "start_time": "594",
            "end_time": "602"
        },
        {
            "id": "536",
            "type": "output",
            "source_block_id": "1168",
            "destination_block_id": "1588",
            "crane": "0",
            "start_time": "562",
            "end_time": "566"
        },
        {
            "id": "1136",
            "type": "input",
            "source_block_id": "1610",
            "destination_block_id": "371",
            "crane": "0",
            "start_time": "586",
            "end_time": "598"
        },
        {
            "id": "1137",
            "type": "input",
            "source_block_id": "1611",
            "destination_block_id": "549",
            "crane": "0",
            "start_time": "602",
            "end_time": "611"
        },
        {
            "id": "508",
            "type": "output",
            "source_block_id": "84",
            "destination_block_id": "1592",
            "crane": "1",
            "start_time": "606",
            "end_time": "627"
        },
        {
            "id": "1138",
            "type": "input",
            "source_block_id": "1663",
            "destination_block_id": "275",
            "crane": "0",
            "start_time": "622",
            "end_time": "644"
        },
        {
            "id": "1139",
            "type": "input",
            "source_block_id": "1589",
            "destination_block_id": "491",
            "crane": "1",
            "start_time": "662",
            "end_time": "679"
        },
        {
            "id": "1140",
            "type": "input",
            "source_block_id": "1581",
            "destination_block_id": "213",
            "crane": "0",
            "start_time": "663",
            "end_time": "666"
        },
        {
            "id": "1141",
            "type": "input",
            "source_block_id": "1584",
            "destination_block_id": "214",
            "crane": "0",
            "start_time": "679",
            "end_time": "692"
        },
        {
            "id": "1009",
            "type": "output",
            "source_block_id": "1184",
            "destination_block_id": "1627",
            "crane": "1",
            "start_time": "693",
            "end_time": "709"
        },
        {
            "id": "1142",
            "type": "input",
            "source_block_id": "1593",
            "destination_block_id": "479",
            "crane": "0",
            "start_time": "699",
            "end_time": "710"
        },
        {
            "id": "1143",
            "type": "input",
            "source_block_id": "1632",
            "destination_block_id": "662",
            "crane": "0",
            "start_time": "721",
            "end_time": "738"
        },
        {
            "id": "1144",
            "type": "input",
            "source_block_id": "1670",
            "destination_block_id": "919",
            "crane": "1",
            "start_time": "721",
            "end_time": "730"
        },
        {
            "id": "1145",
            "type": "input",
            "source_block_id": "1621",
            "destination_block_id": "591",
            "crane": "1",
            "start_time": "739",
            "end_time": "745"
        },
        {
            "id": "1146",
            "type": "input",
            "source_block_id": "1670",
            "destination_block_id": "649",
            "crane": "0",
            "start_time": "763",
            "end_time": "792"
        },
        {
            "id": "1147",
            "type": "input",
            "source_block_id": "1674",
            "destination_block_id": "806",
            "crane": "1",
            "start_time": "766",
            "end_time": "778"
        },
        {
            "id": "1148",
            "type": "input",
            "source_block_id": "1609",
            "destination_block_id": "1027",
            "crane": "0",
            "start_time": "802",
            "end_time": "813"
        },
        {
            "id": "1149",
            "type": "input",
            "source_block_id": "1595",
            "destination_block_id": "1022",
            "crane": "1",
            "start_time": "834",
            "end_time": "850"
        },
        {
            "id": "1150",
            "type": "input",
            "source_block_id": "1614",
            "destination_block_id": "630",
            "crane": "0",
            "start_time": "846",
            "end_time": "864"
        },
        {
            "id": "1151",
            "type": "input",
            "source_block_id": "1608",
            "destination_block_id": "263",
            "crane": "1",
            "start_time": "860",
            "end_time": "873"
        },
        {
            "id": "1152",
            "type": "input",
            "source_block_id": "1586",
            "destination_block_id": "1531",
            "crane": "0",
            "start_time": "873",
            "end_time": "889"
        },
        {
            "id": "1153",
            "type": "input",
            "source_block_id": "1625",
            "destination_block_id": "637",
            "crane": "0",
            "start_time": "904",
            "end_time": "926"
        },
        {
            "id": "1154",
            "type": "input",
            "source_block_id": "1648",
            "destination_block_id": "1067",
            "crane": "1",
            "start_time": "904",
            "end_time": "934"
        },
        {
            "id": "1155",
            "type": "input",
            "source_block_id": "1595",
            "destination_block_id": "2",
            "crane": "0",
            "start_time": "941",
            "end_time": "950"
        },
        {
            "id": "1156",
            "type": "input",
            "source_block_id": "1637",
            "destination_block_id": "743",
            "crane": "1",
            "start_time": "959",
            "end_time": "987"
        },
        {
            "id": "1157",
            "type": "input",
            "source_block_id": "1607",
            "destination_block_id": "887",
            "crane": "1",
            "start_time": "1000",
            "end_time": "1009"
        },
        {
            "id": "1158",
            "type": "input",
            "source_block_id": "1584",
            "destination_block_id": "728",
            "crane": "1",
            "start_time": "1021",
            "end_time": "1050"
        },
        {
            "id": "1159",
            "type": "input",
            "source_block_id": "1649",
            "destination_block_id": "20",
            "crane": "0",
            "start_time": "1021",
            "end_time": "1028"
        },
        {
            "id": "403",
            "type": "output",
            "source_block_id": "1375",
            "destination_block_id": "1668",
            "crane": "0",
            "start_time": "1041",
            "end_time": "1073"
        },
        {
            "id": "847",
            "type": "output",
            "source_block_id": "496",
            "destination_block_id": "1597",
            "crane": "0",
            "start_time": "1083",
            "end_time": "1098"
        },
        {
            "id": "431",
            "type": "output",
            "source_block_id": "724",
            "destination_block_id": "1638",
            "crane": "1",
            "start_time": "1080",
            "end_time": "1089"
        },
        {
            "id": "559",
            "type": "yard_movement",
            "source_block_id": "1249",
            "destination_block_id": "1499",
            "crane": "1",
            "start_time": "1093",
            "end_time": "1115"
        },
        {
            "id": "67",
            "type": "output",
            "source_block_id": "1533",
            "destination_block_id": "1675",
            "crane": "0",
            "start_time": "1130",
            "end_time": "1152"
        },
        {
            "id": "743",
            "type": "yard_movement",
            "source_block_id": "556",
            "destination_block_id": "44",
            "crane": "0",
            "start_time": "1163",
            "end_time": "1168"
        },
        {
            "id": "152",
            "type": "output",
            "source_block_id": "1248",
            "destination_block_id": "1656",
            "crane": "1",
            "start_time": "1137",
            "end_time": "1145"
        },
        {
            "id": "153",
            "type": "output",
            "source_block_id": "555",
            "destination_block_id": "1628",
            "crane": "0",
            "start_time": "1173",
            "end_time": "1188"
        }
    ]
}
