{
    "objective": "6550.523191370572",
    "BAP cost": "1157",
    "CSP cost": "11944.046382741139",
    "products": [
        {
            "id": "125",
            "type": "input",
            "source_block_id": "256",
            "destination_block_id": "0",
            "crane": "0",
            "start_time": "1.5",
            "end_time": "3.5"
        },
        {
            "id": "126",
            "type": "input",
            "source_block_id": "323",
            "destination_block_id": "139",
            "crane": "1",
            "start_time": "3.0999999046325684",
            "end_time": "14.099999904632568"
        },
        {
            "id": "127",
            "type": "input",
            "source_block_id": "285",
            "destination_block_id": "20",
            "crane": "1",
            "start_time": "193.29999923706055",
            "end_time": "203.29999923706055"
        },
        {
            "id": "128",
            "type": "input",
            "source_block_id": "299",
            "destination_block_id": "234",
            "crane": "1",
            "start_time": "77.299999237060547",
            "end_time": "91.299999237060547"
        },
        {
            "id": "129",
            "type": "input",
            "source_block_id": "255",
            "destination_block_id": "227",
            "crane": "0",
            "start_time": "31.299999237060547",
            "end_time": "32.299999237060547"
        },
        {
            "id": "130",
            "type": "input",
            "source_block_id": "264",
            "destination_block_id": "1",
            "crane": "0",
            "start_time": "15.699999809265137",
            "end_time": "20.699999809265137"
        },
        {
            "id": "131",
            "type": "input",
            "source_block_id": "307",
            "destination_block_id": "51",
            "crane": "0",
            "start_time": "509.29999923706055",
            "end_time": "533.29999923706055"
        },
        {
            "id": "73",
            "type": "output",
            "source_block_id": "187",
            "destination_block_id": "260",
            "crane": "1",
            "start_time": "21.299999237060547",
            "end_time": "29.299999237060547"
        },
        {
            "id": "132",
            "type": "input",
            "source_block_id": "258",
            "destination_block_id": "182",
            "crane": "1",
            "start_time": "30.299999237060547",
            "end_time": "38.299999237060547"
        },
        {
            "id": "133",
            "type": "input",
            "source_block_id": "292",
            "destination_block_id": "216",
            "crane": "1",
            "start_time": "439.29999923706055",
            "end_time": "448.29999923706055"
        },
        {
            "id": "134",
            "type": "input",
            "source_block_id": "278",
            "destination_block_id": "184",
            "crane": "0",
            "start_time": "199.29999923706055",
            "end_time": "207.29999923706055"
        },
        {
            "id": "135",
            "type": "input",
            "source_block_id": "284",
            "destination_block_id": "145",
            "crane": "1",
            "start_time": "66.299999237060547",
            "end_time": "72.299999237060547"
        },
        {
            "id": "136",
            "type": "input",
            "source_block_id": "312",
            "destination_block_id": "90",
            "crane": "0",
            "start_time": "46.299999237060547",
            "end_time": "62.299999237060547"
        },
        {
            "id": "137",
            "type": "input",
            "source_block_id": "286",
            "destination_block_id": "16",
            "crane": "1",
            "start_time": "146.29999923706055",
            "end_time": "147.29999923706055"
        },
        {
            "id": "138",
            "type": "input",
            "source_block_id": "310",
            "destination_block_id": "73",
            "crane": "1",
            "start_time": "479.29999923706055",
            "end_time": "503.29999923706055"
        },
        {
            "id": "139",
            "type": "input",
            "source_block_id": "266",
            "destination_block_id": "232",
            "crane": "1",
            "start_time": "46.299999237060547",
            "end_time": "56.299999237060547"
        },
        {
            "id": "140",
            "type": "input",
            "source_block_id": "307",
            "destination_block_id": "238",
            "crane": "1",
            "start_time": "512.29999923706055",
            "end_time": "524.29999923706055"
        },
        {
            "id": "141",
            "type": "input",
            "source_block_id": "312",
            "destination_block_id": "208",
            "crane": "0",
            "start_time": "96.299999237060547",
            "end_time": "105.29999923706055"
        },
        {
            "id": "5",
            "type": "output",
            "source_block_id": "67",
            "destination_block_id": "301",
            "crane": "1",
            "start_time": "125.29999923706055",
            "end_time": "133.29999923706055"
        },
        {
            "id": "142",
            "type": "input",
            "source_block_id": "261",
            "destination_block_id": "149",
            "crane": "1",
            "start_time": "612.29999923706055",
            "end_time": "632.29999923706055"
        },
        {
            "id": "143",
            "type": "input",
            "source_block_id": "278",
            "destination_block_id": "56",
            "crane": "0",
            "start_time": "66.299999237060547",
            "end_time": "73.299999237060547"
        },
        {
            "id": "144",
            "type": "input",
            "source_block_id": "266",
            "destination_block_id": "92",
            "crane": "0",
            "start_time": "541.29999923706055",
            "end_time": "551.29999923706055"
        },
        {
            "id": "145",
            "type": "input",
            "source_block_id": "322",
            "destination_block_id": "175",
            "crane": "0",
            "start_time": "91.299999237060547",
            "end_time": "93.299999237060547"
        },
        {
            "id": "146",
            "type": "input",
            "source_block_id": "256",
            "destination_block_id": "228",
            "crane": "0",
            "start_time": "77.299999237060547",
            "end_time": "87.299999237060547"
        },
        {
            "id": "147",
            "type": "input",
            "source_block_id": "270",
            "destination_block_id": "42",
            "crane": "0",
            "start_time": "366.29999923706055",
            "end_time": "374.29999923706055"
        },
        {
            "id": "148",
            "type": "input",
            "source_block_id": "266",
            "destination_block_id": "44",
            "crane": "1",
            "start_time": "111.29999923706055",
            "end_time": "123.29999923706055"
        },
        {
            "id": "149",
            "type": "input",
            "source_block_id": "307",
            "destination_block_id": "27",
            "crane": "0",
            "start_time": "330.29999923706055",
            "end_time": "353.29999923706055"
        },
        {
            "id": "150",
            "type": "input",
            "source_block_id": "292",
            "destination_block_id": "22",
            "crane": "1",
            "start_time": "151.29999923706055",
            "end_time": "153.29999923706055"
        },
        {
            "id": "112",
            "type": "output",
            "source_block_id": "16",
            "destination_block_id": "263",
            "crane": "0",
            "start_time": "127.29999923706055",
            "end_time": "138.29999923706055"
        },
        {
            "id": "151",
            "type": "input",
            "source_block_id": "289",
            "destination_block_id": "47",
            "crane": "1",
            "start_time": "167.29999923706055",
            "end_time": "176.29999923706055"
        },
        {
            "id": "24",
            "type": "output",
            "source_block_id": "210",
            "destination_block_id": "311",
            "crane": "1",
            "start_time": "303.29999923706055",
            "end_time": "318.29999923706055"
        },
        {
            "id": "152",
            "type": "input",
            "source_block_id": "299",
            "destination_block_id": "54",
            "crane": "1",
            "start_time": "555.29999923706055",
            "end_time": "574.29999923706055"
        },
        {
            "id": "84",
            "type": "output",
            "source_block_id": "178",
            "destination_block_id": "298",
            "crane": "0",
            "start_time": "413.29999923706055",
            "end_time": "433.29999923706055"
        },
        {
            "id": "55",
            "type": "output",
            "source_block_id": "136",
            "destination_block_id": "309",
            "crane": "1",
            "start_time": "226.29999923706055",
            "end_time": "240.29999923706055"
        },
        {
            "id": "153",
            "type": "input",
            "source_block_id": "259",
            "destination_block_id": "248",
            "crane": "1",
            "start_time": "534.29999923706055",
            "end_time": "554.29999923706055"
        },
        {
            "id": "51",
            "type": "output",
            "source_block_id": "93",
            "destination_block_id": "272",
            "crane": "1",
            "start_time": "100.29999923706055",
            "end_time": "108.29999923706055"
        },
        {
            "id": "96",
            "type": "output",
            "source_block_id": "72",
            "destination_block_id": "314",
            "crane": "1",
            "start_time": "454.29999923706055",
            "end_time": "477.29999923706055"
        },
        {
            "id": "154",
            "type": "input",
            "source_block_id": "259",
            "destination_block_id": "88",
            "crane": "0",
            "start_time": "111.29999923706055",
            "end_time": "121.29999923706055"
        },
        {
            "id": "155",
            "type": "input",
            "source_block_id": "299",
            "destination_block_id": "210",
            "crane": "1",
            "start_time": "593.29999923706055",
            "end_time": "606.29999923706055"
        },
        {
            "id": "156",
            "type": "input",
            "source_block_id": "299",
            "destination_block_id": "136",
            "crane": "1",
            "start_time": "288.29999923706055",
            "end_time": "300.29999923706055"
        },
        {
            "id": "157",
            "type": "input",
            "source_block_id": "296",
            "destination_block_id": "198",
            "crane": "1",
            "start_time": "154.29999923706055",
            "end_time": "162.29999923706055"
        },
        {
            "id": "158",
            "type": "input",
            "source_block_id": "312",
            "destination_block_id": "244",
            "crane": "0",
            "start_time": "572.29999923706055",
            "end_time": "592.29999923706055"
        },
        {
            "id": "4",
            "type": "output",
            "source_block_id": "147",
            "destination_block_id": "290",
            "crane": "1",
            "start_time": "138.29999923706055",
            "end_time": "144.29999923706055"
        },
        {
            "id": "159",
            "type": "input",
            "source_block_id": "268",
            "destination_block_id": "156",
            "crane": "0",
            "start_time": "171.29999923706055",
            "end_time": "178.29999923706055"
        },
        {
            "id": "160",
            "type": "input",
            "source_block_id": "308",
            "destination_block_id": "147",
            "crane": "0",
            "start_time": "482.29999923706055",
            "end_time": "505.29999923706055"
        },
        {
            "id": "117",
            "type": "output",
            "source_block_id": "99",
            "destination_block_id": "281",
            "crane": "1",
            "start_time": "181.29999923706055",
            "end_time": "191.29999923706055"
        },
        {
            "id": "161",
            "type": "input",
            "source_block_id": "264",
            "destination_block_id": "186",
            "crane": "0",
            "start_time": "149.29999923706055",
            "end_time": "157.29999923706055"
        },
        {
            "id": "162",
            "type": "input",
            "source_block_id": "280",
            "destination_block_id": "9",
            "crane": "0",
            "start_time": "165.29999923706055",
            "end_time": "170.29999923706055"
        },
        {
            "id": "163",
            "type": "input",
            "source_block_id": "296",
            "destination_block_id": "81",
            "crane": "1",
            "start_time": "395.29999923706055",
            "end_time": "411.29999923706055"
        },
        {
            "id": "164",
            "type": "input",
            "source_block_id": "307",
            "destination_block_id": "249",
            "crane": "1",
            "start_time": "241.29999923706055",
            "end_time": "249.29999923706055"
        },
        {
            "id": "113",
            "type": "output",
            "source_block_id": "31",
            "destination_block_id": "302",
            "crane": "0",
            "start_time": "309.29999923706055",
            "end_time": "328.29999923706055"
        },
        {
            "id": "165",
            "type": "input",
            "source_block_id": "256",
            "destination_block_id": "189",
            "crane": "1",
            "start_time": "356.29999923706055",
            "end_time": "368.29999923706055"
        },
        {
            "id": "166",
            "type": "input",
            "source_block_id": "323",
            "destination_block_id": "192",
            "crane": "1",
            "start_time": "379.29999923706055",
            "end_time": "387.29999923706055"
        },
        {
            "id": "167",
            "type": "input",
            "source_block_id": "299",
            "destination_block_id": "71",
            "crane": "1",
            "start_time": "252.29999923706055",
            "end_time": "260.29999923706055"
        },
        {
            "id": "168",
            "type": "input",
            "source_block_id": "292",
            "destination_block_id": "110",
            "crane": "0",
            "start_time": "377.29999923706055",
            "end_time": "387.29999923706055"
        },
        {
            "id": "169",
            "type": "input",
            "source_block_id": "284",
            "destination_block_id": "152",
            "crane": "0",
            "start_time": "284.29999923706055",
            "end_time": "298.29999923706055"
        },
        {
            "id": "170",
            "type": "input",
            "source_block_id": "259",
            "destination_block_id": "33",
            "crane": "0",
            "start_time": "213.29999923706055",
            "end_time": "222.29999923706055"
        },
        {
            "id": "171",
            "type": "input",
            "source_block_id": "312",
            "destination_block_id": "80",
            "crane": "0",
            "start_time": "301.29999923706055",
            "end_time": "307.29999923706055"
        },
        {
            "id": "172",
            "type": "input",
            "source_block_id": "307",
            "destination_block_id": "99",
            "crane": "1",
            "start_time": "179.29999923706055",
            "end_time": "181.29999923706055"
        },
        {
            "id": "173",
            "type": "input",
            "source_block_id": "257",
            "destination_block_id": "59",
            "crane": "0",
            "start_time": "182.29999923706055",
            "end_time": "190.29999923706055"
        },
        {
            "id": "174",
            "type": "input",
            "source_block_id": "289",
            "destination_block_id": "247",
            "crane": "0",
            "start_time": "246.29999923706055",
            "end_time": "250.29999923706055"
        },
        {
            "id": "175",
            "type": "input",
            "source_block_id": "257",
            "destination_block_id": "119",
            "crane": "0",
            "start_time": "613.29999923706055",
            "end_time": "630.29999923706055"
        },
        {
            "id": "176",
            "type": "input",
            "source_block_id": "284",
            "destination_block_id": "8",
            "crane": "1",
            "start_time": "265.29999923706055",
            "end_time": "273.29999923706055"
        },
        {
            "id": "177",
            "type": "input",
            "source_block_id": "307",
            "destination_block_id": "57",
            "crane": "0",
            "start_time": "636.29999923706055",
            "end_time": "654.29999923706055"
        },
        {
            "id": "178",
            "type": "input",
            "source_block_id": "270",
            "destination_block_id": "61",
            "crane": "0",
            "start_time": "193.29999923706055",
            "end_time": "196.29999923706055"
        },
        {
            "id": "179",
            "type": "input",
            "source_block_id": "292",
            "destination_block_id": "150",
            "crane": "0",
            "start_time": "436.29999923706055",
            "end_time": "456.29999923706055"
        },
        {
            "id": "69",
            "type": "output",
            "source_block_id": "105",
            "destination_block_id": "313",
            "crane": "1",
            "start_time": "412.29999923706055",
            "end_time": "432.29999923706055"
        },
        {
            "id": "180",
            "type": "input",
            "source_block_id": "286",
            "destination_block_id": "24",
            "crane": "1",
            "start_time": "206.29999923706055",
            "end_time": "213.29999923706055"
        },
        {
            "id": "181",
            "type": "input",
            "source_block_id": "286",
            "destination_block_id": "34",
            "crane": "1",
            "start_time": "341.29999923706055",
            "end_time": "349.29999923706055"
        },
        {
            "id": "182",
            "type": "input",
            "source_block_id": "289",
            "destination_block_id": "62",
            "crane": "0",
            "start_time": "254.29999923706055",
            "end_time": "262.29999923706055"
        }
    ]
}
