{
  "instance": "10_3_0.7s.json",
  "comments": "solution by integrated AWSP formulation",
  "objective": 146.20449213515926,
  "bap_objective": 190.0,
  "csp_objective": 102.40898427031863,
  "products": [
    {
      "id": 170,
      "type": "output",
      "source_block_id": 348,
      "dest_block_id": 776,
      "crane": 0,
      "start_time": 22.699999332428533,
      "end_time": 27.699999332428533,
      "source_cor": "(17,5,0)",
      "dest_cor": "(13,0,0)"
    },
    {
      "id": 419,
      "type": "yard_movement",
      "source_block_id": 349,
      "dest_block_id": 578,
      "crane": 0,
      "start_time": 0.0,
      "end_time": 3.0,
      "source_cor": "(17,5,1)",
      "dest_cor": "(18,8,2)"
    },
    {
      "id": 525,
      "type": "input",
      "source_block_id": 823,
      "dest_block_id": 671,
      "crane": 1,
      "start_time": 1.4999999999999996,
      "end_time": 3.4999999999999996,
      "source_cor": "(26,10,0)",
      "dest_cor": "(24,9,2)"
    },
    {
      "id": 526,
      "type": "input",
      "source_block_id": 795,
      "dest_block_id": 653,
      "crane": 0,
      "start_time": 6.9999999999991545,
      "end_time": 10.999999999999154,
      "source_cor": "(22,11,0)",
      "dest_cor": "(18,9,2)"
    },
    {
      "id": 527,
      "type": "input",
      "source_block_id": 807,
      "dest_block_id": 359,
      "crane": 1,
      "start_time": 10.49999999999632,
      "end_time": 16.49999999999632,
      "source_cor": "(26,2,0)",
      "dest_cor": "(20,5,2)"
    },
    {
      "id": 528,
      "type": "input",
      "source_block_id": 759,
      "dest_block_id": 377,
      "crane": 0,
      "start_time": 44.69999933242899,
      "end_time": 49.69999933242899,
      "source_cor": "(4,11,0)",
      "dest_cor": "(1,6,2)"
    },
    {
      "id": 529,
      "type": "input",
      "source_block_id": 795,
      "dest_block_id": 749,
      "crane": 1,
      "start_time": 22.499999999995346,
      "end_time": 25.499999999995346,
      "source_cor": "(22,11,0)",
      "dest_cor": "(25,10,2)"
    },
    {
      "id": 530,
      "type": "input",
      "source_block_id": 785,
      "dest_block_id": 718,
      "crane": 0,
      "start_time": 15.699999809265133,
      "end_time": 17.699999809265133,
      "source_cor": "(17,11,0)",
      "dest_cor": "(15,10,1)"
    },
    {
      "id": 531,
      "type": "input",
      "source_block_id": 799,
      "dest_block_id": 719,
      "crane": 1,
      "start_time": 27.499999999991545,
      "end_time": 36.499999999991545,
      "source_cor": "(24,11,0)",
      "dest_cor": "(15,10,2)"
    },
    {
      "id": 532,
      "type": "input",
      "source_block_id": 800,
      "dest_block_id": 44,
      "crane": 1,
      "start_time": 46.499999999992454,
      "end_time": 56.499999999992454,
      "source_cor": "(25,0,0)",
      "dest_cor": "(15,1,2)"
    },
    {
      "id": 533,
      "type": "input",
      "source_block_id": 770,
      "dest_block_id": 17,
      "crane": 0,
      "start_time": 30.69999933242856,
      "end_time": 34.69999933242856,
      "source_cor": "(10,0,0)",
      "dest_cor": "(6,1,2)"
    }
  ]
}