{
  "instance": "10_3_0.5s.json",
  "comments": "solution by integrated AWSP formulation",
  "objective": 86.91921935052345,
  "bap_objective": 64.0,
  "csp_objective": 109.83843870104687,
  "products": [
    {
      "id": 76,
      "type": "output",
      "source_block_id": 693,
      "dest_block_id": 819,
      "crane": 1,
      "start_time": 44.099999904623225,
      "end_time": 63.099999904623225,
      "source_cor": "(7,10,0)",
      "dest_cor": "(26,8,0)"
    },
    {
      "id": 366,
      "type": "yard_movement",
      "source_block_id": 694,
      "dest_block_id": 467,
      "crane": 0,
      "start_time": 36.599991004364284,
      "end_time": 39.599991004364284,
      "source_cor": "(7,10,1)",
      "dest_cor": "(6,7,2)"
    },
    {
      "id": 375,
      "type": "input",
      "source_block_id": 766,
      "dest_block_id": 166,
      "crane": 0,
      "start_time": 2.1796043164917966,
      "end_time": 5.179604316491797,
      "source_cor": "(8,0,0)",
      "dest_cor": "(6,3,1)"
    },
    {
      "id": 376,
      "type": "input",
      "source_block_id": 786,
      "dest_block_id": 58,
      "crane": 1,
      "start_time": 3.0999999046325675,
      "end_time": 5.0999999046325675,
      "source_cor": "(18,0,0)",
      "dest_cor": "(20,1,1)"
    },
    {
      "id": 377,
      "type": "input",
      "source_block_id": 807,
      "dest_block_id": 653,
      "crane": 1,
      "start_time": 11.099999904627538,
      "end_time": 19.099999904627538,
      "source_cor": "(26,2,0)",
      "dest_cor": "(18,9,2)"
    },
    {
      "id": 378,
      "type": "input",
      "source_block_id": 787,
      "dest_block_id": 499,
      "crane": 1,
      "start_time": 21.09999990462272,
      "end_time": 25.09999990462272,
      "source_cor": "(18,11,0)",
      "dest_cor": "(17,7,1)"
    },
    {
      "id": 379,
      "type": "input",
      "source_block_id": 822,
      "dest_block_id": 378,
      "crane": 0,
      "start_time": 12.600000381469727,
      "end_time": 16.600000381469727,
      "source_cor": "(0,10,0)",
      "dest_cor": "(2,6,0)"
    },
    {
      "id": 380,
      "type": "input",
      "source_block_id": 786,
      "dest_block_id": 44,
      "crane": 1,
      "start_time": 32.099999904623324,
      "end_time": 35.099999904623324,
      "source_cor": "(18,0,0)",
      "dest_cor": "(15,1,2)"
    },
    {
      "id": 381,
      "type": "input",
      "source_block_id": 810,
      "dest_block_id": 89,
      "crane": 0,
      "start_time": 18.600000381469727,
      "end_time": 23.600000381469727,
      "source_cor": "(0,4,0)",
      "dest_cor": "(5,2,2)"
    },
    {
      "id": 382,
      "type": "input",
      "source_block_id": 762,
      "dest_block_id": 335,
      "crane": 0,
      "start_time": 25.600000381469727,
      "end_time": 31.600000381469727,
      "source_cor": "(6,0,0)",
      "dest_cor": "(12,5,2)"
    },
    {
      "id": 383,
      "type": "input",
      "source_block_id": 757,
      "dest_block_id": 311,
      "crane": 0,
      "start_time": 43.599991004364284,
      "end_time": 49.599991004364284,
      "source_cor": "(3,11,0)",
      "dest_cor": "(4,5,2)"
    }
  ]
}