{
  "instance": "20_3_0.3l.json",
  "comments": "solution by integrated AWSP formulation",
  "objective": 227.2100858561032,
  "bap_objective": 37.0,
  "csp_objective": 417.420171712207,
  "products": [
    {
      "id": 137,
      "type": "output",
      "source_block_id": 2106,
      "dest_block_id": 3023,
      "crane": 0,
      "start_time": 107.09999990463234,
      "end_time": 115.09999990463234,
      "source_cor": "(3,15,0)",
      "dest_cor": "(11,21,0)"
    },
    {
      "id": 849,
      "type": "output",
      "source_block_id": 2679,
      "dest_block_id": 3061,
      "crane": 1,
      "start_time": 28.09999990463257,
      "end_time": 42.09999990463257,
      "source_cor": "(44,18,0)",
      "dest_cor": "(30,21,0)"
    },
    {
      "id": 900,
      "type": "input",
      "source_block_id": 3046,
      "dest_block_id": 69,
      "crane": 1,
      "start_time": 2.0999999046325666,
      "end_time": 3.0999999046325666,
      "source_cor": "(23,0,0)",
      "dest_cor": "(24,1,0)"
    },
    {
      "id": 901,
      "type": "input",
      "source_block_id": 3005,
      "dest_block_id": 1829,
      "crane": 0,
      "start_time": 3.0999999046325675,
      "end_time": 11.099999904632568,
      "source_cor": "(2,21,0)",
      "dest_cor": "(10,13,2)"
    },
    {
      "id": 902,
      "type": "input",
      "source_block_id": 3050,
      "dest_block_id": 87,
      "crane": 1,
      "start_time": 6.099999904632567,
      "end_time": 11.099999904632567,
      "source_cor": "(25,0,0)",
      "dest_cor": "(30,1,0)"
    },
    {
      "id": 903,
      "type": "input",
      "source_block_id": 3110,
      "dest_block_id": 300,
      "crane": 0,
      "start_time": 21.09999990463257,
      "end_time": 22.09999990463257,
      "source_cor": "(0,4,0)",
      "dest_cor": "(1,3,0)"
    },
    {
      "id": 904,
      "type": "input",
      "source_block_id": 3136,
      "dest_block_id": 2851,
      "crane": 0,
      "start_time": 36.09999990463257,
      "end_time": 39.09999990463257,
      "source_cor": "(0,17,0)",
      "dest_cor": "(1,20,1)"
    },
    {
      "id": 905,
      "type": "input",
      "source_block_id": 3020,
      "dest_block_id": 342,
      "crane": 0,
      "start_time": 59.09999990463257,
      "end_time": 64.09999990463257,
      "source_cor": "(10,0,0)",
      "dest_cor": "(15,3,0)"
    },
    {
      "id": 906,
      "type": "input",
      "source_block_id": 3066,
      "dest_block_id": 103,
      "crane": 1,
      "start_time": 63.09999990463173,
      "end_time": 65.09999990463173,
      "source_cor": "(33,0,0)",
      "dest_cor": "(35,1,1)"
    },
    {
      "id": 907,
      "type": "input",
      "source_block_id": 3134,
      "dest_block_id": 1350,
      "crane": 0,
      "start_time": 43.09999990463257,
      "end_time": 49.09999990463257,
      "source_cor": "(0,16,0)",
      "dest_cor": "(1,10,0)"
    },
    {
      "id": 908,
      "type": "input",
      "source_block_id": 3090,
      "dest_block_id": 136,
      "crane": 1,
      "start_time": 75.09999990463173,
      "end_time": 76.09999990463173,
      "source_cor": "(45,0,0)",
      "dest_cor": "(46,1,1)"
    },
    {
      "id": 909,
      "type": "input",
      "source_block_id": 3042,
      "dest_block_id": 2649,
      "crane": 1,
      "start_time": 127.09999990463187,
      "end_time": 145.0999999046319,
      "source_cor": "(21,0,0)",
      "dest_cor": "(34,18,0)"
    },
    {
      "id": 910,
      "type": "input",
      "source_block_id": 3042,
      "dest_block_id": 1531,
      "crane": 0,
      "start_time": 70.09999990463257,
      "end_time": 81.09999990463257,
      "source_cor": "(21,0,0)",
      "dest_cor": "(11,11,1)"
    },
    {
      "id": 911,
      "type": "input",
      "source_block_id": 3074,
      "dest_block_id": 2310,
      "crane": 1,
      "start_time": 85.09999990463173,
      "end_time": 101.09999990463173,
      "source_cor": "(37,0,0)",
      "dest_cor": "(21,16,0)"
    },
    {
      "id": 912,
      "type": "input",
      "source_block_id": 3133,
      "dest_block_id": 2051,
      "crane": 1,
      "start_time": 211.98600945067597,
      "end_time": 228.98600945067597,
      "source_cor": "(51,15,0)",
      "dest_cor": "(34,14,2)"
    },
    {
      "id": 913,
      "type": "input",
      "source_block_id": 3033,
      "dest_block_id": 2457,
      "crane": 1,
      "start_time": 106.09999990463184,
      "end_time": 110.09999990463184,
      "source_cor": "(16,21,0)",
      "dest_cor": "(20,17,0)"
    },
    {
      "id": 914,
      "type": "input",
      "source_block_id": 3029,
      "dest_block_id": 453,
      "crane": 0,
      "start_time": 191.41165735680912,
      "end_time": 208.41165735680912,
      "source_cor": "(14,21,0)",
      "dest_cor": "(2,4,0)"
    },
    {
      "id": 915,
      "type": "input",
      "source_block_id": 3012,
      "dest_block_id": 159,
      "crane": 0,
      "start_time": 92.09999990463234,
      "end_time": 94.09999990463234,
      "source_cor": "(6,0,0)",
      "dest_cor": "(4,2,0)"
    },
    {
      "id": 916,
      "type": "input",
      "source_block_id": 3132,
      "dest_block_id": 762,
      "crane": 0,
      "start_time": 127.09999990463187,
      "end_time": 136.0999999046319,
      "source_cor": "(0,15,0)",
      "dest_cor": "(5,6,0)"
    },
    {
      "id": 917,
      "type": "input",
      "source_block_id": 3094,
      "dest_block_id": 2187,
      "crane": 1,
      "start_time": 377.93497892496583,
      "end_time": 394.93497892496583,
      "source_cor": "(47,0,0)",
      "dest_cor": "(30,15,0)"
    }
  ]
}